/* XPM */
static char * gimp_temp_429759_xpm[] = {
"64 32 5 1",
" 	c None",
".	c #00FF00",
"+	c #00F200",
"@	c #00E600",
"#	c #00CC00",
"                                                                ",
"                                                                ",
"                                                                ",
"                                                                ",
"                                                                ",
"                                                                ",
"                                                                ",
"                                                                ",
"                                                                ",
"             ......                  ......          ......     ",
"            ..+@@+..                ..+@@+..        ..+@@+..    ",
"           .+######+.              .+######+.      .+######+.   ",
"          .+########+.            .+########+.    .+########+.  ",
"         ..##########..          ..##########..  ..##########.. ",
"         .+##########+.          .+##########+.  .+##########+. ",
"         .@##########@.          .@##########@.  .@##########@. ",
"         .@##########@.          .@##########@.  .@##########@. ",
"         .+##########+.          .+##########+.  .+##########+. ",
"         ..##########..          ..##########..  ..##########.. ",
"          .+########+.            .+########+.    .+########+.  ",
"           .+######+.              .+######+.      .+######+.   ",
"            ..+@@+..                ..+@@+..        ..+@@+..    ",
"             ......                  ......          ......     ",
"                                                                ",
"                                                                ",
"                                                                ",
"                                                                ",
"                                                                ",
"                                                                ",
"                                                                ",
"                                                                ",
"                                                                "};
