/* XPM */
static char * gimp_temp_429761_xpm[] = {
"64 32 5 1",
" 	c None",
".	c #FFFF00",
"+	c #F2F200",
"@	c #E6E600",
"#	c #CCCC00",
"                                                                ",
"                                                                ",
"                                                                ",
"                                                                ",
"                                                                ",
"                                                                ",
"                                                                ",
"                                                                ",
"                                                                ",
"             ......                  ......          ......     ",
"            ..+@@+..                ..+@@+..        ..+@@+..    ",
"           .+######+.              .+######+.      .+######+.   ",
"          .+########+.            .+########+.    .+########+.  ",
"         ..##########..          ..##########..  ..##########.. ",
"         .+##########+.          .+##########+.  .+##########+. ",
"         .@##########@.          .@##########@.  .@##########@. ",
"         .@##########@.          .@##########@.  .@##########@. ",
"         .+##########+.          .+##########+.  .+##########+. ",
"         ..##########..          ..##########..  ..##########.. ",
"          .+########+.            .+########+.    .+########+.  ",
"           .+######+.              .+######+.      .+######+.   ",
"            ..+@@+..                ..+@@+..        ..+@@+..    ",
"             ......                  ......          ......     ",
"                                                                ",
"                                                                ",
"                                                                ",
"                                                                ",
"                                                                ",
"                                                                ",
"                                                                ",
"                                                                ",
"                                                                "};
