/* XPM */
static char *bxKlotz136[] = {
/* columns rows colors chars-per-pixel */
"160 160 85 1",
"  c #000000",
". c #140404",
"X c #181611",
"o c #170b2b",
"O c #022806",
"+ c #260101",
"@ c #310e0e",
"# c #2b2c0f",
"$ c #2b2827",
"% c #090747",
"& c #000058",
"* c #190276",
"= c #221c71",
"- c #10520f",
"; c #086c16",
": c #295320",
"> c #276610",
", c #4b0000",
"< c #551106",
"1 c #480031",
"2 c #523202",
"3 c #6a0302",
"4 c #780000",
"5 c #73140b",
"6 c #62282b",
"7 c #793e41",
"8 c #4b4300",
"9 c #545502",
"0 c #444425",
"q c #685a07",
"w c #6b6703",
"e c #777500",
"r c #574f55",
"t c #676f70",
"y c #06058e",
"u c #16129e",
"i c #283bb3",
"p c #0000c3",
"a c #1019cc",
"s c #0000fd",
"d c #0a11f2",
"f c #1826c8",
"g c #1a2af9",
"h c #2130c7",
"j c #253af9",
"k c #2e43d7",
"l c #2a41e3",
"z c #2d47fd",
"x c #314dff",
"c c #03881b",
"v c #00991e",
"b c #05a81d",
"n c #07b923",
"m c #09c926",
"M c #03d829",
"N c #00e52c",
"B c #00f22f",
"V c #00f531",
"C c #880000",
"Z c #881a1a",
"A c #9a0101",
"S c #872121",
"D c #a70000",
"F c #b80101",
"G c #8b7a01",
"H c #c80101",
"J c #d80000",
"K c #e70000",
"L c #fe0000",
"P c #959004",
"I c #8d8e20",
"U c #a59600",
"Y c #b3ae00",
"T c #999241",
"R c #ceab00",
"E c #d6ad00",
"W c #d3b100",
"Q c #d7d300",
"! c #e9cc00",
"~ c #fecd00",
"^ c #fed900",
"/ c #eae900",
"( c #fee800",
") c #fefb00",
"_ c None",
/* pixels */
"________________________________________________________________________________________________________________________________________________________________",
"________________________________________________________________________________________________________________________________________________________________",
"________________________________________________________________________________________________________________________________________________________________",
"________________________________________________________________________________________________________________________________________________________________",
"________________________________________________________________________________________________________________________________________________________________",
"________________________________________________________________________________________________________________________________________________________________",
"________________________________________________________________________________________________________________________________________________________________",
"________________________________________________________________________________________________________________________________________________________________",
"________________________________________________________________________________________________________________________________________________________________",
"________________________________________________________________________________________________________________________________________________________________",
"________________________________________________________________________________________________________________________________________________________________",
"________________________________________________________________________________________________________________________________________________________________",
"_______________________________________________________________________________________ .. _____________________________________________________________________",
"_____________________________________________________________________________________ X+AF, ____________________________________________________________________",
"_____________________________________________________________________________________o6DKLF@____________________________________________________________________",
"____________________________________________________________________________________X<FLLLLH+___________________________________________________________________",
"___________________________________________________________________________________.<HLLLLLLF@__________________________________________________________________",
"________________________________________________________________________________  .3KLLLLLLLLF6X _______________________________________________________________",
"________________________________________________________________________________XrAKLLLLLLLLLLJ7X_______________________________________________________________",
"_______________________________________________________________________________.6AKLLLLLLLLLLLLH7$______________________________________________________________",
"______________________________________________________________________________ <FLLLLLLLLLLLLLLLJ6X_____________________________________________________________",
"_____________________________________________________________________________.<FLLLLLLLLLLLLLLLLLJ6$____________________________________________________________",
"____________________________________________________________________________.<HLLLLLLLLLLLLLLLLLLLH7X___________________________________________________________",
"__________________________________________________________________________o04KLLLLLLLLLLLLLLLLLLLLLH7$ _________________________________________________________",
"_________________________________________________________________________X$DKLLLLLLLLLLLLLLLLLLLLLLLHS$_________________________________________________________",
"________________________________________________________________________X$4KLLLLLLLLLLLLLLLLLLLLLLLLLH7X________________________________________________________",
"_______________________________________________________________________X6DADKLLLLLLLLLLLLLLLLLLLLLLLLLH6X_______________________________________________________",
"______________________________________________________________________.5JLJADKLLLLLLLLLLLLLLLLLLLLLLLLLJSX______________________________________________________",
"_____________________________________________________________________X5HLLLKAAKLLLLLLLLLLLLLLLLLLLLLLLLLJ5X_____________________________________________________",
"____________________________________________________________________.SKLLLLLKDCKLLLLLLLLLLLLLLLLLLLLLLLLLKS$ ___________________________________________________",
"___________________________________________________________________.SKLLLLLLLLDCJLLLLLLLLLLLLLLLLLLLLLLLLLJSX___________________________________________________",
"__________________________________________________________________.ZJLLLLLLLLLKFCJLLLLLLLLLLLLLLLLLLLLLLLLLJSX__________________________________________________",
"_________________________________________________________________+CKLLLLLLLLLLLLFCJLLLLLLLLLLLLLLLLLLLLLLLLLK5$_________________________________________________",
"________________________________________________________________+ZKLLLLLLLLLLLLLLFCHLLLLLLLLLLLLLLLLLLLLLLLLLJZX________________________________________________",
"_______________________________________________________________.AKLLLLLLLLLLLLLLLLFCHLLLLLLLLLLLLLLLLLLLLLLLLLJSX ______________________________________________",
"______________________________________________________________.AKLLLLLLLLLLLLLLLLLLHCFLLLLLLLLLLLLLLLLLLLLLLLLLJSX______________________________________________",
"_____________________________________________________________+DLLLLLLLLLLLLLLLLLLLLLHCFKLLLLLLLLLLLLLLLLLLLLLLLLJS@_____________________________________________",
"____________________________________________________________@AKLLLLLLLLLLLLLLLLLLLLLLJADKLLLLLLLLLLLLLLLLLLLLLLLLKZX____________________________________________",
"___________________________________________________________+AKLLLLLLLLLLLLLLLLLLLLLLLLJADKLLLLLLLLLLLLLLLLLLLLLLLLKA+___________________________________________",
"_________________________________________________________.6AKLLLLLLLLLLLLLLLLLLLLLLLLLLJAAKLLLLLLLLLLLLLLLLLLLLLLLLKZ@__________________________________________",
"________________________________________________________ rFLLLLLLLLLLLLLLLLLLLLLLLLLLLLLKAAKLLLLLLLLLLLLLLLLLLLLLLLLKZ@. X     .   X X _________________________",
"_______________________________________________________X7FLLLLLLLLLLLLLLLLLLLLLLLLLLLLLLLKACKLLLLLLLLLLLLLLLLLLLLLLLLKD$0000000000000$X ________________________",
"______________________________________________________X6HLLLLLLLLLLLLLLLLLLLLLLLLLLLLLLLLLLDCJLLLLLLLLLLLLLLLLLLLLLLLLJ3wQQQQQQ/QQQQY9X ________________________",
"_____________________________________________________.6FKLLLLLLLLLLLLLLLLLLLLLLLLLLLLLLLLLLKFAHLLLLLLLLLLLLLLLLLLLLLLLF2Y))))))))))Qee8 ________________________",
"__________________________________ i###X####$##O@$##$5HKLLLLLLLLLLLLLLLLLLLLLLLLLLLLLLLLLLLLKFCHLLLLLLLLLLLLLLLLLLLLLA2U()))))))))Q9PQq ________________________",
"__________________________________Xzhhhhhifhfhhhihk*<HLLLLLLLLLLLLLLLLLLLLLLLLLLLLLLLLLLLLLLLLF4HLLLLLLLLLLLLLLLLLLKA2U^)))))))))Y#U/(q ________________________",
"_______________________________O.Xuxxxxxxxxxxxxxxxa1JLLLLLLLLLLLLLLLLLLLLLLLLLLLLLLLLLLLLLLLLLLH4FLLLLLLLLLLLLLLLLK59W^(())))))/U8R(((q ________________________",
"______________________________ $=hzxxxxxxxxxxxxxxu1JLLLLLLLLLLLLLLLLLLLLLLLLLLLLLLLLLLLLLLLLLLLLJCFKLLLLLLLLLLLLLJ5wW^(())))))/P9Q/^^^q ________________________",
"_____________________________ $=kxxxxxxxxxxxxxxxuZJLLLLLLLLLLLLLLLLLLLLLLLLLLLLLLLLLLLLLLLLLLLLLLHADKLLLLLLLLLLLH<G~^^())))))/ewQ/(((^q ________________________",
"_____________________________$ukxxxxxxxxxxxxxxju5KLLLLLLLLLLLLLLLLLLLLLLLLLLLLLLLLLLLLLLLLLLLLLLLLHADKLLLLLLLLKF<U~~^((())))QwwQ((((^^q ________________________",
"____________________________Xulxxxxxxxxxxxxxxxy5KLLLLLLLLLLLLLLLLLLLLLLLLLLLLLLLLLLLLLLLLLLLLLLLLLLJAALLLLLLLKD2U~^^(()/)))Q9e//(((^^^qo________________________",
"__________________________ . %%%%%%%%%%%%%%%%%5KLLLLLLLLLLLLLLLLLLLLLLLLLLLLLLLLLLLLLLLLLLLLLLLLLLLLKACLLLLLKA2Y~~^^((()))Y9P/))(((^^(q ________________________",
"__________________________.yhaafaaaaaafaaafuo,KLLLLLLLLLLLLLLLLLLLLLLLLLLLLLLLLLLLLLLLLLLLLLLLLLLLLLLKDAKLLK49R~~^^((())/Y9U))))((^(^^qo________________________",
"__________________________ ixxxxxxxxxzzzxzh=3JLLLLLLLLLLLLLLLLLLLLLLLLLLLLLLLLLLLLLLLLLLLLLLLLLLLLLLLLKDAHH3e!~~^^(()))/P9Y/))(((((^^(q ________________________",
"__________________________.ixxxxxxxxxxxxxj&@ADFFDDDDDDDDDDDDDDDDDFDDDDFDDAACAAAAAAACAAAAAAAAAAAAAAAAAAAC332G~~~^((()))/P9Y/))()((^(^^(q ________________________",
"__________________________Oixxxxxxxxxxxxxku=uyu=u***y***********o&******%0... ... .... . . .r0weGeeeeGeGeGR!~^^^((())Qe9Q)))))((((^^(^q ________________________",
"__________________________.ixxxxxxxxxxzxxxxxlzjjjjjggdddddsssssp%pdsssddyo ________________ TW!!!!!!!!!!!~~^^^((()))Q9wQ))))))((^(^((QwX________________________",
"__________________________ ixxxxxxxxxxxxxxxxxxxxzzzjjjggdddddssp&pssssssut.________________r#889888889888889888988888e/)))))(((((^^^Qq  ________________________",
"__________________________.ixxxxxzxzxxxzxxxxxxxxxzzzzjjggddddssd&pssssssyt.________________r9YYYYYYYYYYYYYYYYYYYYYYY9U))))()((^(^^^R0@XXo$X ____________________",
"__________________________Oixxxxxxxxxxxxxxxxxxxxzxxzzzjjjgggddsp&pssssssyt ________________.e))))))))))))))))))))))/eU))))(((^(^^^Y:-:r::::o ___________________",
"__________________________Oixxxxxxxxxxxxxxxxxxxzxxzxzxzzjjgggddd&pssssssyt.________________ e))))))))))))))))))))))/eU)))(((((^^~U>cnbbbbb-O ___________________",
"__________________________.ixxxxxxxxxxxxxxxxxxxxxxxxxxzzzjjjggdd&pssssssyt ________________.e))))))))))))))))))))))/eU)((((((^(!P>vmmmmmm---.___________________",
"__________________________.ixxxxxxxxxxxxxxxxxxxxzxxzxzzxxzzjjjga&pssssssytX________________ e))))))))))))))))))))))/wU(((((^^(!w-bmmmmmm-;n; ___________________",
"__________________________ ixxxxxxxxxxxxxxxxzxxzxxxxxxxzxxzzjjjg&pssssssyt.________________.e))))))))))))))))))))))/eU(((^^^^Q9;mmmmmmc-;mM; ___________________",
"__________________________.ixxxxxxxxxxxxxxxxxxxxxxzxxzxxzxzzzzzf&pssssssutX________________ e))))))))))))))))))))))/eU/(^^(^R9;mmmmmm;-cmmm; ___________________",
"__________________________Oixxxxxxxxxxxxxxxxzxzxxxxxxxzzzxzxzzzj&pssssssyt ________________.e))))))))))))))))))))))/wU(^(^^Y>cmmmmmn;;vmmmm;.___________________",
"__________________________ ixxxxxxxxxxxxxxxxxxxxxxxxxxxzzzzxzxzh&pssssssyt ________________#U))))))))))))))))))))))/eU^^(!P>cmmnmmm;-bmmmmm; ___________________",
"__________________________.ixxxxxxxxxxxxxxxxxxxxxxxxxxzxzzzzxzzj&pssssssut._______________X#Y))))))))))))))))))))))/wU(^!eX-;;;;;;-;bMmmmmn; ___________________",
"__________________________.ixxxxxxxxxxxxxxxxxxxxxxxxxxxxxxzxzzzl&pssssssytX______________r:-G))))))))))))))))))))))/wU^!w-;;;;;;;;Onmmmmmmm; ___________________",
"__________________________Oixxxxxxxxxxxxxxxxxxxxxxxxxxxxxxxxxxxl&pssssssut.______________r:cG))))))))))))))))))))))/eU!9;mmmMmMmMnOmmmmmmmm;.___________________",
"__________________________.ixxxxxxxxxxxxxxxxxxxxxxxxxxxxxxxxxxxl&pssssssyt.______________t;cG))))))))))))))))))))))/ee9;mmmmmmmmmmOnmmmmmmm; ___________________",
"__________________________ ixxxxxxxxxxxxxxxxxxxxxxxxxxxxxxxxxxzl&pssssssyt ______________r:cqYYYYYYYYYYYYYYYYYYYYYYY9#cmmmmmmmmmmmOmmmmmmmm- ___________________",
"__________________________Oixxxxxxxxxxxxxxxxxxxxxxxxxxxxxxxxxxxl&pssssssyt.______________r:n->>>>>>>>>>>>>>>>>>>>>>>-cmmmmmmmmmmmmOmmmmmmmm; ___________________",
"__________________________.ixxxxxxxxxxxxxxxxxxxxxxxxxxxxxxxxxxxl&pssssssyt ______________r:BNMMNMMMmnnnnnnnnnnnnnnnbnmmmmmmmmmmmmmOmmmmmmmm;.___________________",
"__________________________.ixxxxxxxxxxxxxxxxxxxxxxxxxxxxxxxxxxxl&pssssssytX______________r:VNNNNNNNMmmmmmmmmmmmmmmmmmmmmmmmmmmmmmmOmmmmmmmm; ___________________",
"__________________________ ixxxxxxxxxxxxxxxxxxxxxxxxxxxxxxxxxxxl&pssssssyt.______________r:VNNNNNNNMMMmmmmmMmmmMmmmmmMmmmmMmmMmMmmOmmmmmmmm- ___________________",
"__________________________.ixxxxxxxxxxxxxxxxxxxxxxxxxxxxxxxxxxxl&pssssssyt ______________r:VBNNNNNNMMMMmMmMmMmmMmMMMMMmMMMMMMMMMMmOmmmmmmmm; ___________________",
"__________________________Oixxxxxxxxxxxxxxxxxxxxxxxxxxxxxxxxxxxl&pssssssyt.______________r:VNNNNNNNMNMNMMMMMMMMMMMMMMMNMMMNMMNNMNmOmmmmmmmm;.___________________",
"__________________________ ixxxxxxxxxxxxxxxxxxxxxxxxxxxxxxxxxxxl&pssssssy$ ______________XOVNNNNNNNNNNNMMNMNNNMNNMNNNNNNNNNMNNNNNMOmmmmmmmm- ___________________",
"__________________________ ixxxxxxxxxxxxxxxxxxxxxxxxxxxxxxxxxxxl&pssssssp$tttttttttttttttr-VNNNNNNNNNNNNNNNNNNNNNNNNNNNNNNNNNNNNNMOmmmmmmmm; ___________________",
"________________________.$$ixxxxxxxxxxxxxxxxxxxxxxxxxxxxxxxxxxxl&pssssssy1343444C44444443<-BNNNNNNNNNNNNNNNNNNNNNNNNNNNNNNNNNNNNNMOnmmmmmmm;.___________________",
"_______________________ X6,ixxxxxxxxxxxxxxxxxxxxxxxxxxxxxxxxxxxl&pssssssp5LLLLLLLLLLLLLLLF-BNNNNNNNNNNNNNNNNNNNNNNNNNNNNNNNNNNNNNMOmmmmmmmn; ___________________",
"_______________________X<H4ixxxxxxxxxxxxxxxxxxxxxxxxxxxxxxxxxxxl&pssssss*4LLLLLLLLLLLLLLLF:NNNNNNNNNNNNNNNNNNNNNNNNNNNNNNNNNNNNNNMOmmmmmmmn-## _________________",
"______________________.5JLCixxxxxxxxxxxxxxxxxxxxxxxxxxxxxxxxxxxl&pssssp*1HLLLLLLLLLLLLLLLF-BNNNNNBNNNNNNNNNNNNNNNNNNNNNNNNNNNNNNNMOmmmmmmb>eYP9##X______________",
"_____________________.4KLL4ixxxxxxxxxxxxxxxxxxxxxxxxxxxxxxxxxxxl&psssp&3HLLLLLLLLLLLLLLLLF-BNNNNNNNNNNNNNNNNNNNNNNNNNNNNNNNNNNNNNMOmmmmmv-PW^/QQUwX_____________",
"__________________ X$AKLLLCixxxxxxxxxxxxxxxxxxxxxxxxxxxxxxxxxxxl&psspoCKLLLLLLLLLLLLLLLLLF-BNNNNNNNNNNNNNNNNNNNNNNNNNNNNNNNNNNNNNMOmmmmc#Y~^^(()//9 ____________",
"_________________ X6DLLLLL4ixzzzzzzzzzxxxxxxxxxxxxxxxxxxxxxxxxxl&psy1ALLLLLLLLLLLLLLLLLLLF:NNNNNNNNNNNNNNNNNNNNNNNNNNNNNNNNNNNNNNMOmmm;9R~^^(()/)/9 ____________",
"_________________.<FLLLLLL4uzjjjjjzjjzzzzzxxxxxxxxxxxxxxxxxxxxxl&py,DLLLLLLLLLLLLLLLLLLLLH-BNNNNNNNNNNNNNNNNNNNNNNNNNNNNNNNNNNNNNMOmn;wE~^^((/QQYeX ____________",
"________________.3HLLLLLLL4*aaaaaaaaaafaffffffffkhhfffffffffffff%%3HLLLLLLLLLLLLLLLLLLLLLF-BNNNNNNNNNNNNNNNNNNNNNNNNNNNNNNNNNNNNNMOn;8UQWQQYYUeweP# ____________",
"_______________.3JLLLLLLLLD1111111111111111111111111111111111111,4HLLLLLLLLLLLLLLLLLLLLLLF:BBBBBBBBBVVBBBBBBBVBNBBBVVVBVBBBBBBBBBMO>#qeeewewwUYQ!^8 ____________",
"_____________X6CJLLLLLLLLLKKJKKJJKKJKJJKJJKKJKKJJKJKJKKKJKKKJKKJKKLLLLLLLLLLLLLLLLLLLLLLLH#vbvvbvvbvvbvvbvvvvbvcvvvvvbvvvbvvccccccOR!WWWWQQQQ()(^^2 ____________",
"____________.X@CCCCCCCCCCCCCC4CCCCCCCCCCCCCCCCCCCCCCCCC4CC4CCCCCCCCCCCCCCCCCCCCCC4CCCCCCC3.  . . . . . . .. .. ,33343333433@8qqqqq!~~^^^^^^())(((^8 ____________",
"____________ @4444434444434444434444434444434344444344444344444344444344444343444344444344CCCCCCCCCACCCCCACCCC<DLLLLLLLLLLLCE~~~~~~~~~^^(^()))(((^8 ____________",
"____________ ,LLLLLLLLLLLLLLLLLLLLLLLLLLLLLLLLLLLLLLLLLLLLLLLLLLLLLLLLLLLLLLLLLLLLLLLLLLLLLLLLLLLLLLLLLLLLLLLK4ALLLLLLLLLLK5E~~~~~~~~~^^(((()()(^^8 ____________",
"____________ ,LLLLLLLLLLLLLLLLLLLLLLLLLLLLLLLLLLLLLLLLLLLLLLLLLLLLLLLLLLLLLLLLLLLLLLLLLLLLLLLLLLLLLLLLLLLLLLLK4DLLLLLLLLLLL5E~~~~~~~~^^^((())))((^2 ____________",
"____________ ,LLLLLLLLLLLLLLLLLLLLLLLLLLLLLLLLLLLLLLLLLLLLLLLLLLLLLLLLLLLLLLLLLLLLLLLLLLLLLLLLLLLLLLLLLLLLLLLK4ALLLLLLLLLLK5E~~~~~~~~^^^^(()))()(^8 ____________",
"____________ ,LLLLLLLLLLLLLLLLLLLLLLLLLLLLLLLLLLLLLLLLLLLLLLLLLLLLLLLLLLLLLLLLLLLLLLLLLLLLLLLLLLLLLLLLLLLLLLLK4DLLLLLLLLLLKZE~~~~~~~^^^^((())()((^8 ____________",
"____________ ,LLLLLLLLLLLLLLLLLLLLLLLLLLLLLLLLLLLLLLLLLLLLLLLLLLLLLLLLLLLLLLLLLLLLLLLLLLLLLLLLLLLLLLLLLLLLLLLK4ALLLLLLLLLLK5E~~~~~~~^^((((()))((^^8 ____________",
"____________ ,LLLLLLLLLLLLLLLLLLLLLLLLLLLLLLLLLLLLLLLLLLLLLLLLLLLLLLLLLLLLLLLLLLLLLLLLLLLLLLLLLLLLLLLLLLLLLLLK4DLLLLLLLLLLK5E~~~~~~~^^(^((())))((^2 ____________",
"____________ ,LLLLLLLLLLLLLLLLLLLLLLLLLLLLLLLLLLLLLLLLLLLLLLLLLLLLLLLLLLLLLLLLLLLLLLLLLLLLLLLLLLLLLLLLLLLLLLLK4ALLLLLLLLLLL5E~~~~~~~^^((((()())((^8 ____________",
"____________ ,LLLLLLLLLLLLLLLLLLLLLLLLLLLLLLLLLLLLLLLLLLLLLLLLLLLLLLLLLLLLLLLLLLLLLLLLLLLLLLLLLLLLLLLLLLLLLLLK4ALLLLLLLLLLL5E~~~~~^^^((((())))(((^8 ____________",
"____________ ,LLLLLLLLLLLLLLLLLLLLLLLLLLLLLLLLLLLLLLLLLLLLLLLLLLLLLLLLLLLLLLLLLLLLLLLLLLLLLLLLLLLLLLLLLLLLLLLK4DLLLLLLLLLLK5E~~~~^^^^(((((())))(^^8 ____________",
"____________ ,LLLLLLLLLLLLLLLLLLLLLLLLLLLLLLLLLLLLLLLLLLLLLLLLLLLLLLLLLLLLLLLLLLLLLLLLLLLLLLLLLLLLLLLLLLLLLLLK4ALLLLLLLLLLKCE~~~~^^^((((())))))((^2 ____________",
"____________ ,LLLLLLLLLLLLLLLLLLLLLLLLLLLLLLLLLLLLLLLLLLLLLLLLLLLLLLLLLLLLLLLLLLLLLLLLLLLLLLLLLLLLLLLLLLLLLLLK4DLLLLLLLLLLK5E~~~~^^^((((((()))()(^8 ____________",
"____________ ,LLLLLLLLLLLLLLLLLLLLLLLLLLLLLLLLLLLLLLLLLLLLLLLLLLLLLLLLLLLLLLLLLLLLLLLLLLLLLLLLLLLLLLLLLLLLLLLK4ALLLLLLLLLLKCE~~~^^^((((())())))(^^8 ____________",
"____________ ,LLLLLLLLLLLLLLLLLLLLLLLLLLLLLLLLLLLLLLLLLLLLLLLLLLLLLLLLLLLLLLLLLLLLLLLLLLLLLLLLLLLLLLLLLLLLLLLK4ALLLLLLLLLLL5E~~~~^^((()(())))((((^8 ____________",
"____________ ,LLLLLLLLLLLLLLLLLLLLLLLLLLLLLLLLLLLLLLLLLLLLLLLLLLLLLLLLLLLLLLLLLLLLLLLLLLLLLLLLLLLLLLLLLLLLLLLK4DLLLLLLLLLLK5E~~~^^((())))))))))((^8 ____________",
"____________ ,LLLLLLLLLLLLLLLLLLLLLLLLLLLLLLLLLLLLLLLLLLLLLLLLLLLLLLLLLLLLLLLLLLLLLLLLLLLLLLLLLLLLLLLLLLLLLLLK4ALLLLLLLLLLK4E~~~^^((((()(()))))((^8 ____________",
"____________ ,LLLLLLLLLLLLLLLLLLLLLLLLLLLLLLLLLLLLLLLLLLLLLLLLLLLLLLLLLLLLLLLLLLLLLLLLLLLLLLLLLLLLLLLLLLLLLLLK4ALLLLLLLLLLK5E~~~^^(()(()))))))(((^2 ____________",
"____________ ,LLLLLLLLLLLLLLLLLLLLLLLLLLLLLLLLLLLLLLLLLLLLLLLLLLLLLLLLLLLLLLLLLLLLLLLLLLLLLLLLLLLLLLLLLLLLLLLK4DLLLLLLLLLLL5E~~^^(((())))))))))((^8 ____________",
"____________ ,LLLLLLLLLLLLLLLLLLLLLLLLLLLLLLLLLLLLLLLLLLLLLLLLLLLLLLLLLLLLLLLLLLLLLLLLLLLLLLLLLLLLLLLLLLLLLLLK4ALLLLLLLLLLK5E~~~^^()))())))))))((^8 ____________",
"____________ ,LLLLLLLLLLLLLLLLLLLLLLLLLLLLLLLLLLLLLLLLLLLLLLLLLLLLLLLLLLLLLLLLLLLLLLLLLLLLLLLLLLLLLLLLLLLLLLLK4DLLLLLLLLLLK<R~~~^^(())))))))))))(^8 ____________",
"____________ ,LLLLLLLLLLLLLLLLLLLLLLLLLLLLLLLLLLLLLLLLLLLLLLLLLLLLLLLLLLLLLLLLLLLLLLLLLLLLLLLLLLLLLLLLLLLLLLLK4ALLLLLLLLLLK2R~~~^(())))))))))))((^8 ____________",
"____________ ,LLLLLLLLLLLLLLLLLLLLLLLLLLLLLLLLLLLLLLLLLLLLLLLLLLLLLLLLLLLLLLLLLLLLLLLLLLLLLLLLLLLLLLLLLLLLLLLK4ALLLLLLLLLLK<R~~^^^(()))))))))))((^8 ____________",
"____________ ,LLLLLLLLLLLLLLLLLLLLLLLLLLLLLLLLLLLLLLLLLLLLLLLLLLLLLLLLLLLLLLLLLLLLLLLLLLLLLLLLLLLLLLLLLLLLLLLK4DLLLLLLLLLLK<R~~~^(())))))))))))((^8 ____________",
"____________ ,LLLLLLLLLLLLLLLLLLLLLLLLLLLLLLLLLLLLLLLLLLLLLLLLLLLLLLLLLLLLLLLLLLLLLLLLLLLLLLLLLLLLLLLLLLLLLLLK4ALLLLLLLLLLK2R~~^^(())))))))))))((^8 ____________",
"____________ ,LLLLLLLLLLLLLLLLLLLLLLLLLLLLLLLLLLLLLLLLLLLLKLLLLKKLLLLLLLLLLLLLLLLLLLLLLLLLLLLLLLLLLLLLLLLLLLLK4DLLLLLLLLLLK<R~~^^(()))))))))))))(^2 ____________",
"____________ ,LLLLLLLLLLLLLLLLLLLLLLLLLLLLLLLLLLLLLLLLLLKJDDAZZDFHKLLLLLLLLLLLLLLLLLLLLLLLLLLLLLLLLLLLLLLLLLLK4ALLLLLLLLLLK<R~~~^(()))))))))))(((^8 ____________",
"____________ ,LLLLLLLLLLLLLLLLLLLLLLLLLLLLLLLLLLLLLLLKJD4@$..++.$65DJLLLLLLLLLLLLLLLLLLLLLLLLLLLLLLLLLLLLLLLLK4DLLLLLLLLLLK2R~~^^(())))))))))))((^8 ____________",
"____________ ,LLLLLLLLLLLLLLLLLLLLLLLLLLLLLLLLLLLLLKF3,AH,._____ . X<HKLLLLLLLLLLLLLLLLLLLLLLLLLLLLLLLLLLLLLLK4ALLLLLLLLLLK<R~~~^((())))))))))))(^8 ____________",
"____________ ,LLLLLLLLLLLLLLLLLLLLLLLLLLLLLLLLLLLLJ4,AKKJ@__________ $4HLLLLLLLLLLLLLLLLLLLLLLLLLLLLLLLLLLLLLK4ALLLLLLLLLLK<W~~^^(())))))))))))((^8 ____________",
"____________ ,LLLLLLLLLLLLLLLLLLLLLLLLLLLLLLLLLLLH33FKJK4 ___________.$<FKLLLLLLLLLLLLLLLLLLLLLLLLLLLLLLLLLLLK4DLLLLLLLLLLK2R~~~^^)))))))))))))((^8 ____________",
"____________ ,LLLLLLLLLLLLLLLLLLLLLLLLLLLLLLLLLLF34KKKKK< _____________.<DLLLLLLLLLLLLLLLLLLLLLLLLLLLLLLLLLLLK4ALLLLLLLLLLK<R~~^^(())))))))))))((^8 ____________",
"____________ ,LLLLLLLLLLLLLLLLLLLLLLLLLLLLLLLLLH,CJKKKKF6 ______________XoDLLLLLLLLLLLLLLLLLLLLLLLLLLLLLLLLLLK4DLLLLLLLLLLK<R~~^^(())))))))))))((^8 ____________",
"____________ ,LLLLLLLLLLLLLLLLLLLLLLLLLLLLLLLLJ,AJKJKKKC@ _______________ @FLLLLLLLLLLLLLLLLLLLLLLLLLLLLLLLLLK4ALLLLLLLLLLK2R~~^^(())))))))))))((^2 ____________",
"____________ ,LLLLLLLLLLLLLLLLLLLLLLLLLLLLLLLK34KKKKKKK3 _________________.<JLLLLLLLLLLLLLLLLLLLLLLLLLLLLLLLLK4ALLLLLLLLLLK<R~~~^(())))))))))))((^8 ____________",
"____________ ,LLLLLLLLLLLLLLLLLLLLLLLLLLLLLLLA<KKKKKKKK4._________________ rCKLLLLLLLLLLLLLLLLLLLLLLLLLLLLLLLK4DLLLLLLLLLLK<R~~~^^())))))))))))((^8 ____________",
"____________ ,LLLLLLLLLLLLLLLLLLLLLLLLLLLLLLH,FKKKJKKKJ6X__________________.@DLLLLLLLLLLLLLLLLLLLLLLLLLLLLLLLK4ALLLLLLLLLLK2R~~^^(()))))))))))))(^8 ____________",
"____________ ,LLLLLLLLLLLLLLLLLLLLLLLLLLLLLL3CKKKKKJKKF7X___________________X5JLLLLLLLLLLLLLLLLLLLLLLLLLLLLLLK4DLLLLLLLLLLK<R~~^^(())))))))))))((^8 ____________",
"____________ ,LLLLLLLLLLLLLLLLLLLLLLLLLLLLLH3HJKJKKKKKF@ ___________________X@FLLLLLLLLLLLLLLLLLLLLLLLLLLLLLLK4ALLLLLLLLLLK<R~~~^^(()))))))))))((^8 ____________",
"____________ ,LLLLLLLLLLLLLLLLLLLLLLLLLLLLLC3JJKKKKKKKD+_____________________$5KLLLLLLLLLLLLLLLLLLLLLLLLLLLLLK4DLLLLLLLLLLK2R~~~^(())))))))))))((^8 ____________",
"____________ ,LLLLLLLLLLLLLLLLLLLLLLLLLLLLJ3DKKKKKKKKKD+______________________@HLLLLLLLLLLLLLLLLLLLLLLLLLLLLLK4ALLLLLLLLLLK<R~~^^(())))))))))))((^8 ____________",
"____________ ,LLLLLLLLLLLLLLLLLLLLLLLLLLLLD3HKKKKKJKKKA.______________________$CLLLLLLLLLLLLLLLLLLLLLLLLLLLLLK4ALLLLLLLLLLK<W~~~^((())))))))))))(^2 ____________",
"____________ ,LLLLLLLLLLLLLLLLLLLLLLLLLLLK4AKKKJKKKKKKA ______________________$<KLLLLLLLLLLLLLLLLLLLLLLLLLLLLK4DLLLLLLLLLLK2R~~^^(()))))))))))(((^8 ____________",
"____________ ,LLLLLLLLLLLLLLLLLLLLLLLLLLLH,FKKKKJKKKLKC._______________________$FLLLLLLLLLLLLLLLLLLLLLLLLLLLLK4ALLLLLLLLLLK<R~~~^(())))))))))))((^8 ____________",
"____________ ,LLLLLLLLLLLLLLLLLLLLLLLLLLLF3KKJKKKKKKKF<X_______________________rCLLLLLLLLLLLLLLLLLLLLLLLLLLLLK4DLLLLLLLLLLK<R~~^^^()))))))))))))(^8 ____________",
"____________ ,LLLLLLLLLLLLLLLLLLLLLLLLLLK4CKKKKKKKKKF+  _______________________X3KLLLLLLLLLLLLLLLLLLLLLLLLLLLK4ALLLLLLLLLKF#R~~^^^())))))))))))(((8 ____________",
"____________ ,LLLLLLLLLLLLLLLLLLLLLLLLLLL3DKKJKJKKJA.___________________________6JLLLLLLLLLLLLLLLLLLLLLLLLLLLK4ALLLLLLLLKA@XE~~~^(())))))))))))((^2 ____________",
"____________ ,LLLLLLLLLLLLLLLLLLLLLLLLLLK,HKKKKJJH5.____________________________7FLLLLLLLLLLLLLLLLLLLLLLLLLLLK4DLLLLLLLK5@X.R~~^^(())))))))))))((^8 ____________",
"____________ ,LLLLLLLLLLLLLLLLLLLLLLLLLLJ,KKKKKKH5X ____________________________rDLLLLLLLLLLLLLLLLLLLLLLLLLLLK4ALLLLLLJ<X__.R~~~^^())))))))))))((^8 ____________",
"____________ ,LLLLLLLLLLLLLLLLLLLLLLLLLLH3JKKJKF5$ _____________________________tALLLLLLLLLLLLLLLLLLLLLLLLLLLK4DLLLLLF<.___.R~~~^(())))))))))))/(^8 ____________",
"____________ ,LLLLLLLLLLLLLLLLLLLLLLLLLLA4KKKKF@ .______________________________XCLLLLLLLLLLLLLLLLLLLLLLLLLLLK4ALLLKA6X ___ R^~^^((()))))))))))((^q ____________",
"____________ ,LLLLLLLLLLLLLLLLLLLLLLLLLLACKKJF. ________________________________.CLLLLLLLLLLLLLLLLLLLLLLLLLLLK4DLLKC$$ ____$8W!^^()))))))))))))((Y# ____________",
"____________ ,LLLLLLLLLLLLLLLLLLLLLLLLLLCCKHCX__________________________________ ZKLLLLLLLLLLLLLLLLLLLLLLLLLLK4ALJ5X________XXGRW!/))))))))))/QYeX _____________",
"____________ ,LLLLLLLLLLLLLLLLLLLLLLLLLL3DH5X __________________________________.SJLLLLLLLLLLLLLLLLLLLLLLLLLLK4AH5.__________ X.0wIPUYYYYYYYPI8X _______________",
"____________ ,LLLLLLLLLLLLLLLLLLLLLLLLLL3C5$X___________________________________.SJLLLLLLLLLLLLLLLLLLLLLLLLLLK336X_______________X$  XO#XXX.X$ _________________",
"____________ ,LLLLLLLLLLLLLLLLLLLLLLLLLL3...____________________________________.6JLLLLLLLLLLLLLLLLLLLLLLLLLLK4.X ______________________________________________",
"____________ X++++++++++++++++++++++++++. ______________________________________.0++++++++++++++++++++++++++++X ________________________________________________",
"________________________________________________________________________________________________________________________________________________________________",
"________________________________________________________________________________________________________________________________________________________________",
"________________________________________________________________________________________________________________________________________________________________",
"________________________________________________________________________________________________________________________________________________________________",
"________________________________________________________________________________________________________________________________________________________________",
"________________________________________________________________________________________________________________________________________________________________",
"________________________________________________________________________________________________________________________________________________________________",
"________________________________________________________________________________________________________________________________________________________________",
"________________________________________________________________________________________________________________________________________________________________",
"________________________________________________________________________________________________________________________________________________________________",
"________________________________________________________________________________________________________________________________________________________________",
"________________________________________________________________________________________________________________________________________________________________"
};

