/* XPM */
static char * dnBlue3_xpm[] = {
"128 128 8 1",
" 	c None",
".	c #002226",
"+	c #004B4B",
"@	c #003832",
"#	c #00261E",
"$	c #003027",
"%	c #004B4D",
"&	c #00383E",
"                                                                                                                                ",
"                                                                                                                                ",
"                                                                                                                                ",
"                                                                                                                                ",
"                                                                                                                                ",
"                                                                                                                                ",
"                                                                                                                                ",
"           .+@@@@@@+.                      .+@@@@@@+.                      .+@@@@@@+.                      .+@@@@@@+.           ",
"         .+##@@@@@@##+.                  .+##@@@@@@##+.                  .+##@@@@@@##+.                  .+##@@@@@@##+.         ",
"        .$#+.      .+#$.                .$#+.      .+#$.                .$#+.      .+#$.                .$#+.      .+#$.        ",
"        +#.          .#+                +#.          .#+                +#.          .#+                +#.          .#+        ",
"       .#+            +#.              .#+            +#.              .#+            +#.              .#+            +#.       ",
"       +#.            .#+              +#.            .#+              +#.            .#+              +#.            .#+       ",
"       @@              @@              @@              +$@@@@@@@@@@@@@@$+              +$@@@@@@@@@@@@@@$+              @@       ",
"       @@              @@              @@              .+@@@@@@@@@@@@@@+.              .+@@@@@@@@@@@@@@+.              @@       ",
"       @@              @@              @@                                                                              @@       ",
"       @@              @@              @@                                                                              @@       ",
"       @@              @@              @@              .+@@@@@@@@@@@@@@+.              .+@@@@@@@@@@@@@@+.              @@       ",
"       @@              @@              @@              +$@@@@@@@@@@@@@@$+              +$@@@@@@@@@@@@@@$+              @@       ",
"       +#.            .#+              +#.            .#+              +#.            .#+              +#.            .#+       ",
"       .#+            +#.              .#+            +#.              .#+            +#.              .#+            +#.       ",
"        +#.          .#+                +#.          .#+                +#.          .#+                +#.          .#+        ",
"        .$#+.      .+#$.                .$#+.      .+#$.                .$#+.      .+#$.                .$#+.      .+#$.        ",
"         .+##@@@@@@##+.                  .+##@@@@@@##+.                  .+##@@@@@@##+.                  .+##@@@@@@##+.         ",
"           .+@@@@@@+.                      .+@@@@@@+.                      .+@@@@@@+.                      .+@@@@@@+.           ",
"                                                                                                                                ",
"                                                                                                                                ",
"                                                                                                                                ",
"                                                                                                                                ",
"                                                                                                                                ",
"                                                                                                                                ",
"                                                                                                                                ",
"                                                                                                                                ",
"                                                                                                                                ",
"                                                                                                                                ",
"                                                                                                                                ",
"                                                                                                                                ",
"                                                                                                                                ",
"                                                                                                                                ",
"           .+@@@@@@+.                      .+@@@@@@+.                      .+@@@@@@+.                      .+@@@@@@+.           ",
"         .+##@@@@@@##+.                  .+##@@@@@@##+.                  .+##@@@@@@##+.                  .+##@@@@@@##+.         ",
"        .$#+.      .+#$.                .$#+.      .+#$.                .$#+.      .+#$.                .$#+.      .+#$.        ",
"        +#.          .#+                +#.          .#+                +#.          .#+                +#.          .#+        ",
"       .#+            +#.              .#+            +#.              .#+            +#.              .#+            +#.       ",
"       +#.            .#+              +#.            .#+              +#.            .#+              +#.            .#+       ",
"       @@              @@              @@              +$@@@@@@@@@@@@@@$+              +$@@@@@@@@@@@@@@$+              @@       ",
"       @@              @@              @@              .+@@@@@@@@@@@@@@+.              .+@@@@@@@@@@@@@@+.              @@       ",
"       @@              @@              @@                                                                              @@       ",
"       @@              @@              @@                                                                              @@       ",
"       @@              @@              @@              .+@@@@@@@@@@@@@@+.              .+@@@@@@@@@@@@@@+.              @@       ",
"       @@              @@              @@              +$@@@@@@@@@@@@@@$+              +$@@@@@@@@@@@@@@$+              @@       ",
"       +#.            .#+              +#.            .#+              +#.            .#+              +#.            .#+       ",
"       .#+            +#.              .#+            +#.              .#+            +#.              .#+            +#.       ",
"        +#.          .#+                +#.          .#+                +#.          .#+                +#.          .#+        ",
"        .$#+.      .+#$.                .$#+.      .+#$.                .$#+.      .+#$.                .$#+.      .+#$.        ",
"         .+##+.  .+##+.                  .+##+.  .+##+.                  .+##+.  .+##+.                  .+##+.  .+##+.         ",
"           .+$+  +$+.                      .+$+  +$+.                      .+$+  +$+.                      .+$+  +$+.           ",
"             @@  @@                          @@  @@                          @@  @@                          @@  @@             ",
"             @@  @@                          @@  @@                          @@  @@                          @@  @@             ",
"             @@  @@                          @@  @@                          @@  @@                          @@  @@             ",
"             @@  @@                          @@  @@                          @@  @@                          @@  @@             ",
"             @@  @@                          @@  @@                          @@  @@                          @@  @@             ",
"             @@  @@                          @@  @@                          @@  @@                          @@  @@             ",
"             @@  @@                          @@  @@                          @@  @@                          @@  @@             ",
"             @@  @@                          @@  @@                          @@  @@                          @@  @@             ",
"             @@  @@                          @@  @@                          @@  @@                          @@  @@             ",
"             @@  @@                          @@  @@                          @@  @@                          @@  @@             ",
"             @@  @@                          @@  @@                          @@  @@                          @@  @@             ",
"             @@  @@                          @@  @@                          @@  @@                          @@  @@             ",
"             @@  @@                          @@  @@                          @@  @@                          @@  @@             ",
"             @@  @@                          @@  @@                          @@  @@                          @@  @@             ",
"           .+$+  +$+.                      .+$+  +$+.                      .+$+  +$+.                      .+$+  +$+.           ",
"         .+##+.  .+##+.                  .+##+.  .+##+.                  .+##+.  .+##+.                  .+##+.  .+##+.         ",
"        .$#+.      .+#$.                .$#+.      .+#$.                .$#+.      .+#$.                .$#+.      .+#$.        ",
"        +#.          .#+                +#.          .#+                +#.          .#+                +#.          .#+        ",
"       .#+            +#.              .#+            +#.              .#+            +#.              .#+            +#.       ",
"       +#.            .#+              +#.            .#+              +#.            .#+              +#.            .#+       ",
"       @@              @@              @@              +$@@@@@@@@@@@@@@$+              +$@@@@@@@@@@@@@@$+              @@       ",
"       @@              @@              @@              .+@@@@@@@@@@@@@@+.              .+@@@@@@@@@@@@@@+.              @@       ",
"       @@              @@              @@                                                                              @@       ",
"       @@              @@              @@                                                                              @@       ",
"       @@              @@              @@              .+@@@@@@@@@@@@@@+.              .+@@@@@@@@@@@@@@+.              @@       ",
"       @@              @@              @@              +$@@@@@@@@@@@@@@$+              +$@@@@@@@@@@@@@@$+              @@       ",
"       +#.            .#+              +#.            .#+              +#.            .#+              +#.            .#+       ",
"       .#+            +#.              .#+            +#.              .#+            +#.              .#+            +#.       ",
"        +#.          .#+                +#.          .#+                +#.          .#+                +#.          .#+        ",
"        .$#+.      .+#$.                .$#+.      .+#$.                .$#+.      .+#$.                .$#+.      .+#$.        ",
"         .+##+.  .+##+.                  .+##+.  .+##+.                  .+##+.  .+##+.                  .+##+.  .+##+.         ",
"           .+$+  +$+.                      .+$+  +$+.                      .+$+  +$+.                      .+$+  +$+.           ",
"             @@  @@                          @@  @@                          @@  @@                          @@  @@             ",
"             @@  @@                          @@  @@                          @@  @@                          @@  @@             ",
"             @@  @@                          @@  @@                          @@  @@                          @@  @@             ",
"             @@  @@                          @@  @@                          @@  @@                          @@  @@             ",
"             @@  @@                          @@  @@                          @@  @@                          @@  @@             ",
"             @@  @@                          @@  @@                          @@  @@                          @@  @@             ",
"             @@  @@                          @@  @@                          @@  @@                          @@  @@             ",
"             @@  @@                          @@  @@                          @@  @@                          @@  @@             ",
"             @@  @@                          @@  @@                          @@  @@                          @@  @@             ",
"             @@  @@                          @@  @@                          @@  @@                          @@  @@             ",
"             @@  @@                          @@  @@                          @@  @@                          @@  @@             ",
"             @@  @@                          @@  @@                          @@  @@                          @@  @@             ",
"             @@  @@                          @@  @@                          @@  @@                          @@  @@             ",
"             @@  @@                          @@  @@                          @@  @@                          @@  @@             ",
"           .+$+  +$+.                      .+$+  +$+.                      .+$+  +$+.                      .+$+  +$+.           ",
"         .+##+.  .+##+.                  .+##+.  .+##+.                  .+##+.  .%%++.                  .+##+.  .+##+.         ",
"        .$#+.      .+#$.                .$#+.      .+#$.                .$#+.     &.+#$.                .$#+.      .+#$.        ",
"        +#.          .#+                +#.          .#+                +#.       .&..#+                +#.          .#+        ",
"       .#+            +#.              .#+            +#.              .#+            +#.              .#+            +#.       ",
"       +#.            .#+              +#.            .#+              +#.            .#+              +#.            .#+       ",
"       @@              @@              @@              +$@@@@@@@@@@@@@@$+              +$@@@@@@@@@@@@@@$+              @@       ",
"       @@              @@              @@              .+@@@@@@@@@@@@@@+.              .+@@@@@@@@@@@@@@+.              @@       ",
"       @@              @@              @@                                                                              @@       ",
"       @@              @@              @@                                                                              @@       ",
"       @@              @@              @@              .+@@@@@@@@@@@@@@+.              .+@@@@@@@@@@@@@@+.              @@       ",
"       @@              @@              @@              +$@@@@@@@@@@@@@@$+              +$@@@@@@@@@@@@@@$+              @@       ",
"       +#.            .#+              +#.            .#+              +#.            .#+              +#.            .#+       ",
"       .#+            +#.              .#+            +#.              .#+            +#.              .#+            +#.       ",
"        +#.          .#+                +#.          .#+                +#.          .#+                +#.          .#+        ",
"        .$#+.      .+#$.                .$#+.      .+#$.                .$#+.      .+#$.                .$#+.      .+#$.        ",
"         .+##@@@@@@##+.                  .+##@@@@@@##+.                  .+##@@@@@@##+.                  .+##@@@@@@##+.         ",
"           .+@@@@@@+.                      .+@@@@@@+.                      .+@@@@@@+.                      .+@@@@@@+.           ",
"                                                                                                                                ",
"                                                                                                                                ",
"                                                                                                                                ",
"                                                                                                                                ",
"                                                                                                                                ",
"                                                                                                                                ",
"                                                                                                                                "};
