/* XPM */
static char * gimp_temp_206423_xpm[] = {
"128 128 86 1",
" 	c None",
".	c #020202",
"+	c #8E8E8E",
"@	c #D20606",
"#	c #767474",
"$	c #9A0A0A",
"%	c #4F4F4F",
"&	c #5A0606",
"*	c #D25757",
"=	c #3E3A3A",
"-	c #BABABA",
";	c #4A0606",
">	c #D23E3E",
",	c #2A2A2A",
"'	c #A24C4C",
")	c #969696",
"!	c #360A0A",
"~	c #DE2E2E",
"{	c #B62626",
"]	c #663A3A",
"^	c #252323",
"/	c #A2A2A2",
"(	c #BE7E7E",
"_	c #D69292",
":	c #DE0606",
"<	c #CECECE",
"[	c #8A8A8A",
"}	c #4C2E2E",
"|	c #602626",
"1	c #EE7272",
"2	c #F01E1E",
"3	c #A67B7B",
"4	c #5A5A5A",
"5	c #220606",
"6	c #E23A3A",
"7	c #CEA6A6",
"8	c #EE5A5A",
"9	c #121212",
"0	c #720606",
"a	c #E24E4E",
"b	c #966666",
"c	c #AAAAAA",
"d	c #B69292",
"e	c #C20606",
"f	c #967979",
"g	c #C6C6C6",
"h	c #825E5E",
"i	c #481D1D",
"j	c #EA0606",
"k	c #FA2E2E",
"l	c #D26E6E",
"m	c #7E7E7E",
"n	c #C24E4E",
"o	c #D21919",
"p	c #FC1414",
"q	c #9E1E1E",
"r	c #6E5252",
"s	c #9A2A2A",
"t	c #AE9292",
"u	c #666666",
"v	c #B2B2B2",
"w	c #0E0606",
"x	c #BE3636",
"y	c #671515",
"z	c #822A2A",
"A	c #0A0A0A",
"B	c #FA3A3A",
"C	c #B61A1A",
"D	c #FA4E4E",
"E	c #9E9E9E",
"F	c #F66A6A",
"G	c #1E1A1A",
"H	c #FA0606",
"I	c #A25E5E",
"J	c #863E3E",
"K	c #860A0A",
"L	c #361A1A",
"M	c #B26666",
"N	c #D68282",
"O	c #424242",
"P	c #AE0606",
"Q	c #323232",
"R	c #721616",
"S	c #DADADA",
"T	c #A63A3A",
"U	c #EE8282",
"ggggggggggggggggggggggggggggggg-u<#%9m-v)Q4<g-9m-v)Q4<g-9m-v)Qu[<g9m-v)Q4<g-9[-v)Q4<g-9m-v)Q%9vg%9m-v)Q4<g=,[c)#G[<g=,[c)#Gm.<=,",
"------------------------------c--<9E4.....-<-c%.....-<-c%.....---c%.....-<-c%.....-<-c%.....cu4-+u.....-<ccQ....[g--vQ....m-G)-=",
"g-/cvccvccvccvccvccvccvccvccv/v--#%/%Og-c./-c)OOg-c./-c)O=9Ev.---/OOg-c./-c)=Og-c./-c)O=.cc./c9E[4O<.v./-Em^4--^m-/Em^%--^#vOucQ",
"--vc/c/c/c/c/c/c/c/c/c/c/c/cEcv-%9+)wm-c),%v)mAm-c),%v)mA#Ou/Q%[E[Amgc/,%v)mAm-c),%v)mA#OuEQ4c4%49[g.c,4c#G,--/[.u[#^9--/#.u4=QG",
"g-vcEE)/EEEE)/EEEE)/EEEE)/E+E/v-.....-c/+%..w..-c/[%..w../[9)u.....--/+4..w..-c/[%..w..c#^)4......<-.E4....)vE+[=...w[c/)[Q..w.E",
"g-c/E)))))))))))))))))))))+)Ecc-O<.-.E/)#Q=-/).E/+#Q=-c+.)EGmO4g--9)cE#Q=-c+.E/+#QO-c/.+/G#O=<g-[./-.[O=-/^uE+muG%-vG#E+#uGO.g,m",
"--vc/E+[[[+++[[[+++[[[+++[+)Ecv-+<.cQ%+muA#c+[GOEmuA#/)[GO)4Qw/--c4%E[#w#//m^OEmuAm-/+^O)%=9[<-c[Q%/.mA#v+#.4#4G,-v/m.4#4^9/9E+.",
"g-v/E)+[[[[[[[[[[[[[[[[[m[+EEcv-<g.)4.w...c/[#Ow....c/[#O.....w.........cc[m=w....vcEm%.....ggc/%4.w...c/m#Q....Ec)+mQ....#)Qmc=",
"g-vcE++[mmmmmmmmmmmmmmmmm[[))cc-/-w+==-.).[+muQ}_l*.[+#uQ}_Nl./-vc%}__l.[[#uQ}_l*.)E[#,}Nln./-/+-=}_Nl.[)#4Gu/EGuE[#uG=.E,u+O%EQ",
"--vcEE[[mmmmmmmmmmmmmm##m[+)Ecv-4v.mA#c.[^O[#4.hN*'!O[#4.INl>L%/)[9b_1*LO[#u.hN*xLO+muwh(MTL%c)#[Ab_l*LOm4G.Gu[#.%#4G9mw[u.4%QQ9",
"g-ccE)+[m##############mm[[))cc-...../E.mO.....llxTy.....Nl*'|.w..._U*a|.....ll'Ty.....lMxTy......UN*n|....{;.AQQ....u#GumQ....E",
"--v/E)[[mm#####u####u###m[+)E/v-O<.-.[).#Q}l*>.InTsL|FDk.M*xTi|FD2wll*'i|FD2.InxsL|FD2.'nTzL|FD20.l*nTi|FB!qp@0w.y.+G%#Q=#^%c.,m",
"g-vcE)[[mm#uuu0KKKK4##umm[[)Ecv-+<.cQOm.uw'l>C!|xTzwTDkH;|n'J.TDkH;|*'JwTDkH;|xTz.TDkH;iTTz.TDkH0;|a'JwT8p:.$eP!!p5##.O=^^9vc.+.",
"--vcE)+[m###u$HHHHHHu#m#m[+)Ecc-gg.E4.....*n{Cy.....DBHj0.....DBHj0.w...DBHj0.....DBHj0.....DBHjP0.....DBH@&....2p;O#Q....m/+.vO",
"g-ccE++[mm##KHHHHHHHB##mm[[E)cc-c-.+=O-/).xxCq!|FDk.~pHe&iFD2.~pHe&|FD2.~pHe&iFD2.~pHe&|FD2.~pj@0&iFDk.~p@P!|FD!PH0QuGOE.^u)m./Q",
"--vcE)[[mf#uKHHHHHHHBu#mm[+)Ecv-4c.mA#/E[^yoqKw'F2p;0H@Pw'DkH;0H@PwTDkH;0H@Pw'DkH;0H@Pw'DkH;0H@P0w'DkH;0jP!!DD2j.$KGG9+[.#.4#.Q9",
"g-v/E))[m###PHHHHHHHB##mm[[)E/v-..w.wc/+#O.....DDp:K.....DBHj0....wDBHj0.....DBHj0.....DBHj0......DBp:0....~BpH:&.w..#[#.[Q....E",
"--vc/)m[mm#uKHHHHHHHB###m[+)Ecc-O<.-.++m#,.q2j.~2je&}N*>.~pH@&|_18.kpj@&}Ul>.~pj@&}Ul>.~pH@&}Ula0.~2je&}U*!CHj@$;Od3G4uu.#^%c.,m",
"g-ccE)+[m#m#KHHHHHHHB##mm[[)Ecc-+<./QO[#4AQ.P:;Rp:P.'l>{;0H@PwI186!yH@P.'la~!KH@P.'la~!0H@Pw'1a>e!0j@P.'1>{.$e$!Gd33J.O4.,9vc.+.",
"--v/E)[[mmu#4HHHHHHB####m[+)Ecv-gg.E4.....[^.$K.....*nxCy.....11a>R.....F*~{0.....8*~{y.....ll6{@|.....l*o{;....bfb'r,....m/).vO",
"g-vcE))[m####uBBBBBu##umm[[)Ecv-c-.+O=-/).mm^.K=7tf.n~{q;.(lM.*a6{i}l*n.n>{q;=7tf.n~{q;.llM.nax{e;}_li.>>{R!O7tGr'']]5%uQ^u+m./Q",
"g-v/E++[m###u##u###u###mm[[)E/c-4c.mA#/E[^=##G.#d3bGy{qq..L'I!|6xs.'*T5.yo{q.#dfbL!~qqw.L'niy~{qRwINi.uy{q!Gttfh.QJ}99)O=#.4#.Q9",
"g-vcE)+[m##############mm[[)Ecc-....wv/+#=..w..ttbh=.....mG.Li.....'G.Gu.....ttbh=.....mG.Li......l}.u[....f+fbrQ....#+^4[Q....E",
"--v/E)[[f#mmmf##f###f#mmm[+)Ecv-O<.c.[+muQ=v)[.bfhrLO-c/.[+uGwOS<-..G#+==-c).fbhr,=-cE.+)uG.%<g-%.|.u+=O-c^rbhr]9%-cGum9u#G%#=,m",
"g-vcE++mmmmmmmmmmmmmmmmmm[+)Ecc-+<./QO[#4w#/+#,}brr.m-c+^O[m#.[<g-Q.c+mA#c/[^}br]w#vE[^=+##.[g-v#Q.u[#.#c)m.Or%G,vc/#.%.u^9c4%[.",
"g-ccE)[[[[[[[[[[[[[[[[m[[[[EE/v-<gwE4...../)mm=.....-vE[%.....gg-E4.....vc+mO.....cc[mO.....gg-Eg%.....vc[#Q....)/+[#Q....mcQ#/=",
"g-v/E[[[[[[[++++++[+[)+[[++)Ecv-/-.+=4g-/9[[#u^4-/EA)E[#Q4<g-9v-c[=4g-cA)+m#Q4g-cA))m#Q4g-/9c-/[#=4<--9++#4Gmg-,u+m#4^mg-=#)A++,",
"g-vcE)))))))))E))E)))E+)))))E/v-4v.mA/-/EO=mu4AE/E[OO)muA-<-c%4cEmA/-/)%O[#u./-cE%O[#4./-/EO%c+#%Ac-vE%O[4Gm-//EQ%#%G#-cEE^u.[^[",
"g-cEEEEEEEEEEEEE)EEEEEE/EEEEE/v-....w/cE[=.....EE[m=.....c-v)O....wcv/[=....w//E[=....w/cE[=.w.w.w/-c+=....#/E[#^....#/E[#^..w.m",
"g-cEccccc/ccc/ccc/ccccc/ccccccc-u<<-9%E[#w4<g-9O[muw4<g-9%vEmAuSS<9%E[#w4<g-9%Em#w4<gv9%E[#Auggg#9%c+#wu<-=.4#uG.[<g=.4#u^w)SSO.",
"gvvvcvvcvvcvvvcvvvcvcvvv/vvvcvc-c<-c%.....-g-/%.....-g-c%.....gSS<4.....-g-/%.....-g-/%.....-<-c+%.....c<-/Qw...[g--cQ....+SS<<Q",
"c-------------------------------v-cEO=S<g./-v)OOS<g./-c)OOS<g.-S<c%=S<g./-v)O%<<g.c-cEOO<<g.v--E<OOS<g.v-)m^4S<,#-cE[^uS<^+gg-+Q",
"uS4%9m-v[,u<--9m-c),4<g-9m-c+,u<uSu%9m-/+Q4<g-9m-/+Q4g-v9m-/)Qu<<-9[gc+Q4<g-A[-c+,u<g-9[-c+Q49vg9[-/+^4<<-=Qm/+#G+<g=^m/+#^#.<=,",
"-<GE4.....vg-c%.....vgvc%.....-<-<9/4..w..c<-c%..w.wc-/E%..w..-<--4...w.-<-/%..w..c<-/%..w..Eu4-u..w..-<-v/Q.w.wmg-cvQ.w..#-G)-=",
"-#%/%Og-c.v-v)OO-7E.v-v)==9/v.cg-#%/%Og-c./-v)OOg-/.cv/[==9c-.-g-EOOg-c./-v)=Og-c./-v)=Q./E./c9E4O<.v.c-c/m^4g-,mcvEm^%g-,#vOucQ",
"%9[)9m-cE^%v)mAf-d3L%v)mw#%4/Q4c49+)wm-c),4c)mwm-/E,%c+#Am%u-Q%-EmAmgc/^4v)mwm-c),%v)mw#O4+,%c4%w[<.cQ%c)#G^--/[.u[#,9-v/#wu4=QG",
".....-vE+%.....77df%...../[9Eu.......-c/+%.....-vE[O.....-E9-u.....--/)%.....-c/[%.....)#^+%.....g-.E4.....)cE+[=....[c/+[Q..w.E",
"%<.v.)c[#Q=vE[.)dfb,=7/3.+EG#O%SO<.-.+c+#QOcd+.E/+#Q=-c).//^m4O<<g.Ec)mQ=-/).E/+#Q=-c).[[GuOO<g-./-.[O=-v/^#E+#uG%c/^#E+muGO.g,m",
"[<.cQO)[#w#)#G.O3fuw#dtf^O)4Q9+S+<./Q%)m#.#7tfG%Em#A#c+[G4/u,9+<--Q%)m#w#ctmG%Em#w#/Em,O[O=9[<-cQ%/.mA#v/+#.4m4^^vc+#.4#4^9/9E+.",
"<g.E4.....#G.!qA..../dfb=.....SS<g./4...../tfb=.....c/[#O...w.<<-E4.....//[#O.....c/[#=.....<--E4.w...c/+m#Q....+E+m#Q....#)Qmc=",
"v-.[O}_l*w.LT>y}18k.f3br,O--/.-<c-.+=O-/).f3mh^#/)+.[+#u^=7_3.c-c+==7_(.[+fu,#Et[.[+muQ}7Nb./-/[=.-cv.[+m#%GO+[^umm#%G%c/^u+O%EQ",
"%v.mA'N*>!.ax{w'8Bp;=[hrAm-/)^4g%v.mA#cE[,=mhr.Gu[m^O[#4Ab_(ML%-EmAbd(Mi=m#4wGrfbGOm#4.h_(ML4/)#A.,m/QOm#4GG[m49.%4%G9/c+u.4%QQ9",
".....ll>x|.....8Dpp0.....vvE[%......wc/+#O.....xywQ=....._(MI|....._NMI|.....x|AQ=....._(I'}.....ILw^O.....u%9!q;....mE[m#^....E",
"O<g-.*axqi|FD2.~k2e&;5~2.EE[#QO<O<.-.+)m#,|FDk.~2j0w}1n~.MlM'i}U8B.blM',|1Dk.~pjKw}18~.bM''i}U8B.*8T!.}Nln!.!qoC!'(M5umuu%G%c.,m",
"[<-vQ|TTs.TDkH;Rp@Cw{RRp;O+muw+<+<./QOm#4AT8kH;0Hje!J8>o!]IIJ.'FB2;}MIJ.'8kp;0HjP;T86p;}I']w'FB2;|>>x.'lnxq.KCq!|znxs.%u%G9vc.+.",
"gg-)4.....DBHjK.....k25HK.w...g<gg.E4.....DBHj0.....a>oe0.....88koR.....DD2@0.....8a2o0.....Fakoy.....*ax{qi....~kq5si....m/+.vO",
"/-/[=}U86.~pj@&iFD2.2j!P0O--/./-c-.+=Ocu,.~2je&iFD2.>oC$;}FDk.>k2C;|FD2.~2:e;iFDk.>k@C;|FD2.>k2C&}FD2.TxCqK!zFDLqo@P55R.-,u)m./Q",
"%c+#w'1a~;0H@Pw'DkH;0H$;wm-/)^4v%v.mA#vGrLyH@Pw'DkH;yoC$wTDkH;R2oCwTDkH;02ePw'DkH!y:C$.TDkH;yooqwTDkH;yC{R5L8Dk:.Ke$!5B5)m.4#.Q9",
".w...88~oR.....DBHj0.....c-)[O.w.....c+9b].....DBHj0.....DBH:0.....DBHj0.....DBH:0.....DBHj0.....DBHj0.....6B2p:&....xk;#E=....E",
"OS.-.n6o{;}1ak.~pHe&|F6;.)E[mQ=<O<.-.)O]h^|FD2.~pHe&|_1a.~2je&|_18.~pHe&.okp.~pje&}186.~pH@&|_1a.~p:@&}18D!Cpj@$;|Dq!{kyO[^%c.,m",
"[<.cQy~Cq.'8Bp;0H@PwTB;.%O+muA+<+<.cQOArhwTDkH;0H@Pw'U86L0H@PwIU86;yH@Pw}5:H;0H@Pw'862;0H@PwI186L0H@Pw'F6ko.$e$!!Bk;@.qK,QGcc.+.",
"<<.E4.....aD2@0.....BL.%u.w...g<gg.E4.....DBHj0.....1F6xR.....116>|.....MI;j0.....882o0.....11>~R.....8a2oe&....62@pj&....m/).vO",
"cg.+O=-/).>2@e;iD.k.i.%#,=c.-./-c-.[O=v.l.~pHe&yDK}.na>{i.NNl.*a6{iil*n.IMz0!|FDp.>~oC!.llM.aa6T;yBpj.>2oe$!|FD!qp0:e!OuQGu)m./Q",
"4c.mAm/E[Gy2e$w{B.p&.%#4.#/.cQ4c%v.mA#c.ni0H@P.TB!JL|6{sw.G'li|6xsw'*J5.i''i.'DkH;y@C$w.L'nL|6{swqHP!.0@o$5L8Dk:.P.e!9E%O#.4#.Q9",
"w....v/+#O.....k2.HK...../).)4w......cE.x|.....Bo9'].....[^.Gi.....'!.^u.....DBHj0.....mG.!i.....e;.G#.....6Bpj@&....#)^4[^....E",
"O<.v.[+m#^}186.2H.:0=v)+.m+.+OO<O<.v.[).Ti|FD2.20|'i=-cE.)E#GwOS<-..^m+==v.k.~pHe&}_NM.[)uG.O<g-..^[/O=v.cGqH:e$!R.D!umA##^%#O,m",
"+<./QOm#4A'F62;0j.ew#c+m,=m.mA+<[g.cQOm.T.TDkH;0.'Jw#-E[^%+[m.[<g-Q./+#A#E.p&0H@PwbdlnLO[m#.[<-cQ.cE[A#/.Em.Ke$5;p5~o.4.u^9-u4).",
"gg.E4.....8D~o0...../+[#=.....g<gg.)4.....DBHj0.....vc[mO.....gg-/4...../E.HK.....N(M'}.....-g-E%.w.../E.)m=....2p;qH0....+vQ#-=",
"c-.+O4v4O9>~oC;|D.k5[[#u^4g-c9/-c-.[=%c.lw~pHe&R53(A[)m#^4g-c9c-c[=4g-cw[[.j&zFB25M*'Ji%g-c9c-/[=4<-v9[+.muG'FDLPH00:;m-v=#c9)E,",
"%v.mwEc9+%yoo$.6k.H0=#u4Ac-cEO4c%c.mAEc.n|0H@Pw~K}(]Om#uAv-/EO4cEmA/-c)%=m.ewaD2H0}n'Jwc-/EO%/)#Acgv/%Om.uGTD6pp;$K;;#-dtt^u.+Q[",
".....)%%EO.w...~H.H0....wcvE[=w......+).'y.....~p5I}w..../v/[=w.w.w/v/[=.....62Hj&.....EcE[=w...w/-/+=.....s22@P!....#dt[#L.w..m",
"u<<-9%9[[9]U8B50j.@w4Sg-A%E[#Au<4Sgg9O[.TAzFBp50H0}94g-c9%E[#Aug<-9%)[#w4m.050H:Pwr7_NA%)[#Au<<-9%/+#A4<mO=.Ko$!.T{;&.r#rG.[<g=.",
"-<gc%.....*FB20.....-<-v%.....-<-<-v4.....aD2H0.....c-cE%.....-<g-%.....-%.:K....._7Nl]w....-<gv%w....v-%u-Q....{B0Kp;....[<g-cQ",
"---EOO<g-.*B~oiyD.k.c--EOO<g-.cgcg-EO=9d7.6kH:&yD.D./vc+=O<g-.---EOO<g-.c^0j0yD.k.(_lM}=<g-.---)%O<<-.c-^[E^]FD!{p!e@;4<<^m-cE[,",
"4-EmA+<-vQ|2oqw{B.p;%v+mA+<-cQ4-%-)[wm%47^0H:PA{B.k;%/+#A[g-cQ4-E[A[<-vQ4.@:.Tk.p&](M'A[<-cQ4-Emw+<gcQ%E.[QiD8k:.P.e!G<g-[.u+#^9",
".....<--E%.....k2.H$..w..ggv/%.......-+Gdu.....k2.2K...w.ggc/%.....<g-E%.....kk.HK.....<g-E%.....<g-c4.....6Bpp@&....+--v)Q....E",
"O<u../-/+=}U8B.2H.:&Ogv/./-/+=O<O[.=.cv,bO|18k.2H.o&Og-/./v/[=O<<g./-/+=}_1*.2j.j&=77d./-c+==-.<./-c[=Q.vv^qp:@$!0.8Lmc/+#,%.g,m",
"[gG}A4c)#A'8a2;0j.@wf-/t,%c+mA+<[#.%Q%v%OA'8B2;0:woAm-/E,%v+#A+<--Q%c)mwIU*>!0j.@wb7d3^4/+#Am-.g=%v+mA#Ou/[.$e$!!2w~~.u[#^9/A/+.",
"gu.M]..w..FDkoy.....c7t[%.w...<g<=.u4.....8D2@0.....-vE+%.....<<-/4.....l1>x|....w7d(b}.....v/.-u.w...cm^/)O....2p&q2y....mcQ#vO",
"mG|M}y8q,.>~oC;yD.k.)/3#Qywt/./--9.[%=-cE.>poC;yD.k.)c+#Q=cuQ.c-/+==9)).**>{LyD.k.33fb,=c./.E/./%O<.v.)EG#m,]F85PH0&o!|.cG#)O%)Q",
"..IMwTD!h^R2Cqw{B.p&Ot#h.T|%dQ4c4..[.mcE[^R2ePwTk.p&OEmuA#cGmQ4vEmA#%4+^|6Ts.Tk.p&O(brA#EwE^%).)A[g.EQO)%=QL8D~o.$K;;w*w[#.4%QQ9",
".....DoAbO.....k2.HK.....6~9t4.w.....cc)mO.....kk.HK...../#,E4.....-Ew[%.....kk.HK.....E+.+%.....--.E%.....>Dp2@&....'*Lu[Q....E",
"O<<7.~yObQ}186.2H.j&.l*n.>~!#=OgO<.-.+)[uQ}U8~.2j.j&}_(*.+=4+=O77_.Ec^u=}1*6.2j.j0Q_(M.m[.m=Og77./c.[==7EtGqpeC$!|FD!Jx|=m^%.g^m",
"(<g7Qy5hh.'F62;0j.@w.GTxLy2K,9m-[<.cQO[#u.'86o;0j.@whNM'LO.)m9M7_l^%/u,A'l>o!0j.eAh_b'L=#.mAb-7d^4c.#w#d3fh.KeK!!DDpj.||^^9/A/).",
"gg7_%.....8a2o&.....#G.!i.....-v<g.Eu.....8apo&.....(lnTi.....7_N(].....8*~C0.....((''}.....77_t].....ddfbh^....6kpH:&.w.wmEQ#-O",
"777t}Ogv/.x~oC;yD.k.mm4G.._N(./c/-.[==-c+.>~oC;|FD2.InTJi}18B.NNlI|}186.>~oq;|FDk.bI'JL}Ula.d7tbQ}U1a.ffbr]G]FD!CHj@P!zD.Gu)O%EQ",
"r7t#Am-c),0oC$wTk.p;=#u4..GIl,%E4/.mA#c/[^RoC$wTDkH;|'Tzw'F62;O(M'A'FB2;y{Cq.'8kH;}'J].'1a~LOdfhAIU86!=br%G!8Dk@.$e$55kk.#.4%QQ9",
"...w.cvE[%.....kk.HK...w.[^.G}...w...c/[#O.....DBHj0.....8D2oy.....8D2oR.....DBpj0.....1*6{y.....Fl>~|.....>B2:@&....okH.[Q....E",
"O9)v.)Em#Q}186.2j.j&=).+.+E#^.O<O<.-.++muQ}186.~pHe&iFD2.>~2C&iFD2.>~2C;}Fa~.~2H@&}18B.n>~s;|FD2.na~{i|FDB!qp@e$!|FD!Pjj.#^%v.,m",
"[4ucQO)mu.'F6o;0j.@wu+.[,O+[#.+<[<./QO[#u.'F62;0H@Pw'DkH;y2@$w'DkH;yoo$.T8B2;yH@Pw'FBp;|~{qwTDkH&|6{swT8Bp:.KeK!!DD2j.$e.,9c/.[.",
"<c^/u.....8apo&.....[m.#%.....<g<g.E4.....8a2@y.....DBHj0.....DBHj0.....aa2@0.....8D220.....DBHj0.....DBpH@&....~BpH:&...wm)+.vO",
"cg^#O.#)[.>~oC;yD.k.##.#Q=cuQ./-/-.[O=-c+.x~oC;|FD2.~pj@&}U1a.~pj@&}U1a.>2@C&|FDk.6kpo&}1a~.~pHe&|U8B.2pH@$;|FD!CHj@P!|sQGu+m.)Q",
"4-#Ow|!u#^yoC$wTk.p;,u.uw#cGmQ4v4c.mA#c/[^RoC$.TDkH;0H@Pw'1a~;yH@Pw'1n~!Roo$.'8kH;ypo$wJ8>o;0H@Pw'8B2;yj@P!!DD2:.$e$!.az=#.4#.Q9",
".....~~5#=.....kk.HK.....E#,Eu.......c/[#O.....DBHj0.....lF>xR.....lF6xR.....DDp:K.....*>oC&.....882oy.....6BpH@&....xa;4m,....)",
"O9MF.2pPQ^|FD2.2j.j&Q++m,[=4+=O<O<.-.[+muQ}18>.~pHe&}_(M.na~s;]UNl5aa~s;QA>2.~2j@&iDqL.x~eC;=77N.>k2C;RDkp5qHj@$!|{;!s~w##G%v.^#",
"[4JaLRHj&.TDkH;0j.e54[u=AO.)[A+<+<.cQO[#u.'16~;0H@Pwh_MILy~{qwM18*|i~{qwuORp;0p@PwTB!zLRoP$wb7_(iy2oq.pkHH0.Ke$!!BK0j.K.uG9c/.+w",
"</L>z.....DBHj0.....u^9iJ.....<g<<wc4.....8*~oy.....(3I'}...............)m!jK.....Bo5T|....w__lM]...............~k&PH0....mc).cO",
"cg^T|.}M'.~pHe&zD.*wGJ''LzD.c9/-cg.+O4-/EAn6oq;zD.k5MM'JL%c.v9/--c44gvE9m[GP0zFDp5~0|TL%cE[9(N(I}4<uOAm+m##G'18!{H.@e;#-/Qu+m.cQ",
"4-#iwu.G'iyH@P.6k.>R]'JJ.6k./44v4cw[w/vE[O|oCq.6k.HK}'']w)/.c%%cE+wE-E)OOmO&waD2H005sT.)c[#=](I'.cgG[%=##uGJ8a~o;P.@;u/t3f,4#.Q[",
".....[#9w].....2p.xy.....2p.E%.......E/+mQ.....2p.:0.....+).)Ow....EE)m=..w..62H@&.....+[m#Q.....vuO+=.....T~~{q!....hff#uG....[",
"u<.c9O)m^.zFB250H.{Ar-7d90j.mwu<u<.v9O+#uA]_1*w0:.@w%7739=m.[Au<<-9%)muw%c.lw0H:PA|D.vAOmu%A4<g-949m[w4<<-=.RCq5.q.By.%h%G.m#==.",
"-g.c%...w.aD2H0....._-_dO.....c<cg./%.....lUa>|.....d7(3=.....-<-v%.....Ec.n|w....6k./%...w.-<-/%.....-<-vcQ....Cp!op;....#cOucQ",
"c-.EOO<.-.62H:&;5>B.d7tb}%<g-.cgc-wEOO<<-.M*>xiyD.k.td3b}OSS<.cg-EOO<<-.+).'y|FD2.~H.)OO<<-./-v)OOSg-./-cE#,]_1LPH&Kj;r77,mcGm),",
"4v.[w[-.-=0H:Pw{yzk;%3fbAmg-/Q%v4v.[A+<-cQ|>xs.TB.p&O3bhA)S<gQ4v)mA[<-cQO[.TwTDkH;0j.mA[<-cQ4vEmw[<--Q%c)#,LU18>.$K;;G77_b.u.[QG",
".....g-.vu.....ko5o$.....g-v/4.......ggv/%.....k2.HK.....SSg-u.w...ggvE4.....DBHj0.....ggvE%.....ggcE4.....*FD6xy....3__(M}....E",
"O<<g./c.)O}F8k.2H!qy%<g-./-E[=OSO<<g./-/[=]_U1.2H.j&]g7_.-<-)O=S<g./-/+=OS._.~pj@&|a.v.c-/+=O<<-./-c+=O<<g^Ta>xs!zFD!b((bhG%.<^m",
"+<--Q%/w+A'8Bp;0j$;w[<-vQ%c+#A+S[<--Q%c)#AM_F8L0j.@wf77d,4-cmA+<g-Q%v+#9[S.Ui0H@P.T6./Q%v+#A+<g-Q4c)#A+<--).z{s5LDDp:.rIrL9-9c).",
"<<-E4.....DDp:0.....gg-E4.....<<<<-/4.....UU8az....w-7_(O.....<<-c4w....<<.FJ.....B~.Eu...w.<g-E4.w.w.gg-c+O....~BpH:&....[vQm-O",
"c-v+=.#vc.62oe&iD.k./-/[=Q9/c.cg/-c)=Og-c.lFa>iiD.B.d73f}=Acv.c-c)=Og-/.-g.*||FD2.o2.[=Og-/.c-c+=O<.c./-/+#G%.B!CH:@P!R{Q,#/4%cQ",
"%-)mAQ.#EQ0poPw{B.p&%c)#A#OucQ4-4-)#Am-cEQz8nT.TB.2&O(3hw#Ou/Q%-EmAmgv/Q4-.nw'DkH;R@.mAm-/)^4cEmw[<.cQ%c+mG,c9o2.$e$55BK%#.u4QQ9",
"...../Q.u4.....k2.HK.....c[9Eu.......-vEm%.....B2.:K.....c[AEu.....--/+%.....DBHj0.....-vE[%.....g-.E4.....+/Q$H0....xk&u+Q....E",
"O<.-.+)Q.4}186.2H.:0=-c).+)^#%O<O<.v.)c)#Q}Nla.oj.@0=7d3.+E^#O%-c/9)c)mQ=c.3.~pHe&yD.l.)/)#QO<g-./-.[==-c/GuEO0j;zFD!CHwmm^%.g,m",
"+<.cQO++Q.'F62;0j.ew#/)m^%[4Qw+<+<.cQO)[#.I1*~G0:.ew#_3bLO+4Q9/vcE%%E[uA#E.MLyH@P.{B.nL%)muA[<-cQ%/.mAmv/+#.4%;;!DDp:.P.m,9E9/+.",
"<g.E4w....8a2oy.....//+#O.....<g<g.E4.....ll>{y.....ttfb}.w..w........../).I].....k2.x|.....ggcE4.w...cE)m#Q....~BpH:&....#)Q#v=",
"/-.+=O-/).>~oC;yD.kw[+mu^=c.-.c-/-.)O=-c+.n>xsi|FD2.fMbr,}_N*.Ec/E%}_(*.[m.',|FD2.2H.Ti}_N*./-/[==7_N.++m#4GOr;!CHj@P!|{Q^u+O%EQ",
"4v.mA#cE[^RoC$.TB.p;Om#4A#/.cQ%v4v.mA#cE[^|x{s.'DkH;=bhJ.bNlnL%E+[AhN*'L=m.r.xDkH;0j.TwhN*nL%c)#Ab7_l^=m#4G^t%0j.$e$!5BK=#.4%QQ9",
".....//[#O.....k2.HK.....E+.E4.......vE+#O.....DBHj0.....Nla'|.....llnT|.....DBHj0.....llnT|..w.w__(I].....f3^Pj0....{k&%mQ....E",
"O<.-.+)muQ|18k.2H.:0.#+m.[+.+OO<O-./.++##^}Nla.~pj@&|FD2.M*'Ti|FD2.M*'Ti|FD2.~pj@&|F8k.MnxTi|18k.(NMIi|U8D!4fw@@!zFD!CHw##G%c.,m",
"+<.cQO[#4A'862;0j.ew}G##^=m.mA+<m-.)QO[#4A'ln{;0H@P.TDkH;|aTz.TDkH;|'xz.TDkH;0H@P.'8Bp;|nTz.'8Bp;}MI'.'8B~e.O.e;!DD2j.P.uG9-/.+.",
"gg.E4.....8Doe0.....bbw#=.....g<-v.+%.....l*x{y.....DBHj0.....DBHj0.....DBHj0.....DD2:K.....8Dpo0.....8ak:o&w...~BpH:&...wm/).vO",
"c-.+=}_l*.>~oC;&5~2.bb],^=c.-.c-E/.m==-.E.n>{s;}FD2.~pHe&iFD2.~pj@&iFD2.~pHe&|FDp.6kpe&}FDk.6k:o;|FD2.>2oe$!|FD!CHj@P!|s,^u+m./Q",
"4c.mA'N*>!0pe$wsy$H;}h',.#/.cQ%v%E.#A#/.[,|{{zwTDkH;yH@Pw'DkH;0H@Pw'DkH;0H@P.'DkH;0poPw'8BH;ypoPwTDkH;0o@$!!DD2j.$e$55DRO#.4#.Q9",
".....ll>x|.....kpwH$...../).E4.......c/.mO.....DBHj0.....DBHj0.....DBHj0.....DBHj0.....DBp:0.....DBHj0.w...6BpH:&....xB;4m,....E",
"O<g-.*axqLiDRy.oH!P0yD.l.m+.+OO<O<.v.+).#Q.{22.~pj@&RDkp5~pH@&RDkpwkpj@&}_ln.~pj@&}_ln.62pe&|_1a.~pHe&}U1*LPHj@P!Rkp;qp5u#^%v.,m",
"[<-vQ|xTswTB!C!0H$;A{B.nL=m.mA+<+<.cQO[.uAO5@p;0H@Pw~kpH0KH@Pw2kHH00H@P.hN*x!0H@Pw'(nx!0H@PwI186;yH@Pw'la>{.$e$5;pjP!.$.uG9vc.+.",
"gg-)%.....B@!oKw....k2.'|.....<g<g.Eu.....mm;@0.........................lMxTy.....ll'Ty.....116>|.....l8>o{;....@P!5JL...wmE).vO",
"/-/+=]1Dkw~00o&]1Dk52H.'i%-vEAv-/-.[=%-/)Amm%&!O73fw#m#4Q.O))A/--c%4-E=.nnTsL%/+[A'n{zi.O3fAaa>{i]1*L.n~{{q5#dt^.5J'J5mcEQu+m./Q",
"4/)mAa8k:0R.Ce.88k200j.Jwc-/)O%v4v.mAE/)m==##^w3tfhQ,uuuA4.^m%%vE)9/#9w%}xTzw+/[#=|TTz.4.,hQ|6{qwln59uyo{R5htfbbG]J]A#/+[m^4#.Q[",
".....ak2@&.....aBpo&.....Ec)m=.......+)[#Q.....f3br}.....+#9w4....w%.Q#=.....m[#u^.....mu99r.....J.GmO.....rfbrrG....u[m#4G....m",
"4<./A0poPw%7d3A0o@Pw%7d3wO+m#.u<u<.v9O[#4A%-c)A=br].%-c)AO)#Q.u<<-9.%[#w4gv/9=#u%A%-c+AO[#G.4<g-9.O)[A%-c/,.}r]5.#vcQ.Ou%G.##==.",
"cg.E%.....td3f}.w...td(b}.....---g./%.....)c)[=.....)c)[=.....-<-c%...../-/)O.....Ec)[=.....-g-c%...../cE[m,....#/)+m,....#cOuvQ",
"c-.+O=-cE.3[Mh,O--/.33bb,Og-v.v-vg.)%=g-/.++[#QOg-c.+)m#QO<-/.v--EOOg-c.//)m=O--c.)+[#QOg-c./-v+=O<-v.+E[#uG%g-^u+[#uG4g-^#)G[)Q",
"%c.mAmvE+,}3hrAm-c/,}3hrw[-cE^4v%c.mAm-cEQO[#4.m-cE,O[#uwm-vEQ4-EmAm-cE^%E[#wm-c)^O[#4.m-/EQ%//mA[g-cQ=mm4G,--/[.%#499--/#wu.[Q9",
".....vc)m%.....-vE[%.....--/+%...w...-vE[%...w.-vE[%.....--c)O...w.--/+%.....-cE[%...w.-vE[%.w...g-/)%.....EcE+[=....[c/+[Q....E",
"O<g-.[E[#QO<gv.E/+#QO<gv.Ec)#QOS=SS<.)c+#QOS<<.)/)#QO<gc.E/)mQO<<g.Ec+m,O<gv.)E[#QO<--.)/)#QO<<-./vEm=O<<-^#E+#uG4<g^#)+muG4<g,m",
"[<--Q%m#uAmg-cQOEmuA[g-vQOE[#A[<)S<gQ%)m#A+S<-QO)muw[g-vQ%Em#A+gg-QO)[#9[g-cQOEmuA[--/QOEmuA[<--Q%c[mA[<--).4m4G,gg-).4#4GG<g-[.",
"<g-)4....wg-cE%.w...g-cE%.....<g<<-vu.....<<gcu.....g-cE%.....<g-E4w....g-cE%.....g-c)%.....<g-)4.....g-vc+O..../-cc+O....+g-/EQ",
"/-/[=OS<g.E-/[==S<g.E-E[QOS<g./--<-)=O<-v.-g-)=O<-c.E-E[=OS<g.v-/+=O<<g.E-/[=OS<g./cE[=Og-vw/-/+=%<<g.c-/[#GuSSQmc/+#^4S<^mc)+#,"};
