/* XPM */
static char * iaGrau_xpm[] = {
"32 32 3 1",
" 	c None",
".	c #EFCE8B",
"+	c #423927",
"                                ",
"                                ",
"             ..  ..       ..    ",
"             ++  ++       ++    ",
"             ..  ..     ........",
"             ++  ++     ++++++++",
"           .......... ..  ..    ",
"           ++++++++++ ++  ++    ",
"             ..  ..     ......  ",
"             ++  ++     ++++++  ",
"           ..........     ..  ..",
"           ++++++++++     ++  ++",
"             ..  ..   ........  ",
"             ++  ++   ++++++++  ",
"             ..  ..       ..    ",
"             ++  ++       ++    ",
"                                ",
"                                ",
"                                ",
"                                ",
"                                ",
"                                ",
"                                ",
"                                ",
"                                ",
"                                ",
"                                ",
"                                ",
"                                ",
"                                ",
"                                ",
"                                "};
