/* XPM */
static char * inGruen2_xpm[] = {
"128 128 8 1",
" 	c None",
".	c #000000",
"+	c #DDDD11",
"@	c #FFFF11",
"#	c #BBBB00",
"$	c #888800",
"%	c #444400",
"&	c #FFFFFF",
"                                                                                                                                ",
"                                                                                                                                ",
"            ........                        ........                        ........                        ........            ",
"          ..++++++++..                    ..++++++++..                    ..++++++++..                    ..++++++++..          ",
"        ..++++@@@+++++..                ..++++@@@+++++..                ..++++@@@+++++..                ..++++@@@+++++..        ",
"       .+++@@@@@@@+++###.              .+++@@@@@@@+++###.              .+++@@@@@@@+++###.              .+++@@@@@@@+++###.       ",
"      .++@@@@@@+++++#####.            .++@@@@@@+++++#####.            .++@@@@@@+++++#####.            .++@@@@@@+++++#####.      ",
"     .++@@@@+++++#########.          .++@@@@+++++#########.          .++@@@@+++++#########.          .++@@@@+++++#########.     ",
"    .++@@@++++#############.        .++@@@++++#############.        .++@@@++++#############.        .++@@@++++#############.    ",
"    .+@@+++################.        .+@@+++################.        .+@@+++################.        .+@@+++################.    ",
"   .+++++#...###....########.      .+++++###...###....######.      .+++++###################.      .+++++#....###...########.   ",
"   .+++++.++#.#.+++#.#######.      .++++###.++#.#.+++#.#####.     ..++++#....###....########.      .+++##.++##.#.++#.#######.   ",
"  .++++#.+####.++####.#######.    .++++###.+####.+#####.#####.    .++###.++##.#.+++#.########.     .+###.+#####.+####.#######.  ",
"  .#####.#####.######.######$.    .#######.#####.######.####$.    .####.+#####.+#####.########.    .####.######.#####.######$.  ",
"  .#####.#####.######.######$.    .#######.#####.######.####$.    .####.######.######.########.    .####.######.#####.######$.  ",
"  .#####.#####.######.#####$$.    .#######.#####.######.####$.    .####.######.######.#########.    .###.######.#####.#####$$.  ",
"  .#####.#####.######.####$$%.    .#######.#####.######.#####.....+####.######.######.##########..  .###..####...###..####$$%.  ",
"  .#####.#####.######.###$$$%.    .#######.#####.######.#$$###++++#####.######.######.##########++...###.&....&.&...&.###$$$%.  ",
"  .######.###.#.####.###$$$%%.    .########.###.#.####.#$$$$$$##########.####.#.####.###$$$#######+++.###.&&&&.#.&&&.###$$$%%.  ",
"  .#######...###....###$$$%%%.    .#########...###....##$$%%%$####$######....###....###$$$$$$$$######+####....###...###$$$%%%.  ",
"   .##################$$$%%%.      .##################$$$%%%..$$$$.$##################$$$$$$$$$$$$####################$$$%%%.   ",
"   .################$$$$%%%%.      .################$$$$%%%%. .... .################$$$$$$%%%%....$#################$$$$%%%%.   ",
"    .$###########$$$$$$%%%%.        .$###########$$$$$$%%%%.        .$###########$$$$$$%%%%...    .$$$###########$$$$$$%%%%.    ",
"    .$$$####$$$$$$$$%%%%%%%.        .$$$####$$$$$$$$%%%%%%%.        .$$$####$$$$$$$$%%%%%%%.       ..$$$####$$$$$$$$%%%%%%%.    ",
"     .$$$$$$$$$$$%%%%%%%%%.          .$$$$$$$$$$$%%%%%%%%%.          .$$$$$$$$$$$%%%%%%%%%.          .$$$$$$$$$$$%%%%%%%%%.     ",
"      .%$$$$%%%%%%%%%%%%%.            .%$$$$%%%%%%%%%%%%%.            .%$$$$%%%%%%%%%%%%%.            .%$$$$%%%%%%%%%%%%%.      ",
"       .%%%%%%%%%%%%%%%%.              .%%%%%%%%%%%%%%%%.              .%%%%%%%%%%%%%%%%.              .%%%%%%%%%%%%%%%%.       ",
"        ..%%%%%%%%%%%%..                ..%%%%%%%%%%%%..                ..%%%%%%%%%%%%..                ..%%%%%%%%%%%%..        ",
"          ..%%%%%%%%..                    ..%%%%%%%%..                    ..%%%%%%%%..                    ..%%%%%%%%..          ",
"            ........                        ........                        ........                        ........            ",
"                                                                                                                                ",
"                                                                                                                                ",
"                                                                                                            ........            ",
"                                                                                                          ..++++++++..          ",
"            ........                                                        ........                    ..++++@@@+++++..        ",
"          ..++++++++..                                                    ..++++++++..                 .+++@@@@@@@+++###.       ",
"        ..++++@@@+++++..                    ........                    ..++++@@@+++++..              .++@@@@@@+++++#####.      ",
"       .+++@@@@@@@+++###.                ...++++++++...                .+++@@@@@@@+++###.            .++@@@@+++++#########.     ",
"      .++@@@@@@+++++#####.             ..++@@@@@@@+++##..             .++@@@@@@+++++#####.           .+@@@++++#############.    ",
"     .++@@@@+++++#########.           .++@@@@@@+++++#####.           .++@@@@+++++#########.          .+@@@+++##############.    ",
"    .++@@@++++#############.         .++@@@@+++++#########.         .++@@@++++#############.        .++@++++###############.    ",
"    .+@@+++################.        .++@@@++++#############.        .+@@+++################.        .+@@....####....########.   ",
"   .++++####################.      .+++++###################.      .++++++...###....########.      .+++.@+++.##.@@++.#######.   ",
"   .++++####################.      .+++++###################.     ..+++++.++#.#.++##.#######.      .++.+++###..++++##.######.   ",
"  .++++######################.    .++++######################.    .++++#.+####.+#####.#######.    .+++.+#####.++#####.#######.  ",
"  .#########################$.    .#####......###......#####$.    .#####.#####.######.######$.    .##.#######.+#######.#####$.  ",
"  .#########################$.    .####.&&.......&&.....####$.    .#####.#####.######.######$.    .##.#######.########.#####$.  ",
"  .########################$$.    .####.................###$$.    .#####.#####.######.#####$$.    .##.#######.########.####$$.  ",
"  .########...###...######$$%.    .####........#........##$$%.....+#####.#####.######.####$$%......##.#######.########.###$$%.  ",
"  .#######.++#.#.++#.####$$$%.    .####........#........#$$$%.++++#######.###.#.####.####$$$%.++++.##.#######.########.##$$$%.  ",
"  .######.+####.+####.##$$$%%.    .#####......###......###################...###....####$############.######.#.######.##$$$%%.  ",
"  .######.#####.#####.#$$$%%%.    .######....#####....#$$##############################$$###########$$.#####.##.####.##$$$%%%.  ",
"   .#####.#####.####..$$$%%%.      .##################$$$%%%. $$$$$$##################$$$%%%.$$$$$$$$##.....####....##$$$%%%.   ",
"   .#####...........&.$$%%%%.      .################$$$$%%%%. .... $$###############$$$$%%%$$$.... .################$$$$%%%%.   ",
"    .$####...&.#...&.$$%%%%.        .$###########$$$$$$%%%%.        .$###########$$$$$$%%%%.        .$###########$$$$$$%%%%.    ",
"    .$$$###...$$$...%%%%%%%.        .$$$####$$$$$$$$%%%%%%%.        .$$$####$$$$$$$$%%%%%%%.        .$$$####$$$$$$$$%%%%%%%.    ",
"     .$$$$$$$$$$$%%%%%%%%%.          .$$$$$$$$$$$%%%%%%%%%.          .$$$$$$$$$$$%%%%%%%%%.          .$$$$$$$$$$$%%%%%%%%%.     ",
"      .%$$$$%%%%%%%%%%%%%.            .%$$$$%%%%%%%%%%%%%.            .%$$$$%%%%%%%%%%%%%.            .%$$$$%%%%%%%%%%%%%.      ",
"       .%%%%%%%%%%%%%%%%.              .%%%%%%%%%%%%%%%%.              .%%%%%%%%%%%%%%%%.              .%%%%%%%%%%%%%%%%.       ",
"        ..%%%%%%%%%%%%..                ..%%%%%%%%%%%%..                ..%%%%%%%%%%%%..                ..%%%%%%%%%%%%..        ",
"          ..%%%%%%%%..                    ..%%%%%%%%..                    ..%%%%%%%%..                    ..%%%%%%%%..          ",
"            ..$%%%..                        ..$%%%..                        ..$%%%..                        ..$%%%..            ",
"             .+#%%.                          .+#%%.                          .+#%%.                          .+#%%.             ",
"             .+##%.                          .+##%.                          .+##%.                          .+##%.             ",
"            .++##$.                          .+##$.                          .+##$.                          .+##$.             ",
"            .++##$$.                         .+##$.                          .@+#$.                          .+##$.             ",
"           .++++##$.                         .+##$.                         .+@++++.                         .+++++.            ",
"           .++++####.                        .+##$.                        .++@++++.                        .+@+++++..          ",
"          .++@@+++###.                      .@+##$.                       .++@@@@++.                      ..+@@@@+++++..        ",
"         .+++@@+++####.                     .++++$$.                      .@@@@@@@++.                    .+@@@@@@@+++###.       ",
"        .+++@@@@@+++##.                   ..++@+++++..                   .@@@@@+++++#.                 ..@@@@@@+++++#####.      ",
"        .+@@@@@++++####.               ...+++@@@@+++++...               .@@@+++++####.                .+@@@@+++++#########.     ",
"       .+@@@+++++#######.             .++@@@@@@+++++#####.             .@@++++########.               .+@@++++#############.    ",
"       .+@++++###########.           .++@@@@+++++#########.           .@+++###########.              .+@++++######...######.    ",
"       .++###############.          .++@@@++++#############.         .@+###############.            .++++++#####..&&&.######.   ",
"       .########...######.         .++++++##################.       .@++################.          .++++++#####.&&&&&&.#####.   ",
"       .#######.&&&..#####.        .++++####################.      .+++####...###....####..       .++++++######.&&&&&&&.#####.  ",
"      .#######.&&&&&&.####.       .++++###....###...#########.     .++####.++#.#.+++#.#####.      .++++#######.&&..&&&&.####$.  ",
"      .#######.&&..&&.####.       .######.++##.#.++#.#######$.    .++####.#####.######.#####.     .++#######...&....&&&.####$.  ",
"      .######......&&.####.       .#####.+#####.+####.######$.   .++#####.#####.######.######..  .++#######.+#.&....&&&.###$$.  ",
"      .#####.++#...&&.####.       .#####.######.#####.###++$$.....#######.#####.######.#######+...+#######.###.&&..&&&.###$$%.  ",
"      .####.+####.&&.####$.       .#####.######.#####.#####+++++++########.###.#.####.#########++++#######.###.&&&&&&&.##$$$%.  ",
"      .####.######..####$$.       .######.####.#.###.######################...###....#####################.###..&&&&&.##$$$%%.  ",
"      .####.######.###$$$%.       .#######....###...####$$###############################$$$$######$$$$####...##.....##$$$%%%.  ",
"      .####.######.#$$$$%%.        .##################$$$%$$$$$$$$$$##################$$$$$$$$$$$$$$$$$$##############$$$%%%.   ",
"      .#####.####.$$$$$%%.         .################$$$$%%%%........################$$$$$$$%%%..........############$$$$%%%%.   ",
"       .#$$$$....$$%%%%%%.          .$###########$$$$$$%%%%.        .$###########$$$$$$%%%%...         .#########$$$$$$%%%%.    ",
"       .#$$$$$$$$%%%%%%%.            .$$$$$$$$$$$%%%%%%%%%.          .$$####$$$$$$$$%%%%%%%.            .#####$$$$$$%%%%%%%.    ",
"        .$$$$$$$%%%%%%%%.             .%$$$$%%%%%%%%%%%%%.            .$$$$$$$$$$%%%%%%%%%.             .##$$$$$$%%%%%%%%%.     ",
"        .$$$$$$%%%%%%%%.               .%%%%%%%%%%%%%%%%.              .$$$$%%%%%%%%%%%%%.              .$$$$$$%%%%%%%%%%.      ",
"         .$$$$$%%%%%%%.                 ..%%%%%%%%%%%%..                .%%%%%%%%%%%%%%%.                .$$%%%%%%%%%%%%.       ",
"         .$$$$$%%%%%%.                    ..%%%%%%%%..                   .%%%%%%%%%%%%..                 .%%%%%%%%%%%%..        ",
"          .%$$$$%%%%.                       ..$%%%..                      ..%%%%%%%%..                    ..%%%%%%%%..          ",
"           .$$$$$%%%.                        .+#%%.                         ..$%%%..                        ..$%%%..            ",
"            .$$#$$%.                         .+##%.                          .+#%%.                          .+#%%.             ",
"             .$##$.                          .+##$.                          .+##%.                          .+##%.             ",
"             .+##$.                          .+##$.                          .+##$.                          .+##$.             ",
"             .+##$.                          .+##$.                          .+##$.                          .+##$.             ",
"            .++++++.                        .++++++.                        .++++++.                        .++++++.            ",
"          ..++@+++++..                    ..++@+++++..                    ..++@+++++..                    ..++@+++++..          ",
"        ..+++@@@@+++++..                ..+++@@@@+++++..                ..+++@@@@+++++..                ..+++@@@@+++++..        ",
"       .+++@@@@@@@+++###.              .+++@@@@@@@+++###.              .+++@@@@@@@+++###.              .+++@@@@@@@+++###.       ",
"      .++@@@@@@+++++#####.            .++@@@@@@+++++#####.            .++@@@@@@+++++#####.            .++@@@@@@+++++#####.      ",
"     .++@@@@+++++#########.          .++@@@@++++...#######.          .++@@@@+++++#########.          .++@@@@+++++#########.     ",
"    .++@@@++++#############.        .++@@@++++#.++#.#######.        .++@@@...+#############.        .++@@@++++#############.    ",
"    .+@@+++################.        .+@@+++###.+###....####.        .+@@+.&&&.###...#######.        .+@@++##.....##.#######.    ",
"   .+++++#...###....########.      .+++++#####.####.++#.####.      .++++.&...&.#.+##.#######.      .++++###.+++##..+.#######.   ",
"   .+++++.++#.#.+++#.#######.      .+++++#####.###.+####.###.     ..+++.&.&&&.&.####..######.      .++++###.######.##.######.   ",
"  .++++#.++###.++####.#######.    .++++########.##.#####.####.    .++++.&.&.&.&.###.&.#######.    .++++####.######.###.######.  ",
"  .#####.#####.######.######$.    .#############...#####.###$.    .####.&&..&.&.##.&&.######$.    .########.######.###.#####$.  ",
"  .#####.#####.######.######$.    .################.###.####$.    .#####.&&&&&.#.#.&.#######$.    .#########...##..###.###$$%.  ",
"  .#####.#####.######.#####$$.    .#################...####$$.    .######.&&&.###...#######$$.    .############..##.##.###$$%.  ",
"  .#####.#####.######.####$$%.    .#######################$$%......#######...#############$$%.....+#################..###$$%%.  ",
"  .#####.#####.######.###$$$%.    .######################$$$%.++++.######################$$$$$+++++###################$#$$$%%.  ",
"  .######.###.#.####.###$$$%%.    .#####################################################$$$$$######################$$$$$$%%%%.  ",
"  .#######...###....###$$$%%%.    .####################$$##############################$$$$$######################$$$$$$%%%%.   ",
"   .##################$$$%%%.      .##################$$$$$$$.$$$$$$##################$$$$$$.$$$$$$$$###########$$$$$$%%%%%.    ",
"   .################$$$$%%%%.      .################$$$$$$%%........################$$$$%%%%........############$$$$%%%%%%.     ",
"    .$###########$$$$$$%%%%.        .$###########$$$$$$%$%%.        .$###########$$$$$$%%%%.        .$#########$$$$%%%%%..      ",
"    .$$$####$$$$$$$$%%%%%%%.        .$$$####$$$$$$$$%%%%%%%.        .$$$####$$$$$$$$%%%%%%%.        .$$$####$$$$$$$%%%..        ",
"     .$$$$$$$$$$$%%%%%%%%%.          .$$$$$$$$$$$%%%%%%%%%.          .$$$$$$$$$$$%%%%%%%%%.          .$$$$$$$$$$$%%%%.          ",
"      .%$$$$%%%%%%%%%%%%%.            .%$$$$%%%%%%%%%%%%%.            .%$$$$%%%%%%%%%%%%%.            .%$$$$%%%%%%%%.           ",
"       .%%%%%%%%%%%%%%%%.              .%%%%%%%%%%%%%%%%.              .%%%%%%%%%%%%%%%%.              .%%%%%%%%%%%.            ",
"        ..%%%%%%%%%%%%..                ..%%%%%%%%%%%%..                ..%%%%%%%%%%%%..                ..%%%%%%%%.             ",
"          ..%%%%%%%%..                    ..%%%%%%%%..                    ..%%%%%%%%..                    ..%%%%..              ",
"            ........                        ........                        ........                        .....               ",
"                                                                                                                                ",
"                                                                                                                                "};
