/* XPM */
static char * inRosaNasen1_xpm[] = {
"128 128 4 1",
" 	c None",
".	c #000000",
"+	c #FD8EFF",
"@	c #FF00FF",
"                                                                                                                                ",
"                                                                                                                                ",
"             .....                          ........                         .....                          .......             ",
"          ...+++++...                     ..++++++@@..                    ...+++++..                      ..+@@@@@@...          ",
"        ..++++++++++@..                 ..++++++++++@@.                  .++++++++++..                   .+++++++++@@@..        ",
"       .++++++++@@@@@@@.               .+++++++++++@@@@.                .+++++++++++++..                .+++++++++@@@@@@.       ",
"      .++++++@@@@@@@@@@@.             .+++++++@@@@@@@@@@.              .++++++++++@@@@@@.              .++++++@@@@@@@@@@@.      ",
"     .++++@@@@@@@@@@@@@@@.           .+++++@@@@@@@@@@@@@@.            .+++++++@@@@@@@@@@@.            .+++++@@@@@@@@@@@@@@.     ",
"    .+++@@@@@@@@@@@@@@@@@@.          .++@@@@@@@@@@..@@@@@@..         .+++@@@@@@@@@@@@@@@@@..        ..++@@@@..@@@@@@@@@@@@@.    ",
"    .@+@@@@@@@@@@@@@@@@@@@@.        .@+@@@@@@@@@@@..@@@@@@@@..      .+++@@@@@@@@@@@@@@@@@@@@..    ..+++@@@@@..@@@@@@@@@@@@@.    ",
"   .@@@@@@@@..@@..@@@@@@@@@.       .@@@@@@@@@@..@@@@@@@@@@@@@@......++++@@..@@@@..@@@@@@@@@@@@.....+++@@@@@@@@@@..@@@@@@@@@@.   ",
"   .@@@@@@@@..@@..@@@@@@@@@@.      .@@@@@@@@@@..@@@@@@@@@@@@@@@@@@+++++@@@..@@@@..@@@@@@@@@@@@@@@++++@@@@@@@@@@@..@@@@@@@@@@.   ",
"  .@@@@@@@@@@@@@@@@@@@@@@@@@.     .@@@@@@@@@@@@@@@@@..@@@@@@@@@+++++++@@@@@@@@@@@@@@@@@@@@@@@@++++++@@@@@@..+@@@@@@@@@@@@@@@@.  ",
"  .@@@@@@@@@@@@@@@@@@@@@@@@@@.    .@@@@@@@@@@@@@@@@+++.@@@@@@@++++++@@@@@@@@@@@@@@@@@@@@@@@@@@++++@@@@@@@.++++@@@@@@@@@@@@@@@.  ",
"  .@@@@@@@@@@@@@@@@@@@@@@@@@@.    .@@@@@@@@@@@@@@@@++++.@@@@@@@@@@@@@@@@@@@@@@@@..@@@@@@@@@@@@@@@@@@@@@@.+++@@@@@@@@@@@@@@@@@.  ",
"  .@@@@@@@@@@@@@@@@@@@@@@@@@@.    .@@@@@@@@@@@@@@@@@++++.@@@@@@@@@@@@@@@@@@@+@@@@@.@@@@@@@@@@@@@@@@@@@@.++++@@@@@@@@@@@@@@@@@.  ",
"  .@@@@@@@@@.+++@@@.@@@@@@@@@.    .@@@@@@@@@@@@@.@@@@@++.@@@@@@@@@@@@@@@@@.+++@@@@.@@@@@@@@@@@@@@@@@@@.+++@@@@@.@@@@@@@@@@@@@.  ",
"  .@@@@@@@@@.+++@@@.@@@@@@@@@.    .@@@@@@@@@@@@@@.@@@@++@.@@@@@@@@@@@@@@@@.+++@@@@.@@@@@@@@@@@@@@@@@@@.@+@@@@@@.@@@@@@@@@@@@.   ",
"  .@@@@@@@@@.+++@@@.@@@@@@@@@.    .@@@@@@@@@@@@@@@.@@@@@@.@@@@@@@@@@@@@@@@.+++@@@@.@@@@@@@@@@@@@@@@@@@.@@@@@@@.@@@@@@@@@@@@@.   ",
"   .@@@@@@@@.+++@@@.@@@@@@@@.     .@@@@@@@@@@@@@@@@.@@@@@.@@@@@@@@@@@@@@@@.+++@@@@.@@@@@@@@@@@@@@@@@@@.@@@@@..@@@@@@@@@@@@@@.   ",
"   .@@@@@@@@.@+@@@@.@@@@@@@@.      .@@@@@@@@@@@@@@@@.@@@.@@@@@@@@@@@@@@@@@.@++@@@@.@@@@@@@@@@@@@@@@@@@@.@@@.@@@@@@@@@@@@@@@.    ",
"   .@@@@@@@@.@@@@@@.@@@@@@@.       .@@@@@@@@@@@@@@@@@...@@@@@@@@@@@@@@@@@@.@@+@@@@.@@@@@@@@@@@@@@@@@@@@@...@@@@@@@@@@@@@@@@.    ",
"    .@@@@@@@.@@@@@.@@@@@@@@.        .@@@@@@@@@@@@@@@@@@@@@@@@@@@@@@@@@@@@@@.@@@@@.@@@@@@@@@@@@@@@@@@@@@@@@@@@@@@@@@@@@@@@@.     ",
"     .@@@@@@.@@@@@.@@@@@@@.          .@@@@@@@@@@@@@@@@@@@@..........@@@@@@@.@@@@@.@@@@@@@..........@@@@@@@@@@@@@@@@@@@@@@@.     ",
"      .@@@@@@.@@@.@@@@@@@.            .@@@@@@@@@@@@@@@@@@.          .@@@@@@@.@@@.@@@@@@..          ...@@@@@@@@@@@@@@@@@@@.      ",
"       .@@@@@@...@@@@@@@.              .@@@@@@@@@@@@@@@@.            ..@@@@@@...@@@@@@.               ..@@@@@@@@@@@@@@@@.       ",
"        .@@@@@@@@@@@@@@.                .@@@@@@@@@@@@@@.               ..@@@@@@@@@@@@.                  .@@@@@@@@@@@@@@.        ",
"         .@@@@@@@@@@@..                  ..@@@@@@@@@@@.                  .@@@@@@@@@@.                    ..@@@@@@@@@@@.         ",
"          ..@@@@@@@..                      ...@@@@@@..                    ..@@@@@@..                       ..@@@@@@@..          ",
"            .......                           ......                        ......                           .......            ",
"                                                                                                                                ",
"                                                                                                                                ",
"                                                                                                                                ",
"                                                                                                                                ",
"            .........                       .......                         .......                         .........           ",
"         ...+++++++++..                   ..+++++++...                    ..+++@@@@..                     ..++++@@@@@..         ",
"       ..++++++++++++++..                .++++++++++@@.                  .++++++++@@@..                  .++++++++@@@@@..       ",
"      .+++++++++++++@@@@@.              .+++++++++@@@@@.                .+++++++@@@@@@@.                .+++++++++++@@@@@.      ",
"     .++++++@@@@@@@@@@@@@@.            .+++++@@@@@@@@@@@.              .+++++++@@@@@@@@@.              .+++++@@@@@@@@@@@@@.     ",
"    .+++++@@@@@@@@@@@@@@@@@.          .+++++@@@@@@@@@@@@@.            .++++@@@@@@@@@@@@@@.            .+++++@@@@@@@@@@@@@@@.    ",
"   .+++@@@@@@@@@@@@@@@@@@@@@.        .++@@@@@@@@@@..@@@@@@.          .+++@@@@@@@@@@@@@@@@@.          .++@@@@@@@@..@@@@@@@@@.    ",
"   .++@@@@@@@@@@@@@@@@@@@@@@.       .@@+@@@@@@@@@@..@@@@@@@.        .+++@@@@@@@@@@@@@@@@@@@..      ..++@@@@@@@@@..@@@@@@@@@@.   ",
"   .+@@@@@@@@@@@@@@@@@@@@@@@.      .@@@@@@@@@@..@@@@@@@@@@@@........+++@@@..@@@@..@@@@@@@@@@@......+++@@@@@@@@@@@@@@..@@@@@@.   ",
"   .@@@@@@@@@@@@@@@@@@@@@@@@@.     .@@@@@@@@@@..@@@@@@@@@@@@@@@@@@@+++@@@@..@@@@..@@@@@@@@@@+++++++++@@@@@@@@@@@@@@@..@@@@@@@.  ",
"  .@@@@@@@@@@@@@@@@@@@@@@@@@@.    .@@@@@@@@@@@@@@@@@..@@@@@@@@@@+++++@@@@@@@@@@@@@@@@@@@@@@@@@+++++@@@@@@@@@@@@...@@@@@@@@@@@.  ",
"  .@@@@@@@@@@@@@@@@@@@@@@@@@@.    .@@@@@@@@@@@@@@@@@@+..@@@@@@+++++@@@@@@@@@@@@@@@@@@@@@@@@@@@@@@@@@@@@@@@@@@..++@@@@@@@@@@@@.  ",
"  .@@@@@@@@@..@@..@@@@@@@@@@@.    .@@@@@@@@@@@@@@@@@@+++.@@@@@@@@@@@@@@@@@@@@@@@.@@@@@@@@@@@@@@@@@@@@@@@@@@@.@+++++@@@@@@@@@@.  ",
"  .@@@@@@@@@..@@..@@@@@@@@@@@.    .@@@@@@@@@@@@@@@@@@@++@.@@@@@@@@@@@@@@@@@.++@@@..@@@@@@@@@@@@@@@@@@@@@@@@.@++++@@@@@@@@@@@@.  ",
"  .@@@@@@@@@@@@@@@@@@@@@@@@@@.    .@@@@@@@@@@@@@.@@@@@@@@.@@@@@@@@@@@@@@@@.+++@@@@@.@@@@@@@@@@@@@@@@@@@@@@.@+++@@@@@@@@@@@@@@.  ",
"  .@@@@@@@@@@@@@@@@@@@@@@@@@@.    .@@@@@@@@@@@@@@..@@@@@@.@@@@@@@@@@@@@@@.@+@@@@@@@.@@@@@@@@@@@@@@@@@@@@@..@@+@@@@@@..@@@@@@@.  ",
"  .@@@@@@@@.++++@@@@@.@@@@@@.     .@@@@@@@@@@@@@@@@..@@@.@@@@@@@@@@@@@@@@.@@@@@@@@@.@@@@@@@@@@@@@@@@@@@@. .@@@@@@@@.@@@@@@@@@.  ",
"  .@@@@@@@@.++++@@@@.@@@@@@@.     .@@@@@@@@@@@@@@@@@@...@@@@@@@@@@@@@@@@@.@@@@@@@@@.@@@@@@@@@@@@@@@@@@..   .@@@@@..@@@@@@@@@@.  ",
"   .@@@@@@.++++@@@@@.@@@@@@@.      .@@@@@@@@@@@@@@@@@@@@@@@@@@@@@@@@@@@@@@.@@@@@@..@@@@@@@@@@@@@@@@@..      .@@@.@@@@@@@@@@@@.  ",
"   .@@@@@@.@++@@@@@.@@@@@@@.       .@@@@@@@@@@@@@@@@@@@@@@@@@@@@@@@@@@@@@@@......@@@@@@@@@@@@@@@@@..         ....@@@@@@@@@@@.   ",
"    .@@@@@.@++@@@@@.@@@@@@@.        .@@@@@@@@@@@@@@@@@@@@@@@@@@@@@@@@@@@@@@@@@@@@@@@@@@@@@@@@@....              .@@@@@@@@@@@.   ",
"     .@@@@.@++@@@@@.@@@@@@.          .@@@@@@@@@@@@@@@@@@@@@.........@@@@@@@@@@@@@@@@@@@@@@....                  .@@@@@@@@@@.    ",
"      .@@@.@@@@@@@@.@@@@@.            .@@@@@@@@@@@@@@@@@@..         ..@@@@@@@@@@@@@@@@@@@.                     .@@@@@@@@@@@.    ",
"       .@@.@@@@@@@.@@@@@.              .@@@@@@@@@@@@@@@@.             ..@@@@@@@@@@@@@@@@.                      .@@@@@@@@@@.     ",
"       .@@@.@@@@@.@@@@@.                .@@@@@@@@@@@@@@.                .@@@@@@@@@@@@@@.                      .@@@@@@@@@@.      ",
"        .@@@.....@@@@@.                  .@@@@@@@@@@@@.                  .@@@@@@@@@@@@.                       .@@@@@@@@@.       ",
"         .@@@@@@@@@@@@.                  .@@@@@@@@@@@.                    .@@@@@@@@@@@.                      .@@@@@@@@@.        ",
"         .@@@@@@@@@@@.                    .@@@@@@@@@@.                    .@@@@@@@@@@.                       .@@@@@@@@.         ",
"          .@@@@@@@@@@.                    .@@@@@@@@@@.                    .@@@@@@@@@@.                      .+@@@@@@@@.         ",
"          .@@@@@@@@@@.                    .+@@@@@@@@@.                    .+@@@@@@@@@@.                    .+++@@@@@@.          ",
"         .+@@@@@@@@@@.                    .+@@@@@@@@@.                   .++@@@@@@@@@@.                    .++@@@@@@@.          ",
"         .+@@@@@@@@@@@.                   .+@@@@@@@@@.                  .@+@@@@@@@@@@@@.                  .@++@@@@@@@.          ",
"         .++@@@@@@@@@@.                  .++@@@@@@@@@.                  .@+@@@@@@@@@@@@.                  .++@@@@@@@@.          ",
"        .+++@@@@@@@@@@@.                .++@@@@@@@@@@@.                 .@+@@@@@@@@@@@@@.                 .++@@@@@@@@@.         ",
"        .+++@@@@@@@@@@@.               .+++@@@@@@@@@@@.                .++@@@@@@@@@@@@@@.                .++@@@@@@@@@@.         ",
"       .+++@@@@@@@@@@@@@.             .+++@@@@@@@@@@@@@.              .+++@@@@@@@@@@@@@@@.              .+++@@@@@@@@@@@.        ",
"       .++@@@@@@@@@@@@@@.            .+++@@@@@@@@@@@@@@@.            .+++@@@@@@@@@@@@@@@@@.            .++@@@@@@@@@@@@@@.       ",
"      .+++@@@@@@@@@@@@@@@.           .+@@@@@@@@@@@@@@@@@@.          .++++@@@@@@@@@@@@@@@@@@..         .+++@@@@@@@@@@@@@@@.      ",
"      .++@@@@@@@@@@@@@@@@.          .+@@@@@@@@@@@@@@@@@@@@.       ..+++@@@@@@@@@@@@@@@@@@@@@@..      .+++@@@@@@@@@@@@@@@@@.     ",
"     .+++@@@@@@@@@@@@@@@@.          .+@@@@@@@@@@@@@@@@@@@@@..   ..@+++@@@@@@@@@@@@@@@@@@@@@@@@@..  ..+++@@@@@@@@@@@@@@@@@@@.    ",
"     .+@@@@@..@@..@@@@@@@@.        .@@@@@@@@@@..@@@@@@@@@@@@@...+++++@@@@@@@@@@@@@..@@@@@@@@@@@@@..+++++@@@@@@@@@@..@@@@@@@@.   ",
"     .@@@@@@..@@..@@@@@@@@.        .@@@@@@@@@@..@@@@@@@@@@@@@@@++++@@@@@@@@@@@@@@@..@@@@@@@@@@@@@@+++++@@@@@@@@@@@..@@@@@@@@.   ",
"    .@@@@@@@@@@@@@@@@@@@@@.       .@@@@@@@@@@@@@@@@@..@@@@@@@@++@@@@@@@@@@@@..@@@@@@@@@@@@@@@@@@++++@@@@@@@@@@@@@@@@@@..@@@@@.  ",
"    .@@@@@@@@@@@@@@@@@@@@@@.      .@@@@@@@@@@@@@@@@@@@..@@@@@@@@@@@@@@@@@@@@..@@@@@@@@@@@@@@@@@@+@@@@@@@@@@@@@@@@@@@@@..@@@@@.  ",
"    .@@@@@@@@@@@@@@@@@@@@@@.      .@@@@@@@@@..@@@@@@@@@@.@@@@@@@@@@@@@@@@@@@@@@@@@@@.@@@@@@@@@@@@@@@@@@@@@@@@@@@@.+@@@@@@@@@@.  ",
"    .@@@@@@@@@@@@@@@@@@@@@@.      .@@@@@@@@@..@@@@++@@@@@.@@@@@@@@@@@@@@@@@@@@@@@@@@.@@@@@@@@@@@@@@@@@@@@@@@@@@..+++@@@@@@@@@.  ",
"    .@@@@@@@@.++@@.@@@@@@@@.       .@@@@@@@@@@@@@++@@@@@@.@@@@@@@@@@@@@@@@@@@@.+++@@@.@@@@@@@@@@@@@@@@@@@@@@@@.+++@@@@@@@@@@@.  ",
"    .@@@@@@@@.++@@.@@@@@@@@.       .@@@@@@@@@@@@@+@@@@@@@.@@@@@@@@@@@@@@@@@@@.+++@@@@.@@@@@@@@@@@@@@@@@@@@@@@.+++@@@@@@@@@@@@.  ",
"    .@@@@@@@.+++@@@.@@@@@@@.        .@@@@@@@@@@@.@@@@@@@@.@@@@@@@@@@@@@@@@@@.@++@@@@@.@@@@@@@@@@@@@@@@@@@@@@.++@@@@@@@.@@@@@@.  ",
"    .@@@@@@@.++@@@@.@@@@@@..         .@@@@@@@@@@.@@@@@@@.@@@@@@@@@@@@@@@@@@@.@++@@@@@.@@@@@@@@@@@@@@@@@@@@@@.@@@@@@@..@@@@@@@.  ",
"     .@@@@@@.++@@@@.@@@@@@.           .@@@@@@@@@@.@@@@..@@@@@@@@@@@@@@@@@@@@.@++@@@@@.@@@@@@@@@@@@@@@@@@@@@@.@@@@@..@@@@@@@@.   ",
"     .@@@@@@.++@@@@.@@@@@@.           .@@@@@@@@@@@....@@@@@@@@@@@@@@@@@@@@@@.@@@@@@@@.@@@@@@@@@@@@@@@@@@@@@@@.@@@.@@@@@@@@@@.   ",
"      .@@@@@.@@@@@@.@@@@@@.            .@@@@@@@@@@@@@@@@@@@@@@@@@@@@@@@@@@@@.@@@@@@@@.@@@@@@@@@@@@@@@@@@@@@@@@...@@@@@@@@@@@.   ",
"      .@@@@@@.@@@@.@@@@@@.             .@@@@@@@@@@@@@@@@@@........@@@@@@@@@@@.@@@@@@.@@@@@@@@@........@@@@@@@@@@@@@@@@@@@@@.    ",
"       .@@@@@.@@@@.@@@@@@.              .@@@@@@@@@@@@@@@@.        ..@@@@@@@@@@..@@@.@@@@@@@@..        .@@@@@@@@@@@@@@@@@@@@.    ",
"       .@@@@@@....@@@@@@.                .@@@@@@@@@@@@@@.           ..@@@@@@@@@@...@@@@@@@..           .@@@@@@@@@@@@@@@@@@.     ",
"        .@@@@@@@@@@@@@@@.                .@@@@@@@@@@@@@.              .@@@@@@@@@@@@@@@@@@.              .@@@@@@@@@@@@@@@@.      ",
"        .@@@@@@@@@@@@@@.                 .@@@@@@@@@@@@.                .@@@@@@@@@@@@@@@@.                .@@@@@@@@@@@@@@.       ",
"         .@@@@@@@@@@@@@.                  .@@@@@@@@@@@.                 .@@@@@@@@@@@@@@.                  .@@@@@@@@@@@@@.       ",
"         .@@@@@@@@@@@@.                   .@@@@@@@@@@.                  .@@@@@@@@@@@@@@.                  .@@@@@@@@@@@@.        ",
"         .@@@@@@@@@@@@.                   .@@@@@@@@@@.                   .@@@@@@@@@@@@.                   .@@@@@@@@@@@@.        ",
"          .@@@@@@@@@@@.                   .+@@@@@@@@@.                   .@@@@@@@@@@@@.                   .@@@@@@@@@@@.         ",
"          .@@@@@@@@@@.                    .+@@@@@@@@@.                    .@@@@@@@@@@.                    .@@@@@@@@@@@.         ",
"          .@@@@@@@@@@.                    .+@@@@@@@@@.                    .+@@@@@@@@@.                    .+@@@@@@@@@.          ",
"          .@++@@@@@@@.                    .++@@@@@@@@.                    .+@@@@@@@@@.                    .++@@@@@@@@.          ",
"          .+++@@@@@@@.                    .++@@@@@@@@@.                  .++@@@@@@@@@@.                   .++@@@@@@@@.          ",
"         .+++@@@@@@@@@.                  .+++@@@@@@@@@.                  .+++@@@@@@@@@.                   .++@@@@@@@@@.         ",
"         .++@@@@@@@@@@.                  .+++@@@@@@@@@@.                .+++@@@@@@@@@@@.                 .+++@@@@@@@@@@.        ",
"        .+++@@@@@@@@@@@.                 .++@@@@@@@@@@@@.              .+++@@@@@@@@@@@@@.                .++@@@@@@@@@@@@.       ",
"        .++@@@@@@@@@@@@.                .+++@@@@@@@@@@@@@.            .++++@@@@@@@@@@@@@@.              .+++@@@@@@@@@@@@.       ",
"       .++@@@@@@@@@@@@@@.               .+++@@@@@@@@@@@@@@.          .++++@@@@@@@@@@@@@@@@.            .++@@@@@@@@@@@@@@@.      ",
"      .++@@@@@@@@@@@@@@@@.             .+++@@@@@@@@@@@@@@@@..      ..+++@@@@@@@@@@@@@@@@@@@..        ..+++@@@@@@@@@@@@@@@.      ",
"     .++@@@@@@@@..@@..@@@@.            .++@@@@@@@@@@@@@@@@@@@.......++@@@@@@@@@@@@@@@@@@@@@@@........++++@@@@@@@..@@@@@@@.      ",
"     .+@@@@@@@@@..@@..@@@@@.          .@@+@@@@@@@@@@@@@@@@@@@@+++++++@@@@@@@@@@@@@@@@@@@@@@@@@@++++++++@@@@@@@@@..@@@@@@@@.     ",
"    .+@@@@@@@@@@@@@@@@@@@@@.          .@@@@@@@@@@@@@@@@@@@@@@@+++++@@@@@@@@@..@@..@@@@@@@@@@@@@@++++++@@@@@@@@@@@@@@..@@@@.     ",
"    .@@@@@@@@@@@@@@@@@@@@@@.         .@@@@@@@@@@@@@@@@@@@@@@@@++@@@@@@@@@@@@..@@..@@@@@@@@@@@@@@@@@@@@@@@@@@@@@@@@@@..@@@@.     ",
"   .@@@@@@@@@@@@@@@@@@@@@@@@.        .@@@@..@@@@@@@@@@@@@@@@@@@@@@@@@@@@@@@@@@@@@@@@@@@@@@@@@@@@@@@@@@@@@@@@@.++@@@@@@@@@@.     ",
"   .@@@@@@@@@@@@@@@@@@@@@@@@.        .@@@@..@@@@@@@@@@@@@@@@@@@@@@@@@@@@@@@@@@@@@@@@@@@@@@@@@@@@@@@@@@@@@@@@.+++@@@@@@@@@@.     ",
"   .@@@@@@@@@@@.++@@@.@@@@@@.        .@@@@@@@@..@@@@@@@@@@@@@@@@@@@@@@@@.@+++@@@@@.@@@@@@@@@@@@@@@@@@@@@@@@.++@@@@@.@@@@@@.     ",
"  .@@@@@@@@@@@.+++@@@.@@@@@@.        .@@@@@@@@..@@@@@@@@@@@@@@@@@@@@@@@@.+++++@@@@.@@@@@@@@@@@@@@@@@@@@@@@.+++@@@@.@@@@@@@.     ",
"  .@@@@@@@@@@@.+++@@@.@@@@@@.        .@@@@@@@@@@@@@@@@@@@@@@@@@@@@@@@@@@.++++@@@@@@.@@@@@@@@@@@@@@@@@@@@@@.+@@@@@.@@@@@@@@.     ",
"  .@@@@@@@@@@@.++@@@@.@@@@@@.        .....@@@@@@@@@@@@@@@@@@@@@@@@@@@@@@.++++@@@@@@.@@@@@@@@@@@@@@@@@@@@@@.@@@@@.@@@@@@@@.      ",
"   .@@@@@@@@@@.+@@@@@.@@@@@.      ...@@@@@@@@@@@@@@@@@@@@@@@@@@@@@@@@@@@@.++@@@@@@@.@@@@@@@@@@@@@@@@@@@@@@@.@@@.@@@@@@@@@.      ",
"   .@@@@@@@@@.@+@@@@.@@@@@@.     .@@@@@@@@@@@@@@@@@@@@@@@@@@@@@@@@@@@@@@@.++@@@@@@@.@@@@@@@@@@@@@@@@@@@@@@@@...@@@@@@@@@@.      ",
"    .@@@@@@@@.@@@@@@.@@@@@.      .@@++++@@@@@@@@@@@@@@@@@@@@@@@@@@@@@@@@@.@+@@@@@@@.@@@@@@@@@@@@@@@@@@@@@@@@@@@@@@@@@@@@.       ",
"    .@@@@@@@@.@@@@@.@@@@@@.      .@@++++@@..@@@@@@@@@@@@@@@.....@@@@@@@@@.@@@@@@@@@.@@@@@@@@@@.....@@@@@@@@@@@@@@@@@@@@@.       ",
"     .@@@@@@@@.@@@.@@@@@@.       .@@@@@@..@@@@@@@@@@@@@@@..     ..@@@@@@@.@@@@@@@@@.@@@@@@@@..     ..@@@@@@@@@@@@@@@@@@.        ",
"      .@@@@@@@@...@@@@@@.         .@@@.. .@@@@@@@@@@@@@@.         ..@@@@@@.@@@@@@@@.@@@@@@..         ..@@@@@@@@@@@@@@@.         ",
"       .@@@@@@@@@@@@@@@.           ...    .@@@@@@@@@@@@.            .@@@@@@.@@@@@@.@@@@@..             ..@@@@@@@@@@@..          ",
"        ..@@@@@@@@@@@..                    .@@@@@@@@@..              ..@@@@@......@@@@..                 .@@@@@@@@..            ",
"          ..@@@@@@...                       ..@@@@@..                  .@@@@@@@@@@@@@.                    ..@@@@..              ",
"            ......                            .....                     .@@@@@@@@@@@.                       ....                ",
"                                                                         ..@@@@@@@..                                            ",
"                                                                           .......                                              "};
