/* XPM */
static char * ipHoch_xpm[] = {
"64 96 7 1",
" 	c None",
".	c #000000",
"+	c #D2A0EF",
"@	c #8927BA",
"#	c #B868E2",
"$	c #43095B",
"%	c #67188E",
"                                                                ",
"               .                               .                ",
"              .+.                             .+.               ",
"             .+++.                           .+++.              ",
"            .++@++.                         .++@++.             ",
"           .++@@@+#.                       .++@@@+#.            ",
"          .++@@@@@##.                     .++@@@@@##.           ",
"         .++@@@@@@@##.                   .++@@@@@@@##.          ",
"        .++@@@@@@@@@##.                 .++@@@@@@@@@##.         ",
"       .++@@@@@@@@@@@##.               .++@@@@@@@@@@@##.        ",
"      .+@@$$%@@@@@%$$$$#.             .+@@$$%@@@@@%$$$$#.       ",
"     .@@$$$%#@@@@@%%$$$$$.           .@@$$$%#@@@@@%%$$$$$.      ",
"    .......##@@@@@%%.......         .......##@@@@@%%.......     ",
"          .##@@@@@%%.                     .##@@@@@%%.           ",
"          .##@@@@@%%.                     .##@@@@@%%.           ",
"          .##@@@@@%%.                     .##@@@@@%%.           ",
"          .##@@@@@%%.                     .##@@@@@%%.           ",
"          .##@@@@@%%.                     .##@@@@@%%.           ",
"          .##@@@@@%%.......................##@@@@@%%.           ",
"          .##@@@@@%%#+++++++++++++++++++++++#@@@@@%%.           ",
"          .##@@@@@%##++++++++++++++++++++++++@@@@@%%.           ",
"          .##@@@@@@@@@@@@@@@@@@@@@@@@@@@@@@@@@@@@@%%.           ",
"          .##@@@@@@@@@@@@@@@@@@@@@@@@@@@@@@@@@@@@@%%.           ",
"          .##@@@@@@@@@@@@@@@@@@@@@@@@@@@@@@@@@@@@@%%.           ",
"          .##@@@@@@@@@@@@@@@@@@@@@@@@@@@@@@@@@@@@@%%.           ",
"          .##@@@@@@@@@@@@@@@@@@@@@@@@@@@@@@@@@@@@@%%.           ",
"          .##@@@@@%$$$$$$$$$$$$$$$$$$$$$$$$$%@@@@@%%.           ",
"          .##@@@@@%%$$$$$$$$$$$$$$$$$$$$$$$%#@@@@@%%.           ",
"          .##@@@@@%%.......................##@@@@@%%.           ",
"          .##@@@@@%%.                     .##@@@@@%%.           ",
"          .##@@@@@%%.                     .##@@@@@%%.           ",
"          .##@@@@@%%.                     .##@@@@@%%.           ",
"          .##@@@@@%%.                     .##@@@@@%%.           ",
"          .##@@@@@%%.                     .##@@@@@%%.           ",
"          .##@@@@@%%.                     .##@@@@@%%.           ",
"          .##@@@@@%%.                     .##@@@@@%%.           ",
"          .##@@@@@%%.                     .##@@@@@%%.           ",
"          .##@@@@@%%.                     .##@@@@@%%.           ",
"          .##@@@@@%%.                     .##@@@@@%%.           ",
"          .##@@@@@%%.                     .##@@@@@%%.           ",
"          .##@@@@@%%.                     .##@@@@@%%.           ",
"          .##@@@@@%%.                     .##@@@@@%%.           ",
"          .##@@@@@%%.                     .##@@@@@%%.           ",
"          .##@@@@@%%.                     .##@@@@@%%.           ",
"          .##@@@@@%%.                     .##@@@@@%%.           ",
"          .##@@@@@%%.                     .##@@@@@%%.           ",
"          .##@@@@@%%.                     .##@@@@@%%.           ",
"          .##@@@@@%%.                     .##@@@@@%%.           ",
"          .##@@@@@%%.                     .##@@@@@%%.           ",
"          .##@@@@@%%.                     .##@@@@@%%.           ",
"          .##@@@@@%%.......................##@@@@@%%.           ",
"          .##@@@@@%%#+++++++++++++++++++++++#@@@@@%%.           ",
"          .##@@@@@%##++++++++++++++++++++++++@@@@@%%.           ",
"          .##@@@@@@@@@@@@@@@@@@@@@@@@@@@@@@@@@@@@@%%.           ",
"          .##@@@@@@@@@@@@@@@@@@@@@@@@@@@@@@@@@@@@@%%.           ",
"          .##@@@@@@@@@@@@@@@@@@@@@@@@@@@@@@@@@@@@@%%.           ",
"          .##@@@@@@@@@@@@@@@@@@@@@@@@@@@@@@@@@@@@@%%.           ",
"          .##@@@@@@@@@@@@@@@@@@@@@@@@@@@@@@@@@@@@@%%.           ",
"          .#$$$$$$$$$$$$$$$$$$$$$$$$$$$$$$$$$$$$$$$%.           ",
"          .$$$$$$$$$$$$$$$$$$$$$$$$$$$$$$$$$$$$$$$$$.           ",
"          ...........................................           ",
"                                                                ",
"                                                                ",
"                                                                ",
"                                                                ",
"                                                                ",
"                                      ...                       ",
"                                      .++...                    ",
"               ...                    .#++++...                 ",
"            ...+#.                    .##++++++...              ",
"         ...+++%.                    .##@@@@++++++...           ",
"      ...+++++%%.                    .##@@@@@@@++++@%..         ",
"  .... +++++@%%.                     .##@@@@@@@@$$$$..          ",
"  .++++++@@@@%%.                    .##@@@@@@@$$$$..            ",
"  .##+@@@@@@%%@..                   .##@@@@@@%%$..              ",
"   .##@@@@@@@++++..                 .##@@@@@@@%%.               ",
"   .##@@@@@@@@@++++..              .##@@#@@@@@%%.               ",
"   .##@@@@@@@@@@@++++..            .##$###@@@@@%%.              ",
"    .##@@@@@@@@@@@@++++..          .#$$$$#@@@@@%%.              ",
"    .##@@@$@@@@@@@@@@++++..       .#%$...##@@@@@%%.             ",
"    .##@@%$$$@@@@@@@@@@++++..     .%..  .##@@@@@%%.             ",
"     .##@%%$$$$@@@@@@@@@@+@@.     ..     .##@@@@@%%.            ",
"     .##%%...$$$$@@@@@@@@@%.             .##@@@@@%%.            ",
"     .##%%.  ..$$$$@@@@@@%%.              .##@@@@@%%.           ",
"      .#%.     ..$$$$@@@%%.               .##@@@@@%%.           ",
"      .$$.       ..$$$$@%%.                .##@@@@@%%.          ",
"      .$.          ..$$$$.                 .##@@@@@%%.          ",
"       ..            ..$$.                  .##@@@@@%%.         ",
"       .               ..                   .##@@@$$$$.         ",
"                                             .##@$$$..          ",
"                                             .#@$$..            ",
"                                              .$..              ",
"                                              ..                ",
"                                                                ",
"                                                                ",
"                                                                "};
