/* XPM */
static char * isBauerWeiss_xpm[] = {
"32 32 7 1",
" 	c None",
".	c #010101",
"+	c #F0F0F0",
"@	c #E9E9E9",
"#	c #C8C8C8",
"$	c #8B8B8B",
"%	c #494949",
"                                ",
"                                ",
"                                ",
"                                ",
"                                ",
"                                ",
"                                ",
"                                ",
"             ......             ",
"            .+++@@#.            ",
"           .++@@####.           ",
"           .@@#####$.           ",
"           .@######$.           ",
"           .#####$$$.           ",
"            .$$$$$%.            ",
"             .$%%%.             ",
"             .##$$.             ",
"             .+##$.             ",
"             .+##$.             ",
"             .@##$.             ",
"            .+@@##$.            ",
"            .+@@##$.            ",
"           .++@@###$.           ",
"          .%%%%%%%%%%.          ",
"          .+@@#####$%.          ",
"        ..%%%%%%%%%%%%..        ",
"        .++@########$$%.        ",
"        .++@########$$%.        ",
"        .++@########$$%.        ",
"        ................        ",
"                                ",
"                                "};
