/* XPM */
static char * itGelb_xpm[] = {
"160 192 22 1",
" 	c None",
".	c #000000",
"+	c #FFC14F",
"@	c #F9A600",
"#	c #FFFFFF",
"$	c #FFF18C",
"%	c #FFEC21",
"&	c #CC8400",
"*	c #C9B418",
"=	c #FEAA4F",
"-	c #F78600",
";	c #FEE18B",
">	c #FECC21",
",	c #CC6900",
"'	c #C79C18",
")	c #FED843",
"!	c #EFC500",
"~	c #F7F7F7",
"{	c #F9FE7D",
"]	c #F0FE17",
"^	c #C49C00",
"/	c #BAC017",
"                                                                                                                                                                ",
"                                                                                                                                                                ",
"                                                                                                                                                                ",
"                                                                                                                                                                ",
"                                                                                                                                                                ",
"                                                                                                                                                                ",
"                                                                                                                                                                ",
"                                                                                                                                                                ",
"                                                                                                                                                                ",
"                                                                                                                                                                ",
"                                                                                                                                                                ",
"                                                                                                                                                                ",
"                                                                                                                                                                ",
"                                                                                                                                                                ",
"                                                                                                                                                                ",
"                                                                                                                                                                ",
"                                                                                                                                                                ",
"                                                                                                                                                                ",
"                                     .    .                                                                          .    .                                     ",
"                                     .   .+.    .                                                              .    .+.   .                                     ",
"                                    ...  .+.   .+.   .                                                    .   .+.   .+.  ...                                    ",
"                                    .+.  .++.  .+.   ..                                                  ..   .+.  .++.  .+.                                    ",
"                                    .++. .++.  .++. .++.                                                .++. .++.  .++. .++.                                    ",
"                                    .++..++++..+++..+++.                                                .+++..+++..++++..++.                                    ",
"                                    .+++.++++.+++++.++++.                                              .++++.+++++.++++.+++.                                    ",
"                                   .++++@++++@++++@@++++...                                          ...++++@@++++@++++@++++.                                   ",
"                                   .++++@++++@++++@+++..###.                                        .###..+++@++++@++++@++++.                                   ",
"                         .         .+++++++++++++++++.##.###.                                      .###.##.+++++++++++++++++.         .                         ",
"                         ....      .++++++++++++++++.####.##.                                      .##.####.++++++++++++++++.      ....                         ",
"                          .++...    .+++++++++++++++.#####..........                        ..........#####.+++++++++++++++.    ...++.                          ",
"                          .@@@++..  .+++++...........##..#...$$$$$$$..                    ..$$$$$$$...#..##...........+++++.  ..+++@@.                          ",
"                           .@@@@@+.........+++++++++.##..#.$$$$$$$%%%%..                ..$$$$$$$$$$$.#..##.+++++++++.........++@@@@.                           ",
"                           .@@@@@@+++++++++++++@@@@@@.....$$$$$%%%%%%%%%.              .$$$$$%%%%%%%%%.....@@@@@@+++++++++++++@@@@@&.                           ",
"                           .&&@@@@@@@@@@@@@@@@@@@@@@@@@@@%%%%%%%%%%%%%%%%.            .$$%%%%%%%%%%%%%%@@@@@@@@@@@@@@@@@@@@@@@@@@@&&.                           ",
"                          .@@&&&&&&@@@@@@@@@@@@@@@@@@@@@@%%%%%%%%%%%%%%%%.            .%%%%%%%%%%%%%%%%@@@@@@@@@@@@@@@@@@@@@@&&&&&&@&.                          ",
"                          .@@@@@@@@@@@@@@@@@@@@@@@@@@@@@%%%%%%%%%%%%%%%%%%.          .%%%%%%%%%%%%%%%%@@@@@@@@@@@@@@@@@@@@@@@@@@@@@@&.                          ",
"                           .@@@@@@@@@@@@@@@@@@@@@@@@@@@@%%%%%%%%%%%%%%%%%%.          .%%%%%%%%%%%%%%%%@@@@@@@@@@@@@@@@@@@@@@@@@@@@@@.                           ",
"                           .@@@@@@@@@@@@@@@@@@@@@@@@@@@@%%%%%%%%%%%%%%***.            .%%%%%%%%%%%%%%%@@@@@@@@@@@@@@@@@@@@@@@@@@@@@&.                           ",
"                           .@@@@@@@@@@@@@@@@@@@@@@@@@@@@%%*%%%%%%%****...              .**%%%%%%%%%%%%@@@@@@@@@@@@@@@@@@@@@@@@@@@@@&.                           ",
"                           .@@@@@@@@@@@@@@@+@@@++@@@@@@@%%%*..****....**.              ....***%%%%%%*%@@@@@@@@@++@@@+@@@@@@@@@@@@@@&.                           ",
"                           .@@@@@&&@@@@@@.++++++++@++@@@%%%%%%....%%***.                .*%....***..%%@@@@@++@++++++++.@@@@@@&&@@@@&.                           ",
"                            .@@&&&@@@@@@.+++++++++++++..%%%%%%%%%%***..                  ..**%%...%%%%@&..+++++++++++++.@@@@@@&&&@&.                            ",
"                            .&&&@@@@@@@.++++++++++++++.&**%%%%%*****.                      .***%%%%%**&&&.++++++++++++++.&&@@@@@&&&.                            ",
"                            .@@@@@@&&&.+++++++++++++++...**********.                        .**********...+++++++++++++++.&&&@@@@@&.                            ",
"                            .@@@&&&....+++++@@+++++++..  ...*****..                          ..*****...  ..+++++++@@+++++....&&&@@@.                            ",
"                           .@@&&...  .++++++@++++++++.      .....                              .....      .++++++++@++++++.  ...&&@&.                           ",
"                           .&&..     .+++++@@++++++++.                                                    .++++++++@@+++++.     ..&&.                           ",
"                          ....      .++++++@+++++++++.                                                    .+++++++++@++++++.      ....                          ",
"                                    .++++++@++++@@+++.                                                    .+++@@++++@++++++.                                    ",
"                                    .++++++@++++@++++.                                                    .++++@++++@++++++.                                    ",
"                                     .++++.++++@+++++.                                                    .+++++@++++.++++.                                     ",
"                                     .+++. .++++.++++.                 .  ..  .                           .++++.++++. .+++.                                     ",
"                                      .++. .+++. .+++.                .. .=. .=. .                        .+++. .+++. .++.                                      ",
"                                      .++.  .++. .+++.                .=..==.==. ..                       .+++. .++.  .++.                                      ",
"                                       .+.  .++.  .+.                 .=..==.===.==.                       .+.  .++.  .+.                                       ",
"                                       ..    ..   ..                  .==.==.===.===.                       ..   ..    ..                                       ",
"                                        .    .     .                  .==.=========...                      .     .    .                                        ",
"                                                                ..    .===========..##.                                                                         ",
"                                                                .-..  .==========.##........                                                                    ",
"                                                                .--=..............#....;;;;;..                                                                  ",
"                                                                .-----============...;;;;>>>>>.                                                                 ",
"                                                                .,,------------------>>>>>>>>>>.                                                                ",
"                                                                .--,,--------------->>>>>>>>>>>.                                                                ",
"                                                                .------------------->>>>>>>>>>>.                                                                ",
"                                                                .------------------->.>>>>>>>>>                                                                 ",
"                                                                .---,,-------------->>.>>>.....                                                                 ",
"                                                                .,,,-----.==-==-==..>>>...>>..                                                                  ",
"                                                                 .----,,.=========.,>>>>>>>.                                                                    ",
"                                                                 .--,,...========.....>>>..                                                                     ",
"                                                                .,,,.. .=========.    ....                                                                      ",
"                                                                ....  .==========.                                                                              ",
"                                                                      .==========.                                                                              ",
"                                                                      .===.======.                                                                              ",
"                                                                       .==.===.==.                                                                              ",
"                                                                       .=. .==.==.                                                                              ",
"                                                                        .. .=. .=.                                                                              ",
"                                                                        ..  ..  .                                                                               ",
"                                                                                                                                                                ",
"                                                                                                                                                                ",
"                                                                                                                                                                ",
"                                                                                                                                                                ",
"                                                                                                                                                                ",
"                                     .    .                                                                          .    .                                     ",
"                                     .   .=.    .                                                              .    .=.   .                                     ",
"                                    ...  .=.   .=.   .                                                    .   .=.   .=.  ...                                    ",
"                                    .=.  .==.  .=.   ..                                                  ..   .=.  .==.  .=.                                    ",
"                                    .==. .==.  .==. .==.                                                .==. .==.  .==. .==.                                    ",
"                                    .==..====..===..===.                                                .===..===..====..==.                                    ",
"                                    .===.====.=====.====.                                              .====.=====.====.===.                                    ",
"                                   .====-====-====--====...                                          ...====--====-====-====.                                   ",
"                                   .====-====-====-===..###.                                        .###..===-====-====-====.                                   ",
"                         .         .=================.##.###.                                      .###.##.=================.         .                         ",
"                         ....      .================.####.##.                                      .##.####.================.      ....                         ",
"                          .==...    .===============.#####..........                        ..........#####.===============.    ...==.                          ",
"                          .---==..  .=====...........##..#...;;;;;;;..                    ..;;;;;;;...#..##...........=====.  ..===--.                          ",
"                           .-----=.........=========.##..#.;;;;;;;>>>>..                ..;;;;;;;;;;;.#..##.=========.........==----.                           ",
"                           .------=============------.....;;;;;>>>>>>>>>.              .;;;;;>>>>>>>>>.....------=============-----,.                           ",
"                           .,,--------------------------->>>>>>>>>>>>>>>>.            .;;>>>>>>>>>>>>>>---------------------------,,.                           ",
"                          .--,,,,,,---------------------->>>>>>>>>>>>>>>>.            .>>>>>>>>>>>>>>>>----------------------,,,,,,-,.                          ",
"                          .----------------------------->>>>>>>>>>>>>>>>>>.          .>>>>>>>>>>>>>>>>------------------------------,.                          ",
"                           .---------------------------->>>>>>>>>>>>>>>>>>.          .>>>>>>>>>>>>>>>>------------------------------.                           ",
"                           .---------------------------->>>>>>>>>>>>>>'''.            .>>>>>>>>>>>>>>>-----------------------------,.                           ",
"                           .---------------------------->>'>>>>>>>''''...              .''>>>>>>>>>>>>-----------------------------,.                           ",
"                           .---------------=---==------->>>'..''''....''.              ....'''>>>>>>'>---------==---=--------------,.                           ",
"                           .-----,,------.========-==--->>>>>>....>>'''.                .'>....'''..>>-----==-========.------,,----,.                           ",
"                            .--,,,------.=============..>>>>>>>>>>'''..                  ..''>>...>>>>-,..=============.------,,,-,.                            ",
"                            .,,,-------.==============.,''>>>>>'''''.                      .'''>>>>>'',,,.==============.,,-----,,,.                            ",
"                            .------,,,.===============...''''''''''.                        .''''''''''...===============.,,,-----,.                            ",
"                            .---,,,....=====--=======..  ...'''''..                          ..'''''...  ..=======--=====....,,,---.                            ",
"                           .--,,...  .======-========.      .....                              .....      .========-======.  ...,,-,.                           ",
"                           .,,..     .=====--========.                                                    .========--=====.     ..,,.                           ",
"                          ....      .======-=========.                                                    .=========-======.      ....                          ",
"                                    .======-====--===.                                                    .===--====-======.                                    ",
"                                    .======-====-====.                                                    .====-====-======.                                    ",
"                                     .====.====-=====.                                                    .=====-====.====.                                     ",
"                                     .===. .====.====.                                                    .====.====. .===.                                     ",
"                                      .==. .===. .===.                                                    .===. .===. .==.                                      ",
"                                      .==.  .==. .===.                                                    .===. .==.  .==.                                      ",
"                                       .=.  .==.  .=.                                                      .=.  .==.  .=.                                       ",
"                                       ..    ..   ..                                                        ..   ..    ..                                       ",
"                                        .    .     .                                                        .     .    .                                        ",
"                                                                                                                                                                ",
"                                                                                                                                                                ",
"                                                                                                                                                                ",
"                                                                                                                                                                ",
"                                                                                                                                                                ",
"                                                                                                                                                                ",
"                                                                                                                                                                ",
"                                                                                                                                                                ",
"                                                                                                                                                                ",
"                                                                                                                                                                ",
"                                                                                                                                                                ",
"                                                                                                                                                                ",
"                                                                                                                                                                ",
"                                                                                                                                                                ",
"                                                                                                                                                                ",
"                                                                                                                                                                ",
"                                                                                                                                                                ",
"                                                                                                                                                                ",
"                                                                                                                                                                ",
"                                                                                                                                                                ",
"                                                                                                                                                                ",
"                                                                                                                                                                ",
"                                                                                                                                                                ",
"                                                                                                                                                                ",
"                                                                                                                                                                ",
"                                     .    .                                                                          .    .                                     ",
"                                     .   .).    .                                                              .    .).   .                                     ",
"                                    ...  .).   .).   .                                                    .   .).   .).  ...                                    ",
"                                    .).  .)).  .).   ..                                                  ..   .).  .)).  .).                                    ",
"                                    .)). .)).  .)). .)).                                                .)). .)).  .)). .)).                                    ",
"                                    .))..))))..)))..))).                                                .)))..)))..))))..)).                                    ",
"                                    .))).)))).))))).)))).                                              .)))).))))).)))).))).                                    ",
"                                   .))))!))))!))))!!))))...                                          ...))))!!))))!))))!)))).                                   ",
"                                   .))))!))))!))))!)))..~~~.                                        .~~~..)))!))))!))))!)))).                                   ",
"                         .         .))))))))))))))))).~~.~~~.                                      .~~~.~~.))))))))))))))))).         .                         ",
"                         ....      .)))))))))))))))).~~~~.~~.                                      .~~.~~~~.)))))))))))))))).      ....                         ",
"                          .))...    .))))))))))))))).~~~~~..........                        ..........~~~~~.))))))))))))))).    ...)).                          ",
"                          .!!!))..  .)))))...........~~..~...{{{{{{{..                    ..{{{{{{{...~..~~...........))))).  ..)))!!.                          ",
"                           .!!!!!).........))))))))).~~..~.{{{{{{{]]]]..                ..{{{{{{{{{{{.~..~~.))))))))).........))!!!!.                           ",
"                           .!!!!!!)))))))))))))!!!!!!.....{{{{{]]]]]]]]].              .{{{{{]]]]]]]]].....!!!!!!)))))))))))))!!!!!^.                           ",
"                           .^^!!!!!!!!!!!!!!!!!!!!!!!!!!!]]]]]]]]]]]]]]]].            .{{]]]]]]]]]]]]]]!!!!!!!!!!!!!!!!!!!!!!!!!!!^^.                           ",
"                          .!!^^^^^^!!!!!!!!!!!!!!!!!!!!!!]]]]]]]]]]]]]]]].            .]]]]]]]]]]]]]]]]!!!!!!!!!!!!!!!!!!!!!!^^^^^^!^.                          ",
"                          .!!!!!!!!!!!!!!!!!!!!!!!!!!!!!]]]]]]]]]]]]]]]]]].          .]]]]]]]]]]]]]]]]!!!!!!!!!!!!!!!!!!!!!!!!!!!!!!^.                          ",
"                           .!!!!!!!!!!!!!!!!!!!!!!!!!!!!]]]]]]]]]]]]]]]]]].          .]]]]]]]]]]]]]]]]!!!!!!!!!!!!!!!!!!!!!!!!!!!!!!.                           ",
"                           .!!!!!!!!!!!!!!!!!!!!!!!!!!!!]]]]]]]]]]]]]]///.            .]]]]]]]]]]]]]]]!!!!!!!!!!!!!!!!!!!!!!!!!!!!!^.                           ",
"                           .!!!!!!!!!!!!!!!!!!!!!!!!!!!!]]/]]]]]]]////...              .//]]]]]]]]]]]]!!!!!!!!!!!!!!!!!!!!!!!!!!!!!^.                           ",
"                           .!!!!!!!!!!!!!!!)!!!))!!!!!!!]]]/..////....//.              ....///]]]]]]/]!!!!!!!!!))!!!)!!!!!!!!!!!!!!^.                           ",
"                           .!!!!!^^!!!!!!.))))))))!))!!!]]]]]]....]]///.                ./]....///..]]!!!!!))!)))))))).!!!!!!^^!!!!^.                           ",
"                            .!!^^^!!!!!!.)))))))))))))..]]]]]]]]]]///..                  ..//]]...]]]]!^..))))))))))))).!!!!!!^^^!^.                            ",
"                            .^^^!!!!!!!.)))))))))))))).^//]]]]]/////.                      .///]]]]]//^^^.)))))))))))))).^^!!!!!^^^.                            ",
"                            .!!!!!!^^^.)))))))))))))))...//////////.                        .//////////...))))))))))))))).^^^!!!!!^.                            ",
"                            .!!!^^^....)))))!!)))))))..  .../////..                          ../////...  ..)))))))!!)))))....^^^!!!.                            ",
"                           .!!^^...  .))))))!)))))))).      .....                              .....      .))))))))!)))))).  ...^^!^.                           ",
"                           .^^..     .)))))!!)))))))).                                                    .))))))))!!))))).     ..^^.                           ",
"                          ....      .))))))!))))))))).                                                    .)))))))))!)))))).      ....                          ",
"                                    .))))))!))))!!))).                                                    .)))!!))))!)))))).                                    ",
"                                    .))))))!))))!)))).                                                    .))))!))))!)))))).                                    ",
"                                     .)))).))))!))))).                                                    .)))))!)))).)))).                                     ",
"                                     .))). .)))).)))).                                                    .)))).)))). .))).                                     ",
"                                      .)). .))). .))).                                                    .))). .))). .)).                                      ",
"                                      .)).  .)). .))).                                                    .))). .)).  .)).                                      ",
"                                       .).  .)).  .).                                                      .).  .)).  .).                                       ",
"                                       ..    ..   ..                                                        ..   ..    ..                                       ",
"                                        .    .     .                                                        .     .    .                                        ",
"                                                                                                                                                                ",
"                                                                                                                                                                ",
"                                                                                                                                                                ",
"                                                                                                                                                                ",
"                                                                                                                                                                ",
"                                                                                                                                                                ",
"                                                                                                                                                                "};
