/* XPM */
static char * gimp_temp_218012_xpm[] = {
"96 64 7 1",
" 	c None",
".	c #000000",
"+	c #E04545",
"@	c #BD0404",
"#	c #CB1D1D",
"$	c #9A0303",
"%	c #5E0404",
"                                                                                                ",
"                                                                                                ",
"                                                                                                ",
"                                                                                                ",
"                                                                                                ",
"                                                                                                ",
"                                                                                                ",
"                                                                                                ",
"                                                                                                ",
"                                                                                                ",
"                                                                                                ",
"                                                                                                ",
"                                                                                                ",
"                                                                                                ",
"                                                                                                ",
"                                                                                                ",
"                                                                                                ",
"                                                                                                ",
"            .................                                      .................            ",
"          ..+++++++++++++++++..                                  ..+++++++++++++++++..          ",
"         .++@@@@@@@@@@@@@@@@@+#.                                .++@@@@@@@@@@@@@@@@@+#.         ",
"        .+@@@@@@@@@@@@@@@@@@@@@#.                              .+@@@@@@@@@@@@@@@@@@@@@#.        ",
"       .+@@@@@@@@@@$$@@@@@@@@@@@@.                            .+@@@@@@@@@@$$@@@@@@@@@@@@.       ",
"       .#@@@$$@@@@@$%#@@@@$$@@@@@.                            .#@@@$$@@@@@$%#@@@@$$@@@@@.       ",
"       .@@@@$%#@@@@$%#@@@@$%#@@@@.                            .@@@@$%#@@@@$%#@@@@$%#@@@@.       ",
"      .#@@@@$%#@@@@$%#@@@@$%#@@@@$.                          .#@@@@$%#@@@@$%#@@@@$%#@@@@$.      ",
"      .#@@@@$%#@@@@$%#@@@@$%#@@@@$.                          .#@@@@$%#@@@@$%#@@@@$%#@@@@$.      ",
"      .#@@@@$%#@@@@$%#@@@@$%#@@@@$.                          .#@@@@$%#@@@@$%#@@@@$%#@@@@$.      ",
"      .#@@@@$%#@@@@$%#@@@@$%#@@@@$.                          .#@@@@$%#@@@@$%#@@@@$%#@@@@$.      ",
"      .#@@@@$%#@@@@$%#@@@@$%#@@@@$.                          .#@@@@$%#@@@@$%#@@@@$%#@@@@$.      ",
"      .#@@@@$%#@@@@$%#@@@@$%#@@@@$.                          .#@@@@$%#@@@@$%#@@@@$%#@@@@$.      ",
"      .#@@@@$%#@@@@$%#@@@@$%#@@@@$.                          .#@@@@$%#@@@@$%#@@@@$%#@@@@$.      ",
"      .#@@@@$%#@@@@$%#@@@@$%#@@@@$.                          .#@@@@$%#@@@@$%#@@@@$%#@@@@$.      ",
"      .#@@@@$%#@@@@$%#@@@@$%#@@@@$.                          .#@@@@$%#@@@@$%#@@@@$%#@@@@$.      ",
"      .#@@@@$%#@@@@$%#@@@@$%#@@@@$.                          .#@@@@$%#@@@@$%#@@@@$%#@@@@$.      ",
"      .#@@@@$%#@@@@$%#@@@@$%#@@@@$.                          .#@@@@$%#@@@@$%#@@@@$%#@@@@$.      ",
"      .#@@@@$%#@@@@$%#@@@@$%#@@@@$.                          .#@@@@$%#@@@@$%#@@@@$%#@@@@$.      ",
"      .#@@@@$%#@@@@$%#@@@@$%#@@@@$.                          .#@@@@$%#@@@@$%#@@@@$%#@@@@$.      ",
"      .#@@@@$%#@@@@$%#@@@@$%#@@@@$.                          .#@@@@$%#@@@@$%#@@@@$%#@@@@$.      ",
"  .....#@@@@$%#@@@@$%#@@@@$%#@@@@$.....                  .....#@@@@$%#@@@@$%#@@@@$%#@@@@$.....  ",
" .+++++.@@@@$%#@@@@$%#@@@@$%#@@@@.+++++.                .+++++.@@@@$%#@@@@$%#@@@@$%#@@@@.+++++. ",
".+@@@@@@.@@@$%#@@@@$%#@@@@$%#@@@.+@@@@@@.              .+@@@@@@.@@@$%#@@@@$%#@@@@$%#@@@.+@@@@@@.",
".#@@@@@$.@@@$%#@@@@$%#@@@@$%#@@@.#@@@@@$.              .#@@@@@$.@@@$%#@@@@$%#@@@@$%#@@@.#@@@@@$.",
".#@@@@@$.@@@$%#@@@@$%#@@@@$%#@@@.#@@@@@$.              .#@@@@@$.@@@$%#@@@@$%#@@@@$%#@@@.#@@@@@$.",
".#@@@@@$.@@@$%#@@@@$%#@@@@$%#@@@.#@@@@@$.              .#@@@@@$.@@@$%#@@@@$%#@@@@$%#@@@.#@@@@@$.",
".#@@@@@$.@@@$%#@@@@$%#@@@@$%#@@@.#@@@@@$.              .#@@@@@$.@@@$%#@@@@$%#@@@@$%#@@@.#@@@@@$.",
".#@@@@@$.@@@$%#@@@@$%#@@@@$%#@@@.#@@@@@$.              .#@@@@@$.@@@$%#@@@@$%#@@@@$%#@@@.#@@@@@$.",
".#@@@@@$.........................#@@@@@$.              .#@@@@@$.........................#@@@@@$.",
".#@@@@@$.@@@@@@@@@@@@@@@@@@@@@@@.#@@@@@$.              .#@@@@@$.@@@@@@@@@@@@@@@@@@@@@@@.#@@@@@$.",
".#@@@@@$.$$$$$$$$$$$$$$$$$$$$$$$.#@@@@@$.              .#@@@@@$.$$$$$$$$$$$$$$$$$$$$$$$.#@@@@@$.",
".#@@@@@$.$$$$$$$$$$$$$$$$$$$$$$$.#@@@@@$.              .#@@@@@$.$$$$$$$$$$$$$$$$$$$$$$$.#@@@@@$.",
".#@@@@@$.$$$$$$$$$$$$$$$$$$$$$$$.#@@@@@$.              .#@@@@@$.$$$$$$$$$$$$$$$$$$$$$$$.#@@@@@$.",
".#@@@@@$.$$$$$$$$$$$$$$$$$$$$$$$.#@@@@@$.              .#@@@@@$.$$$$$$$$$$$$$$$$$$$$$$$.#@@@@@$.",
".#@@@@@$.$$$$$$$$$$$$$$$$$$$$$$$.#@@@@@$.              .#@@@@@$.$$$$$$$$$$$$$$$$$$$$$$$.#@@@@@$.",
".#@@@@@$.%%%%%%%%%%%%%%%%%%%%%%%.#@@@@@$.              .#@@@@@$.%%%%%%%%%%%%%%%%%%%%%%%.#@@@@@$.",
".#@@@@@$.........................#@@@@@$.              .#@@@@@$.........................#@@@@@$.",
".#@@@@@$.........................#@@@@@$.              .#@@@@@$.........................#@@@@@$.",
".#@@@@@$.........................#@@@@@$.              .#@@@@@$.........................#@@@@@$.",
".#@@@@@$.........................#@@@@@$.              .#@@@@@$.........................#@@@@@$.",
".#@@@@@$.........................#@@@@@$.              .#@@@@@$.........................#@@@@@$.",
".#@@@@@$.........................#@@@@@$.              .#@@@@@$.........................#@@@@@$.",
".#@@@@@$.........................#@@@@@$.              .#@@@@@$.........................#@@@@@$.",
".#@@@@@$.........................#@@@@@$.              .#@@@@@$.........................#@@@@@$.",
".........                       .........              .........                       ........."};
