/* XPM */
static char * gimp_temp_35946_xpm[] = {
"96 288 55 1",
" 	c None",
".	c #C3BFD7",
"+	c #8E87B2",
"@	c #AFAACA",
"#	c #6E669A",
"$	c #ECEBF3",
"%	c #403674",
"&	c #877FAD",
"*	c #443A78",
"=	c #1B143E",
"-	c #645B92",
";	c #281E5B",
">	c #120D29",
",	c #2F2565",
"'	c #000000",
")	c #05030B",
"!	c #020105",
"~	c #010103",
"{	c #030208",
"]	c #0E0A20",
"^	c #090614",
"/	c #07050F",
"(	c #0B0819",
"_	c #1D1642",
":	c #151030",
"<	c #0F0B23",
"[	c #161032",
"}	c #332868",
"|	c #251C54",
"1	c #59508A",
"2	c #3E3472",
"3	c #4E4581",
"4	c #625991",
"5	c #A6A0C3",
"6	c #766EA0",
"7	c #000001",
"8	c #010002",
"9	c #040309",
"0	c #010104",
"a	c #06040E",
"b	c #020206",
"c	c #0C091C",
"d	c #05040C",
"e	c #110C26",
"f	c #070511",
"g	c #090715",
"h	c #1A143C",
"i	c #0B081A",
"j	c #1F1848",
"k	c #2D2363",
"l	c #140F2D",
"m	c #382E6D",
"n	c #171236",
"o	c #020104",
"p	c #080612",
"                                                                                                ",
"                                                                                                ",
"                                                                                                ",
"                                                                                                ",
"                                                                                                ",
"                                                                                                ",
"                                                                                                ",
"                                                                                                ",
"                               .                                +                               ",
"                             ..@                                @++                             ",
"                           ..@@@                                @@@++                           ",
"                         ..@@@@@                                @@@@@++                         ",
"                       ..@@@@@@#                                $@@@@@@++                       ",
"                     ..@@@@@@##%                                &$$@@@@@@++                     ",
"                   ..@@@@@@##%%@                                @&&$$@@@@@@++                   ",
"                 ..@@@@@@##%%@@@                                @@@&&$$@@@@@@++                 ",
"                .$$@@@@@@++@@@@@               +#               @@@@@..@@@@@@##%                ",
"                *&&$$@@@@@@++@@@             ..@@++             @@@..@@@@@@##%%=                ",
"                *--&&$$@@@@@@++@           ..@@@@@@++           @..@@@@@@##%%;;=                ",
"                *----&&$$@@@@@@+         ..@@@@@@@@@@++         .@@@@@@##%%;;;;=                ",
"                *------&&$$@@@@@       ..@@@@@@#$@@@@@@++       @@@@@##%%;;;;;;=                ",
"                *--------&&$$@@@     ..@@@@@@##%&$$@@@@@@++     @@@##%%;;;;;;;;=                ",
"                *----------&&$$@   ..@@@@@@##%%@@&&$$@@@@@@++   @##%%;;;;;;;;;;=                ",
"                *---***------&&$ ..@@@@@@##%%@@@@@@&&$$@@@@@@++ #%%;;;;;;>>,;;;=                ",
"                *---*;-**------&.@@@@@@##%%@@@@@@@@@@&&$$@@@@@@+%;;;;;;>>;,,;;;=                ",
"                *---*;---**-----@@@@@##%%@@@@@@@@@@@@@@&&$$@@@@@;;;;;>>;;;,,;;;=                ",
"                *---*;-----**---@@@##%%@@@@@@@@@@@@@@@@@@&&$$@@@;;;>>;;;;;,,;;;=                ",
"                *---*;-------**-@##%%@@@@@@@@@@@@@@@@@@@@@@&&$$@;>>;;;;;;;,,;;;=                ",
"                *---*;---------*#%%@@@@@@@@@@@@@@@@@@@@@@@@@@&&$>;;;;;;;;;,,;;;=                ",
"                *---*;----------%@@@@@@@@@@@@@@@@@@@@@@@@@@@@@@&;;;;;;;;;;,,;;;=                ",
"                *---*;----------@@@@@@@@@@@@@@@@@@@@@@@@@@@@@@@@;;;;;;;;;;,,;;;=                ",
"                *---*;----------@@@@@@@@@@@@@@@@@@@@@@@@@@@@@@@@;;;;;;;;;;,,;;;=                ",
"                *---*;----------@@@@@@@@@@@@@@@@@@@@@@@@@@@@@@@@;;;;;;;;;;,,;;;=                ",
"                *---*;----------@@@@@@@@@@@@@@@@@@@@@@@@@@@@@@@@;;;;;;;;;;,,;;;=                ",
"                *---*;----------@@@@@@@@@@@@@@@@@@@@@@@@@@@@@@@@;;;;;;;;;;,,;;;=                ",
"                *---*;----------+@@@@@@@@@@@@@@@@@@@@@@@@@@@@@@.;;;;;;;;;;,,;;;=                ",
"                *---*;----------@++@@@@@@@@@@@@@@@@@@@@@@@@@@..@;;;;;;;;;;,,;;;=                ",
"                *---*;----------@@@++@@@@@@@@@@@@@@@@@@@@@@..@@@;;;;;;;;;;,,;;;=                ",
"                *---*;----------@@@@@++@@@@@@@@@@@@@@@@@@..@@@@@;;;;;;;;;;,,;;;=                ",
"                *---*;----------$@@@@@@++@@@@@@@@@@@@@@..@@@@@@#;;;;;;;;;;,,;;;=                ",
"                *---*;----------&$$@@@@@@++@@@@@@@@@@..@@@@@@##%;;;;;;;;;;,,;;;=                ",
"                *---*;-----------&&$$@@@@@@++@@@@@@..@@@@@@##%%;;;;;;;;;;;,,;;;=                ",
"                *---*;-------------&&$$@@@@@@++@@..@@@@@@##%%;;;;;;;;;;;;;,,;;;=                ",
"                *---*;---------------&&$$@@@@@@+.@@@@@@##%%;;;;;;;;;;;;;;;,,;;;=                ",
"                *---*;----------*------&&$$@@@@@@@@@@##%%;;;;;;>;;;;;;;;;;,,;;;=                ",
"                *---*;-----------**------&&$$@@@@@@##%%;;;;;;>>;;;;;;;;;;;,,;;;=                ",
"                *----&&@-----------**------&&$$@@##%%;;;;;;>>;;;;;;;;;;;%%%;;;;=                ",
"                *------&&@-----------**------&&$#%%;;;;;;>>;;;;;;;;;;;%%%;;;;;;>                ",
"                 **------&&@-----------**------*,;;;;;;>>;;;;;;;;;;;%%%;;;;;;>>                 ",
"                   **------&&@-----------**----*,;;;;>>;;;;;;;;;;;%%%;;;;;;>>                   ",
"                     **------&&@-----------*---*,;;;>;;;;;;;;;;;%%%;;;;;;>>                     ",
"                       **------&-----------*---*,;;;=;;;;;;;;;;;%;;;;;;>>                       ",
"                         **----------------*---*,;;;=;;;;;;;;;;;;;;;;>>                         ",
"                           **--------------*---*,;;;=;;;;;;;;;;;;;;>>                           ",
"                             **------------*---*,;;;=;;;;;;;;;;;;>>                             ",
"                               *-----------*---*,;;;=;;;;;;;;;;;>                               ",
"                                -----------*---*,;;;=;;;;;;;;;;;                                ",
"                                -----------*---*,;;;=;;;;;;;;;;;                                ",
"                                -----------*---*,;;;=;;;;;;;;;;;                                ",
"                                -----------*---*,;;;=;;;;;;;;;;;                                ",
"                                -----------*---*,;;;=;;;;;;;;;;;                                ",
"                                -----------*---*,;;;=;;;;;;;;;;;                                ",
"                                -----------*---*,;;;=;;;;;;;;;;;                                ",
"                                -----------*---*,;;;=;;;;;;;;;;;                                ",
"                                -----------*---*,;;;=;;;;;;;;;;;                                ",
"                                -----------*---*,;;;=;;;;;;;;;;;                                ",
"                                -----------*---*,;;;=;;;;;;;;;;;                                ",
"                                &@---------*---*,;;;=;;;;;;;;;%%                                ",
"                                -&&@-------*---*,;;;=;;;;;;;%%%;                                ",
"                                ---&&@-----*---*,;;;=;;;;;%%%;;;                                ",
"                                -----&&@---*---*,;;;=;;;%%%;;;;;                                ",
"                                *------&&@-*---*,;;;=;%%%;;;;;;>                                ",
"                                 **------&&*---*,;;;=%%;;;;;;>>                                 ",
"                                   **----------*,;;;;;;;;;;>>                                   ",
"                                     **--------*,;;;;;;;;>>                                     ",
"                                       **------*,;;;;;;>>                                       ",
"                                         **----*,;;;;>>                                         ",
"                                           **--*,;;>>                                           ",
"                                             ***,>>                                             ",
"                                               ,>                                               ",
"                                                                                                ",
"                                                                                                ",
"                                                                                                ",
"                                                                                                ",
"                                                                                                ",
"                                                                                                ",
"                                                                                                ",
"                                                                                                ",
"                                                                                                ",
"                                                                                                ",
"                                                                                                ",
"                                                                                                ",
"                                                                                                ",
"                                                                                                ",
"                                                                                                ",
"                                                                                                ",
"                                               ''                                               ",
"                                             ''  ''                                             ",
"                                           )!      ~{                                           ",
"                                         ]^          /(                                         ",
"                                       _:              <[                                       ",
"                                     }|                  _|                                     ",
"                                   1*                      ,2                                   ",
"                                 &#                          34                                 ",
"                                5                              6                                ",
"                                                                                                ",
"                                                                                                ",
"                                                                                                ",
"                                                                                                ",
"                                                                                                ",
"                                                                                                ",
"                                                                                                ",
"                                               ''                                               ",
"                                             ''  ''                                             ",
"                                           ''      ''                                           ",
"                                         ''          ''                                         ",
"                                       ''              ''                                       ",
"                                     ''                  ''                                     ",
"                                   ''                      ''                                   ",
"                                 ''                          ''                                 ",
"               5               ''                              ''               6               ",
"             #&              ''                                  ''              43             ",
"           *1              ''                                      ''              2,           ",
"         |}              ''                                          ''              |_         ",
"       :_              ''                                              ''              [<       ",
"     ^]              ''                                                  ''              (/     ",
"   !)              ''                                                      ''              {~   ",
" ''              ''                                                          ''              '' ",
"'               '                             ''''                             '               '",
"'               '                           ''@@@@''                           '               '",
"'               '                         ''@@@@@@@@''                         '               '",
"7               '                       ''@@@@#%$$@@@@''                       '               '",
"!               '                     ''@@@@#%%@@&$$@@@@''                     '               8",
"9               '                   ''@@@@#%%@@@@@@&$$@@@@''                   '               0",
"a               '                 ''@@@@#%%@@@@@@@@@@&$$@@@@''                 '               b",
"^               '               ''@@@@#%%@@@@@@@@@@@@@@&$$@@@@''               '               9",
"c               '               '$@@@@++@@@@@@@@@@@@@@@@..@@@@#'               '               d",
"e               '               '-$$@@@@++@@@@@@@@@@@@..@@@@##;'               '               f",
":               '               '---$$@@@@++@@@@@@@@..@@@@##;;;'               '               g",
"h               '               '-----$$@@@@++@@@@..@@@@##;;;;;'               '               i",
"j               '               '-------$$@@@@++..@@@@##;;;;;;;'               '               ]",
"|               '               '--;**----$$@@@@@@@@##;;;;>>,;;'               '               e",
"k               '               '--;--**----$$@@@@##;;;;>>;;,;;'               '               l",
"m               '               '--;----**----$$##;;;;>>;;;;,;;'               '               n",
"m               '               '--;------**---**;;;>>;;;;;;,;;'               '               n",
"k               '               '--;--------*--**;;>;;;;;;;;,;;'               '               l",
"|               '               '--;--------*--**;;=;;;;;;;;,;;'               '               e",
"j               '               '--;--------*--**;;=;;;;;;;;,;;'               '               ]",
"h               '               '--;--------*--**;;=;;;;;;;;,;;'               '               i",
":               '               '--;--------*--**;;=;;;;;;;;,;;'               '               g",
"e               '               '--;--------*--**;;=;;;;;;;;,;;'               '               f",
"c               '               '---&@------*--**;;=;;;;;;%%;;;'               '               d",
"^               '               ''----&@----*--**;;=;;;;%%;;;;''               '               9",
"a               '                 ''----&@--*--**;;=;;%%;;;;''                 '               b",
"9               '                   ''----&@*--**;;=%%;;;;''                   '               0",
"!               '                     ''-------**;;;;;;;''                     '               8",
"7               '                       ''-----**;;;;;''                       '               '",
"'               '                         ''---**;;;''                         '               '",
"'               '                           ''-**;''                           '               '",
"'               '                             ''''                             '               '",
" ''              ''                                                          ''              '' ",
"   7!              ''                                                      ''              7'   ",
"     9a              ''                                                  ''              o8     ",
"       ^c              ''                                              ''              {b       ",
"         e:              ''                                          ''              a)         ",
"           hj              ''                                      ''              gp           ",
"             |k              ''                                  ''              ]i             ",
"               m               ''                              ''               <               ",
"                                 ''                          ''                                 ",
"                                   ''                      ''                                   ",
"                                     ''                  ''                                     ",
"                                       ''              ''                                       ",
"                                         ''          ''                                         ",
"                                           ''      ''                                           ",
"                                             ''  ''                                             ",
"                                               ''                                               ",
"                                                                                                ",
"                                                                                                ",
"                                                                                                ",
"                                                                                                ",
"                                                                                                ",
"                                                                                                ",
"                                                                                                ",
"                                m                              <                                ",
"                                 k|                          i]                                 ",
"                                   jh                      pg                                   ",
"                                     :e                  )a                                     ",
"                                       c^              b{                                       ",
"                                         a9          8o                                         ",
"                                           !7      '7                                           ",
"                                             ''  ''                                             ",
"                                               ''                                               ",
"                                                                                                ",
"                                                                                                ",
"                                                                                                ",
"                                                                                                ",
"                                                                                                ",
"                                                                                                ",
"                                                                                                ",
"                                                                                                ",
"                               .                                +                               ",
"                             ..@                                @++                             ",
"                           ..@@@                                @@@++                           ",
"                         ..@@@@@                                @@@@@++                         ",
"                       ..@@@@@@#                                $@@@@@@++                       ",
"                     ..@@@@@@##%                                &$$@@@@@@++                     ",
"                   ..@@@@@@##%%@                                @&&$$@@@@@@++                   ",
"                 ..@@@@@@##%%@@@                                @@@&&$$@@@@@@++                 ",
"                .$$@@@@@@++@@@@@               +#               @@@@@..@@@@@@##%                ",
"                *&&$$@@@@@@++@@@             ..@@++             @@@..@@@@@@##%%=                ",
"                *--&&$$@@@@@@++@           ..@@@@@@++           @..@@@@@@##%%;;=                ",
"                *----&&$$@@@@@@+         ..@@@@@@@@@@++         .@@@@@@##%%;;;;=                ",
"                *------&&$$@@@@@       ..@@@@@@#$@@@@@@++       @@@@@##%%;;;;;;=                ",
"                *--------&&$$@@@     ..@@@@@@##%&$$@@@@@@++     @@@##%%;;;;;;;;=                ",
"                *----------&&$$@   ..@@@@@@##%%@@&&$$@@@@@@++   @##%%;;;;;;;;;;=                ",
"                *---***------&&$ ..@@@@@@##%%@@@@@@&&$$@@@@@@++ #%%;;;;;;>>,;;;=                ",
"                *---*;-**------&.@@@@@@##%%@@@@@@@@@@&&$$@@@@@@+%;;;;;;>>;,,;;;=                ",
"                *---*;---**-----@@@@@##%%@@@@@@#$@@@@@@&&$$@@@@@;;;;;>>;;;,,;;;=                ",
"                *---*;-----**---@@@##%%@@@@@@##%&$$@@@@@@&&$$@@@;;;>>;;;;;,,;;;=                ",
"                *---*;-------**-@##%%@@@@@@##%%@@&&$$@@@@@@&&$$@;>>;;;;;;;,,;;;=                ",
"                *---*;---------*#%%@@@@@@##%%@@@@@@&&$$@@@@@@&&$>;;;;;;;;;,,;;;=                ",
"                *---*;---***----%@@@@@@##%%@@@@@@@@@@&&$$@@@@@@&;;;;>>,;;;,,;;;=                ",
"                *---*;---*;-**--@@@@@##%%@@@@@@#$@@@@@@&&$$@@@@@;;>>;,,;;;,,;;;=                ",
"                *---*;---*;---**@@@##%%@@@@@@##%&$$@@@@@@&&$$@@@>>;;;,,;;;,,;;;=                ",
"                *---*;---*;-----@##%%@@@@@@##%%@@&&$$@@@@@@&&$$@;;;;;,,;;;,,;;;=                ",
"                *---*;---*;-----@++@@@@@@##%%@@@@@@&&$$@@@@@@..@;;;;;,,;;;,,;;;=                ",
"                *---*;---*;-----@@@++@@@@++@@@@@@@@@@..@@@@..@@@;;;;;,,;;;,,;;;=                ",
"                *---*;---*;---**+@@@@++@@@@++@@@@@@..@@@@..@@@@.>,;;;,,;;;,,;;;=                ",
"                *---*;---*;---*;@++@@@@++@@@@++@@..@@@@..@@@@..@,,;;;,,;;;,,;;;=                ",
"                *---*;---*;---*;@@@++@@@@++@@@@+.@@@@..@@@@..@@@,,;;;,,;;;,,;;;=                ",
"                *---*;---*;---*;@@@@@++@@@@++@@@@@@..@@@@..@@@@@,,;;;,,;;;,,;;;=                ",
"                *---*;---*;---*;$@@@@@@++@@@@++@@..@@@@..@@@@@@#,,;;;,,;;;,,;;;=                ",
"                *---*;---*;---*;&$$@@@@@@++@@@@+.@@@@..@@@@@@##%,,;;;,,;;;,,;;;=                ",
"                *---*;---*;---*;-&&$$@@@@@@++@@@@@@..@@@@@@##%%;,,;;;,,;;;,,;;;=                ",
"                *---*;---*;----&---&&$$@@@@@@++@@..@@@@@@##%%;;;%;;;;,,;;;,,;;;=                ",
"                *---*;---*;----------&&$$@@@@@@+.@@@@@@##%%;;;;;;;;;;,,;;;,,;;;=                ",
"                *---*;----&&@---*------&&$$@@@@@@@@@@##%%;;;;;;>;;;%%%;;;;,,;;;=                ",
"                *---*;------&&@--**------&&$$@@@@@@##%%;;;;;;>>;;%%%;;;;;;,,;;;=                ",
"                *----&&@------&&---**------&&$$@@##%%;;;;;;>>;;;%%;;;;;;%%%;;;;=                ",
"                *------&&@-----------**------&&$#%%;;;;;;>>;;;;;;;;;;;%%%;;;;;;>                ",
"                 **------&&@----**-----**------*,;;;;;;>>;;;;;>>;;;;%%%;;;;;;>>                 ",
"                   **------&&@----**-----**----*,;;;;>>;;;;;>>;;;;%%%;;;;;;>>                   ",
"                     **------&&@----**-----*---*,;;;>;;;;;>>;;;;%%%;;;;;;>>                     ",
"                       **------&*-----**---*---*,;;;=;;;>>;;;;;>%;;;;;;>>                       ",
"                         **------**-----*--*---*,;;;=;;>;;;;;>>;;;;;;>>                         ",
"                           **------**---*--*---*,;;;=;;=;;;>>;;;;;;>>                           ",
"                             **------*--*--*---*,;;;=;;=;;>;;;;;;>>                             ",
"                               *-----*--*--*---*,;;;=;;=;;=;;;;;>                               ",
"                                -----*--*--*---*,;;;=;;=;;=;;;;;                                ",
"                                -----*--*--*---*,;;;=;;=;;=;;;;;                                ",
"                                &@---*--*--*---*,;;;=;;=;;=;;;%%                                ",
"                                -&&@-*--*--*---*,;;;=;;=;;=;%%%;                                ",
"                                ---&&*--*--*---*,;;;=;;=;;=%%;;;                                ",
"                                --------*--*---*,;;;=;;=;;;;;;;;                                ",
"                                @-------*--*---*,;;;=;;=;;;;;;;%                                ",
"                                &&@-----*--*---*,;;;=;;=;;;;;%%%                                ",
"                                --&&@---*--*---*,;;;=;;=;;;%%%;;                                ",
"                                ----&&@-*--*---*,;;;=;;=;%%%;;;;                                ",
"                                ------&&*--*---*,;;;=;;=%%;;;;;;                                ",
"                                &@---------*---*,;;;=;;;;;;;;;%%                                ",
"                                -&&@-------*---*,;;;=;;;;;;;%%%;                                ",
"                                ---&&@-----*---*,;;;=;;;;;%%%;;;                                ",
"                                -----&&@---*---*,;;;=;;;%%%;;;;;                                ",
"                                *------&&@-*---*,;;;=;%%%;;;;;;>                                ",
"                                 **------&&*---*,;;;=%%;;;;;;>>                                 ",
"                                   **----------*,;;;;;;;;;;>>                                   ",
"                                     **--------*,;;;;;;;;>>                                     ",
"                                       **------*,;;;;;;>>                                       ",
"                                         **----*,;;;;>>                                         ",
"                                           **--*,;;>>                                           ",
"                                             ***,>>                                             ",
"                                               ,>                                               ",
"                                                                                                ",
"                                                                                                ",
"                                                                                                ",
"                                                                                                ",
"                                                                                                ",
"                                                                                                ",
"                                                                                                ",
"                                                                                                ",
"                                                                                                ",
"                                                                                                ",
"                                                                                                ",
"                                                                                                ",
"                                                                                                ",
"                                                                                                ",
"                                                                                                ",
"                                                                                                "};
