/* XPM */
static char * vfeuer2_xpm[] = {
"128 128 4 1",
" 	c None",
".	c #FFBF00",
"+	c #FFD968",
"@	c #FFFFFF",
"                                                                                                                                ",
"                                                                                                                                ",
"                                                                                                                                ",
"                                                                     .   .                                                      ",
"                                                                     . . . .                                                    ",
"                                                                     ........     .                                             ",
"                                                                       . .. ++..                                                ",
"                                                                        ..+.+++...                                              ",
"                                                                       .  +++++.+                                               ",
"                                                                         + ++++..+..                                            ",
"                                                                         ++++++++.+                                             ",
"                                                                          ..+++++..                                             ",
"                                                                         ..+.++++++ .                                           ",
"                                                                          ...++++++..                                           ",
"                                                                           ....+++...                                           ",
"                                                                          .. ....+..                                            ",
"                                                                           ....++.+ .                                           ",
"                                                                           . .++++..                                            ",
"                                                                            ..++++  .                                           ",
"                                                                            .++++++                                             ",
"                                                                         .  .+.++++                                             ",
"                                                                        ..  ..++++                                              ",
"                                                                           ...+++++                                             ",
"                                                                          .. ..++ +++                                           ",
"                                                                             +.+++++                                            ",
"                                                                           .+..+@++...                                          ",
"                                                                            +..@.++++                                           ",
"                                                                            ++++.@..+                                           ",
"                                                                            +++@+@@.                                            ",
"                                                                             @+@+..                                             ",
"                                                                            +++@@@@..                                           ",
"                                                                            +@+@@@. ..                                          ",
"                                                                             ++@@@..+.                                          ",
"                                                                            .@.@@+++...                                         ",
"                                                                            +.@@@@@+...                                         ",
"                                                                            ...+@++++.                                          ",
"                                                                           ..@.@@+@++.                                          ",
"                                                                           ..++++@+....                                         ",
"                                                                        .....++@+......                                         ",
"                                                     +    .          .  .....++++++...                                          ",
"                                                 ...+++. .             .....+++++.....                                          ",
"                         .                        ...++++     ..    . .......++++++. .                                          ",
"                         .            ..         . ...++.+  ... .  +.......+...++....                                           ",
"             .   + + . .... .       . ...  .   + . ...++++.  .+..++++++++....+.++...                                            ",
"             . +  ++   .......... .. .... .     . .......+....+.++.+.+++++..+..+.+...                                           ",
"           ....++++++..++.......@.@.+..........+....+....@...@+@@+++@+@+++++++++..                                              ",
"          .......+++++..++.@.@.@@@@....++++++.+++....+....@@@@@++@@+@@+++++++++.. .                                             ",
"         . ..+++.+++++++++++@@@@@@@++++++++++++....+.+.++.@@@@@@@@+@@@+++++++.+...                                              ",
"          .+.++++++++++++++@@@@@@@@@+++++++++++.+...+...+.@@@@@@@@@@@@@++++++++...                                              ",
"          ..+++.++..+. + .@.@.@@@@+@@++++++.++.......++++@+@@@@@@.@@..+.++++..+.... .                                           ",
"        . .++.++...+..++.+..@@...@@@++.++++++++....+.+++++@++++@+....@.....+.......                                             ",
"       ...+++  .......  . ... ...+.++..+..+.+.++......+++++.++++..+............... .  .                                         ",
"       . ......... .  .. .    ....+..+..+.++.++.......+.+.+.++.+++..++...+...... .... .                                         ",
"       ......       ....      . ..... . .....+++...++++... .......+  ..++..+..+  .... .                                         ",
"      .....                     .. ..   ......+.+..+++...........+    +++..++++.+. ....                                         ",
"      .. .                               ......+.+.+.....   ....      ++...+++++.@...                                           ",
"       ..                               .....++.+..+.+       .  .      + ..++@++@@..                                            ",
"                                           ..++@+.... .                  + .+@+@@@@                                             ",
"                                          .....+@@+.                   .  ..++@@@@..                                            ",
"                                           ..@.@@....                      ++++@@@.                                             ",
"                                            ..@@@@@.                      ...+@@@@@                                             ",
"                                            . @@@@...                     ...@@+@@@                                             ",
"                                            .. @@...                     .....+++                                               ",
"                                           ...@@@....                    ....@+@+                                               ",
"                                             . @@@...                     ....@+@ @                                             ",
"                                           ....@@@....                    ....@@@ @                                             ",
"                                             .@@@@. ...                   ...@.++@                                              ",
"                                            ..@@@@+.                     .....++@@@ .                                           ",
"                                             ..@@@+....                 ....++++@@..                                            ",
"                                            .+@++@+.++..               .....+++++@.                                             ",
"                                          ..++++@++..+.                 ....+++.+... .                                          ",
"                                           .++++++.+.++..                ....++++......    ..                                   ",
"                                            +++++++++++...             ......+++........  .... .                                ",
"                                            +++++++.++...  .           .......++....... .  ...++ ... ..                         ",
"                                            .++++++++.......           ......+.....++...  ........... .                 .       ",
"                                             +.+.+...........   .   . ..++..........++.   ....+++......    . . ..     ..        ",
"                                           . .......+..+.....@  .... ..+.+++......++++.......+++++.....   .. . .  ......        ",
"                                           ...++...+++.++..@@.@@ ...+.++++++.....++++++. ..+++++++... .   ..........  ..        ",
"                                            .....+.+..++++@@@..@@@...++.+++......++++++.++.++@@+@@@.+. .............            ",
"                                          ....++..++...++@@+..+@+++@+@+@+++......+.++++...++@@@@@@+@+..+..+..+..... .           ",
"                                           ..+++......+..@++++@++++@@+@@@..+.....++++++@@@@@@@@@@@+.+..++.++++++... .           ",
"                                            ..+.+.........+++++++++.@@@@.@.   ....++...@+@+@@@.@.@..++++++..+.++.....           ",
"                                           .............+..+++++++..@@... .    ...++.@...+++....@..@.++++.++......              ",
"                                         . ....+..... ... ..++++.... ..  ..     .. ....+..++....  ..++..........  .             ",
"                                          . ...++..... .    ..+...+... ....   ..  .....++.+.. .   ...+..+....  .                ",
"                                          ....++++...       .... ...     ..       .     .....     ...... ..                     ",
"                                            ..++++...         ..                 ..  .   . ..              .                    ",
"                                           ...+++....                                                                           ",
"                                           ..++++....                                                                           ",
"                                           ++..+++..  .                                                                         ",
"                                          ..+++++.. .                                                                           ",
"                                            .+@@@+. .                                                                           ",
"                                           ++++++....                                                                           ",
"                                            +@@@@.. .                                                                           ",
"                                           + +@@@@@.. .                                                                         ",
"                                             @@@@....                                                                           ",
"                                          .+.@+@@.......                                                                        ",
"                                           .+@@@@.+...                                                                          ",
"                                         ...++@@@+....                                                                          ",
"                                         ..+.@@@+......                                                                         ",
"                                           .+@@@@.....                                                                          ",
"                                          .. @@@++.....                                                                         ",
"                                         .  @+@+++..                                                                            ",
"                                        ..  @++++.+.                                                                            ",
"                                       . ..+@@@++++.                                                                            ",
"                                        ..++@@++++..                                                                            ",
"                                        .++++@@+++....                                                                          ",
"                                        .. ++@...+....                                                                          ",
"                                      . ..++.....+++                                                                            ",
"                                       .. ......++++                                                                            ",
"                                            ...++.. +                                                                           ",
"                                            ...++++ .                                                                           ",
"                                            ..+++++.                                                                            ",
"                                           ....+++++                                                                            ",
"                                            ....+.+..                                                                           ",
"                                            ..........                                                                          ",
"                                            .  . ......                                                                         ",
"                                               . .. ....                                                                        ",
"                                                   . .... .                                                                     ",
"                                                    ......                                                                      ",
"                                                     .....                                                                      ",
"                                                      .....                                                                     ",
"                                                       .                                                                        ",
"                                                                                                                                ",
"                                                                                                                                ",
"                                                                                                                                ",
"                                                                                                                                ",
"                                                                                                                                "};
