/* XPM */
static char * vfeuer8_xpm[] = {
"128 128 4 1",
" 	c None",
".	c #FFBF00",
"+	c #FF6D19",
"@	c #FF1919",
"                                                                                                                                ",
"                                                                                                                                ",
"                                                                                                                                ",
"                                                                                     ..  ++                                     ",
"                                                                                          ++                                    ",
"                                                                                      . +   +                                   ",
"                                                                                   . .+  . ..                                   ",
"                                                                                     +++  .                                     ",
"                                                                            +        . ++                                       ",
"                                                                           ..+++     ++                                         ",
"                                                                           . +         +                                        ",
"                                                                           ...++                                                ",
"                                                                           . .+                                                 ",
"                                                                          . .+.                                                 ",
"                                                                           +++                                                  ",
"                                                                              +                                                 ",
"                                                                                                                                ",
"                                                                   @  @          +++                                            ",
"                                                                     @    @@@ @@ + +                                            ",
"                                                                     @@  @ @   @   +                                            ",
"                                                                    ++    @        +                                            ",
"                                                                    +                                                           ",
"                                                                   +                                                            ",
"                                                                       .          +                                             ",
"                                                                     .. .         + +                                           ",
"                                                                    +  +          ..                                            ",
"                                                                 ++ + + +        +.+.                                           ",
"                                                                 .+. + ++       ++                                              ",
"                                                                       ++     ++++                                              ",
"                                                                   . .        +++++                                             ",
"                                                                  ....        ++++                                              ",
"                                                                     .   +   ++.+ +                                             ",
"                                                                               +++                                              ",
"                                                      +     +           ++   . .+                                               ",
"                                                     ++    + +++        +++   @@ +                                              ",
"                                                    ++  +    +.+          +                                                     ",
"                  .                                  +++   .++.   .             @       @                                       ",
"                    .    +              .                   .    . .               .  @ @                                       ",
"                  ..    ++           . ..                           .              .  @@                                        ",
"                  .     +            . ....                              @@ @   +....@@@                                        ",
"                   .                  ..                              .       ++ ...  +++                                       ",
"                                                     +                 @@   ++ +  . ++                                          ",
"                                                          @         .@  @@@   +   .+++ ++                                       ",
"              +         .                       .  +..  @           @@+@ @@        +++                                          ",
"              +++         .                   .... ...               @@      +                                                  ",
"               +++      .. ++              +. +...@  .@ ++       .  + +++..      ..                                             ",
"              @@..        .   +          . .+   .@   @ +++++        @@+     .    ..                                             ",
"         +  @@+ @          + .+..          + + @@      @@ +       .@@.  . ..    .@                                              ",
"     +     +@++.      +        ..         ...@@       @@+ ++   .. .  @@@@@       .                                              ",
"      +.+ ++++       ++            @          @@        + +           . @                                                       ",
"      ..                            @        @          ++     @        @ @  ++  @                                              ",
"        .              @ .       @                 @   + + + @ @                                                                ",
"                     @  @@@       @ @                 ++     +. .            +++                                                ",
"                     @@@@ .@@                       @@++    + +        .. +                                                     ",
"                      @@ @@@@@                 + +   +@ +     .        .  +++                                                   ",
"                         @@@             +                            .    ++                                                   ",
"                            @@          @+ +                         + .    +                                                   ",
"                                       @@@+                           +          .                                              ",
".                                  ..    @    @@@                              ...                                              ",
"..                  ...           .@ + @   @@+@@                         .     ++.                                              ",
"..                   ....+        .@.++ +  @@+@                         ...    ..+                                              ",
"...                 ... .++        @@++   @@@@                               +  +                                               ",
"   ..                    +       @@@ +    @@@@++                       ++      + +                                              ",
"                          .               @   +         ++@           +  ++                                               +     ",
"                                              +         + @ ++         +    +++                                             +   ",
"                                             @  @        @ @@             +++                                            ++.    ",
"                                               @ @           +            + ++                                                  ",
"                                   .        @@@                                                                           .     ",
"                                  ..       @    + +                @@ @ ..                                                 ..   ",
"                                   .            +@        .    +            @    +             ..                         ..    ",
"                                                 +@         .@@ @ +  @ . . @@@@++          ...                           .      ",
"                                               @@ @        .. @@           @ @++@+      + ... .                                 ",
"                                                          @.@  @  ...    + +@@@@@@@  + ++.     .                           .    ",
"                                                +            +  + ...      @+@@@+@ @@  ++++                                     ",
"                                               ++                 .          + ++@@@+   ++++                                    ",
"                                             ++                            +  ++@@@ ++   +++                  @ @               ",
"                                                              @        . .        @+     + +          +                         ",
"                                                                         +++                 . @     +@      +@@   + +  .       ",
"                                                           @             .+             +++  + @+@@..+@+      @      + +  .     ",
"                                                                                        ++.... + .@@@@@ @          +@ .         ",
"                                                                      ++      @@        @.++.    @@@@@@ @@    @    +.  .+       ",
"                                          +  +  @@                     +       @@      @ @        @@@@  @      @   . ..         ",
"                                          +  ++@                      ++                  .        @@@              @           ",
"                                      +     + +  @@                                                                             ",
"                                      ++  + +  @                                   .                                 +          ",
"                                                                                 .               ++  ...            ++          ",
"                                     +  +                                         .                +....             +          ",
"                                                  @@                                                @@..                        ",
"                                                +@@                                                 +...                        ",
"                                                ++  @             .           +                    @ @.                         ",
"                                                +   @     +      .          ++          . .         @@@.                        ",
"                                            .. +          .+.   ++..       +             ..                                     ",
"                                       .   @ .+           ++.      .         +          ..                                      ",
"                                       . ....+.++          ..                             . .                                   ",
"                                         .      +  .      ..                                                                    ",
"                                        ...        .       .                                                                    ",
"                                        ..        .       .                                                                     ",
"                                           +              ..                                                                    ",
"                                           +             .                                                                      ",
"                                             +                                                                                  ",
"                                            ++    @       .                                                                     ",
"                                           ++    @@@    ..                                                                      ",
"                                              +   @@@  .. .                                                                     ",
"                                          .        @ .....                                                                      ",
"                                          . .      @    .                                                                       ",
"                                         @... @        ..                                                                       ",
"                                        .. @. @@             + ++                                                               ",
"                                        ...@   ..             + +                                                               ",
"                                        ...   . .             +++                                                               ",
"                                       ....  ..              ++ +                                                               ",
"                                         ...++@@               +                                                                ",
"                                          ..++        + +                                                                       ",
"                                       ....++ +      ++++                                                                       ",
"                                           ..+        + +                                                                       ",
"                                           +           +                                                                        ",
"                                                      +                                                                         ",
"                                      ...            +                                                                          ",
"                                      .       +      +.                                                                         ",
"                                       .. .    +   ..                                                                           ",
"                                        ..     ++  ..                                                                           ",
"                                        ..            .                                                                         ",
"                                   .                                                                                            ",
"                                   ..                                                                                           ",
"                                                                                                                                ",
"                                                                                                                                ",
"                                                                                                                                ",
"                                                                                                                                ",
"                                                                                                                                "};
