/* XPM */
static char * ivVulkan7_xpm[] = {
"128 32 14 1",
" 	c None",
".	c #FFBF00",
"+	c #FFFFFF",
"@	c #FFD968",
"#	c #FF9532",
"$	c #000000",
"%	c #FF6D19",
"&	c #C11313",
"*	c #8C0E0E",
"=	c #DD381F",
"-	c #C1712A",
";	c #8E4D1F",
">	c #ED893D",
",	c #7C5858",
"        ..++++++++++@@++++..@@++++++++  ++++++....@@@@++@@++++++++++++++++++++@@++++++@@@@          ++++++@@++++++++++@@++@@    ",
"        ..+++++++++++++++++.@++++++++++++++++++....@@+++@@++++++++++++++++++++@@++++++@@@            +++++++++++++++++@@@@@     ",
"        ..++++++++++++++++++++++@@@@@@++@@++++++++..++++@@++@@@@@@++++++++  @@++@@@@                  ..++++++++++++++@@@@      ",
"         ..++++++++++++++++++++@@@@@@@@+@+++++++++...+++@@+++@@@@@++++++++ @@@++@@@                    .++++++++++++++@@@       ",
"          ..++@@..++++++++@@@@@@@@@@@@@@++##..++++....++..++++++$$$+++++++@@@@$                         @@  @@@@@@  ..          ",
"           .++@@..++++++++@@@@@@@@@@@@@@@+##..+++++...+...++++++@@%@++++++@@@@%$                        @@@@@@@@@@  .           ",
"            $$$+++..@@@@....@@@@@@@@....@@@@@@@@++++++..@@%%@@@@@@%%@@@@%%@@..%%$$$     ....            $@@@@@  @@..            ",
"           $$@@@++..@@@@....@@@@@@@@....@@@@@@@@+++++...@@@@@@@@@@@@@@@@%%@@..%%&**$    ....         $$$%@@@@@  @@..            ",
"        $$$*&@@@@@%%@@++++@@..@@@@..@@..@@@@@@@@........++@@@@@@@@@@++++++++++&&****$   ....        $*&%%%@@++++@@..$$$$$       ",
"       $===**&&@@@%%@@@++@@@@@@@@@@@@@..@@@@@@@@........+@@@@@@@@@@@++++++++&&******$   ....        $**&%%@@+++@@@@.&****$      ",
"       $====***&&&&&@@@@@@@@@@@@@@@@++++@@......@@@@++@@@@@@@@@@++++@@@@&&&&****&&***$  ....        $***&&&&&&@@@@@@&***=$      ",
"       $=======*****&&&&&@@@@@@@@@@@+++++@......@@@@@@@@@@@@@@@@++++@&&&*****&&&&&&**$   ..         $*********&@@@&&***==$      ",
"       $==========*******&&&&&&&&&&&&&&&++++++++@@@@@@@@++++++@@&&&&&*****====&&&&&&*$              $&&&&&&&&**&&&**=====$      ",
"       $&&&=========&&&&****************&&&&++++@@@@@@@@++&&&&&&*******======&&&&&&&*$              $&&&&&&&&&*****======$      ",
"      $&&&&&======&&&&&&==========&&&*******&&&&&&&&&&&&&&*******=&&&&======&&&&&&&&**$             $&&&**&&==========&&&$      ",
"      $&&&&&=====&&&&&&&&========&&&&&&&===*****************&&&==&&&&&&=====&&&&&&&&&*$            $&&&***&&=========&&&&$      ",
"      $&&&&&====&&&&&&&&&&====&&&&&&&&======&&========&&&&&&&&&&&&&&&&&&====&&&&&&&&&&$           $&&&**--&&====****&&&&&&$     ",
"      $&&&&&===&&&&&&&&&&&&==&&&&&&&&======&&&========&&&&&&&&&&&&&&&&&&&====&&&&&&&&&$           $&&&**---&===*****&&&&&&$     ",
"     $&&&&&&==&&&&&&&&&&&&&&&&&&&&&&======&&&&========&&&&****&&&&&&&&&&&&====&&&&&&***$          $&&&;;----==**;;----&&&&$     ",
"     $&&&&&&===&&&&&&&&&&&&&&&&&&&&&=======&&&=======&&&&******&&&&&&&&&&&====&&&&&&**;$          $&&&;-----=**;;-----&&&&$     ",
"     $&&&&&&====&&&&&&&&&&&&&&****;;========&&======&&&&**;;--****&&&&&&&&====&&&&&&**;;$         $---------**;;------&&&&*$    ",
"     $-*&&&&&==&&&&&&&&&&&&&&*****;;========&======&&&&&**;;--****&&&&&&&&====&&&&&**;;;$         $----------*;------&&&&&*$    ",
"    $---****&&&&&&****&&&&****;;----&&====&&======&&&&&&**;;--;;--&&&&&&&&****&&&&**;;;;$         $>>>--------------&&&&&&**$   ",
"    $---****&&&&&&*****&&****;;-----&&============&&&&&**;;--------&&&&&&&&**&&&&***;;;;;$        $>>>--------------&&&&&&**$   ",
"    $--->>----&&&&**;;******;;------**============&&&&**;;-->>------&&&&&&&&&&&&****----;;$      $---->>------;;----&&&&&&---$  ",
"   $---->>-----&&***;;******;-------**============&&&**;;------------&&&&&&&&&&&***-----;;;$     $------------------&&&&&&----$ ",
"  $---,,,,,,----****----------------;;========**;;****;;--------------**&&&&&&&&**------;;;;$   $----------->>------**&&**----$ ",
"  $----,,,,------**------------------;=======**;;;****;;---------------*&&&&&&&***-------;;;;$  $----------->>-------*****-----$",
"  $>>>--,,-->>--------------;;-->>----&&====**;;;;---->>----;;----;;----;;&&&&**;;--;;----;;;$  $--->>;;,,,,,,-->>----**;;-----$",
" $-->>---------------------------------&&===**;;;------------------------;&&&***;----------;;;$ $---->;;,,,,,----------*;------$",
"$----->>--------------------------------&&&&**;;----------------------------****------------;;;$$-------,,,,----------------;;-$",
"$----->>---------------------------------&&&**;-----------------------------****------------;;;$$-------,,,,,----------------;-$"};
