/* XPM */
static char * iwBaum_xpm[] = {
"128 128 3 1",
" 	c None",
".	c #F71D1D",
"+	c #CB1FF2",
"                                                                                                                                ",
"              .                                                                                                                 ",
"              ..                                                                                                                ",
"              ..                                                        .                                                       ",
"              .             .                                           .               ..                                      ",
"              .    .      ...                                           ..             ..                                       ",
"              ..  ..      .                         ...                 ...           ...                                       ",
"              .. ..      ..                  ...      .                 ....         ..                                         ",
"              ....       .                     ....   ..                  ...        ..                              ..         ",
"              ..         .                       ....  ..                 ...  ...   ...                           ...          ",
"              ..         .                          ..  .                  ..... .... ..                          ..            ",
"       ..      ..        .                           .....                  ...     ....                         ..             ",
"        .      ..       ..                            .. ..                 ..         ..                       ..              ",
"  ....  .      ..      ....                            .....               ..           ......                 ..           .   ",
"     ....      ...    ..  ...                        ...  ............... ..              ..............    ......          .   ",
"       ..       ..  ...     ...                   ....      ...................             ............. ...    ...      ...   ",
"        ..      ..  ..                    .   .....                      ..   ....                      ...        ........     ",
"         ..     .....                     ......                         .       ..                      ..                     ",
"          ..     ....                         ...                        .        ..                      ....                  ",
"           ..     ..                .           .........               ..         ..                       ...                 ",
"            .    ...                .                   ..              ..     .    .                         ....              ",
"            ..   ...               ..                ......             ..   .........                          ..              ",
"             ..  ...               .               ...    ..           ..    ...     ..  .           ....        .........      ",
"              .. ...              ..            ....       ..         ..    ..        .......      ...  ....                    ",
"               +++..              ..          ....          ..     ....     .               ..    ..       ..                   ",
"            ...++.....             ..      .....             .......        ..                .....         ...                 ",
"    ..   ....+..........            .. .....                                 .                                .                 ",
"     .....      ..      ..           ...                                     .                                                  ",
"                .        ..                                                  .                                                  ",
"               ..        ..                                                                                                     ",
"               .                                                                                                                ",
"                                                                                                                                ",
"                                                    .                                                                           ",
"               .                                    .                 .              .                                          ",
"               .                                   .                 ..           .  .                                          ",
"               .                                   .       ..        ..          .. ..                                          ",
"               ..      .                          ..      ..          .           ...                                           ",
"               ..     ..                   ...    ..      .           .           ..                                 .          ",
"               ..    ..                    ....   ..     ..           .           .                         .        ..         ",
"     .         ..   ..                      .  .......  ..            .           .                        ..         .         ",
"     .          . ...                            ... ....             ...         ..     ...               .          ..        ",
"     .          ...                             ...     ..              .         ..  ....                ..         ..         ",
"     .          ..        ..                    ...      .              .         .....                  ..          ..         ",
"     ..         .        ..                    ..        ..         ......        ...                 ....          ..          ",
"      ..       ..        .                   ....         .        .......        ..                 ...      ..   ..           ",
"      ...      .        ..            ..... ...          ...     ....   ...      ..                 ......  ...   ..    .....   ",
"       ..      .       ..            .........           .... .....      ..    ...            .......    ....    ..    ..  ..   ",
"   ..   .      ..     ..             ..   ...           ..........        .    ..           ........            ...    .    .   ",
"    ..  ..     ..    ..             ..     ..          ... .              ..  ..    ..     ...                  ..     .    .   ",
"     .. ..     ..   ..                      ..        ...                ... ..      .    ..                   ..      .    .   ",
"      .. ..    ..  .......                  ..       ...                 . ....      .  ...                    .      ..        ",
"       .. ..   ..  .     ..                  ..   ....                  .. ....      .....                     .      .         ",
"        .....  ..  .      ..                 ... ....      ..          ..   ..       ....                     ..     ..         ",
"           ... .. ..       .         ..      .......      ..           .    ..       ...                      ..    ..       .  ",
"            ..  . .        ..        ...      ....        .          ...    ..      ....                ....  ..  ...        .  ",
"            ... . .        .          ...     ...        ..        ...      ..     .......             ...... .....         ..  ",
"             .. ...       ..            ...   ...     ........  ....         ..    ...   ....      .....   ......          ..   ",
"              . ..        .               ... .... ...   .  .......          ..    ..       .........       ...........    .    ",
"              ....                          ........     .                   ..   ..                         ................   ",
"              ....                           ......      .                    .  ...                          ...         ..... ",
"              ....                            .....      ..                   .....                           ...          .    ",
"              ....                            ....        .                   .....                           ...          .    ",
"              ....                            ....        ..                  .....                           ....         .    ",
"              ....                            ....         .                  ....         .                  ....         .    ",
"              ....         .                  ....         .                  ....         .                  ....         .    ",
"              ....         .                  ....         .                  ....         .                  ....         .    ",
"                .         ..                  ....         .                  ....        ..                  ....         .    ",
"               ..        ..            ...........         ...               .....     ....                   ...         ..    ",
"               ..       ..            ..     .....        ...                .....        .                  ....        ..     ",
"               ..      ..            ..       .....      ..                  .....        ..           .........         .      ",
"     .    .    ..     ..             .         .....     .                  ......         .           .    ....        ..      ",
"     ..   ..   ..   ...            ...          ......   .                 .......         ..        ...     ..         .       ",
"      .    ..  ..   ..                           .........                 ......     ..   ..        .       ...       ...      ",
"      .     . ...  ...                           .   ....                 .......    ..  . ..      ..        ...     ....       ",
"      ..     .... ...       ...                 .    .....              ...  ....   ..   . ..                ....    ..         ",
"       .      ......      ....                 ..     .....           ....   ....  ..    ....                 ...    .    ..    ",
"       .      ......     ...                   .      .....          ....    ..... .      ..                   ...   .   ..     ",
"       .      .....     ...                    .       .....        ...      .......      ..                     ..  .   .      ",
"   .   ..     ....     ...                     ..      ...............        .....      ..  ..........           ....  ..      ",
" ....   ..    ....   ....                ..     .       ..............        ....       .. ...... .......         ......       ",
"    .... ..   ...    ...               ....     .       ....        ..        ....       . ...         .....       ....         ",
"       .....  ...   ..                ..  ........      ...         ..        ....       ....           .....      ..           ",
"         .... ...   .......           .          ...    ...         ..        ....      ....              ....    ...           ",
"          .......  .........         .             ..  ....          ..       ....     ....                ...    ..            ",
"           ...... ..     ...         .              .. ...           ......   .....   ....                  ...  ...            ",
"     ..     .......      ...         .               .....            .....   .....   ..              ..    ...  ..             ",
"      ..     .....        ..         .               ....                     .....  ....            ...    .... ..             ",
"       ...    ...          .         .               ......                    .... ... ...         ..       .....              ",
"       .....  ...          .         .              ...  .....                 .......    ...     ...        .....      .       ",
"      ..   .. ...   ..     .         .             ...       ............     ........      .......           ....      .       ",
"     ..     .. ..    ..   ..        ......        ....                  ..    .......                         ....      ..  ..  ",
"   ..        ....     .. ...          ...       .....                    ...  ............                    ...        ....   ",
"   .          ...      ....                    ......                      ..........   .                     ...         ..    ",
"              ...       ..                    ......                         ......                           ....         .    ",
"              ....       ...                  .....                          ......                           ....         .    ",
"              ....         .                  .....                          ......                           ....         .    ",
"              ....         .                  ....         .                  ....         .                  ....         .    ",
"              ....         .                  ....         .                  ....         .                  ....        ..    ",
"              ....         .                  ....         ..                 ....        ..                  ....        .     ",
"     ..       ...          .                  ....        ..                  ...         .                   ....       ..     ",
"      .       ...          .            ..    ...    ... ..        .          ...        ..       .  ..       ....       .      ",
"      ..       ..         ..          ...     ...     ....         ..        ....     ....        ..  .       ......     .      ",
"       .       ..        ...          .       ...      ...          ...      ....   ......         . ..       .... ..  ...      ",
"       ..      ....      ..          ..      ...        ...           ..    ....   ...             ...       ...... ....        ",
"        ..    .......   ...          ..      ...         ..            ..   .........               ..       ... ..             ",
"         .    ..... ......           ..     ....          ..            .  ...              .      ..       .... ..             ",
"       .....  .....  ....            ..     ...           ..            .  ...              .     ..       ....  ..             ",
"      .............                  ..    ...            ..            .....               .     .       ...     ..            ",
"     ..    .........       ..        ..   ....            ..             ....              ..     .     ....      ..   ....     ",
"     .        ...  ...    ..          .   ...          ....          .  ....              ..      . .......       ......        ",
"    ..        ...    ..  ..           .....................................              ..............            ..           ",
"    .         ....    .....             ..................................           ...................           ...          ",
"    .          ...     ....            .....    ...                    ....         ... ....           ..         ....          ",
"    .     ..   ...      ...         ......        .                      ...       ..  ...              ...      .. ...         ",
"    .     .    ...       ....       ..            ..                      ......  ...   ..                ..    ..   ..         ",
"    ..   ..    ...        . .      .               ..                      .........    ..                 .    .     ..    .   ",
"     .....     ...          .     ..                ..             ..          ..       .                 ..           ..  .    ",
"               ....               .                ....             ....               ..                 ...              .    ",
"              .....              ..             ....  ..              ...             ..                  ....      .     ..    ",
"              .  ....            .           ....      ....             ..           ...                ... ..     ..     .     ",
"              .     ..           .        ....            ....    .....  ......   ....                ...    ..    .      .     ",
"             ..      ..          .      ...                  ......   .   ...........         .........      ...  ..     ..     ",
"            ..        .....      .     ..                             ...                                     ... .      ....   ",
"           ..            ..      .      ....      .                     ........                                ...  .......    ",
"                          ..               ........                        ..  .                                  .... ...      ",
"                                                                                                                                ",
"                                                                                                                                ",
"                                                                                                                                "};
