/* XPM */
static char * jhDrachensteigen_xpm[] = {
"128 128 12 1",
" 	c None",
".	c #FF0000",
"+	c #FFAA00",
"@	c #FFA900",
"#	c #FEA900",
"$	c #FFFFFF",
"%	c #000000",
"&	c #FEAA00",
"*	c #00CE3D",
"=	c #0033FF",
"-	c #FFEE00",
";	c #DD0097",
"         ..  .                                                                   .                                              ",
"          ...                                                                    ...                                            ",
"          +++                                                                    +.                                             ",
"         +++++                                                                 @+++                                    .        ",
"        +++++++                         .                                     ++++++                                  ....      ",
"       +++++++++                      ...                                    &+++++++                                  +.       ",
"      +++++++++++                      .++                                  +++++++++&                               +&+&       ",
"     +++++++++++++                     +++++                              +++++++++++++                             ++++++      ",
"    +++++++++++++++                   @+++++#+     .                   . &+++++++++++++                           &+++++++      ",
" . ++++$$$+++$$$++++ ..               ++++++++++   ..                  .@+++$$$+++++++++                     .  +@+++++++++     ",
" ..++++$%%+++$%%++++..                +++++++++++++...                ..++++$%%+++$$$++++ .                 ..+++++++++++++     ",
"  .++++$%%+++$%%++++ .               +++++++++++++++                  . ++++$%%+++%%$++++..                ...+++$$$++++++++    ",
" . +++++++++++++++++                 +++++++$$$+++++                    ++++++++++%%$+++++..                 #+++%%$++++++++    ",
"    +++++++++++++++                 #+++++++$%%+++++                     ++++++++++++++++                    ++++%%$+++$$$+++   ",
"    +++++++++++++++                 @++$$$++$%%+++++                     ++++++++++++++++                    ++++++++++%%$+++   ",
"     +++++++++++++                 ++++$%%+++++++++&                      ++++++++++++++                     #+++++++++%%$++++..",
"     ++.+++++++.++                 ++++$%%+++++++++                       ++.+++++++++@                       ++++++++++++++++. ",
"      ++.+++++.++                 +#+++++++++++++++                       ++..+++++.++                        +++++++++++++++.. ",
"      +++.....+++        .      ...+++++++++++++.++                        ++......+++                        ++..+++++++++@+ . ",
"       +++...+++        ..%%% *  .. +++++++++++.+++                        +++....+++                         +++..++++.++++    ",
"       +++++++++        %%.. %**  .  +++++++++..+++                        +++++++++             **           +++......++++     ",
"        +++++++        %  . **%       +++......++++              ---   ;    ++++++#+             *%%          ++++....+++&      ",
"        +++++++       %      * %       ++++...+++++          = %%%-%% ;;    ++++++&             %%* %%% ;     @++++++++++       ",
"         +++++       -%                  ++++++++++         ==%   -- %;%  == ++++++            % **    %;;     #++++++++        ",
"         +++++      --                    &+++++++           %==  -  ;; %%=  +++++             %      ;;%%     ++++++++         ",
"          +++        %--                   +++++++        * % =      ;   ==% @+++             %        ;  %    ++++++&          ",
"          +++       % -                     ++++++       **%             == %++++             %           % =  ++++++           ",
"           +.       %                        ++++@        %*                 %++             -%            %==  ++++            ",
"         ....    ; %                          +&++        %**                ...            --%           ==%   +++             ",
"          .%  =  ;;%                           ++@ .  - %%                  ..%.    *   =    %--           = % .&++             ",
"            % ==  %;;                           +..  --%                    .  %% ***   == %% -               %...              ",
"             ==%%% ;                            ..%%%%---                        %%**%%%==%                    %%..             ",
"                   .. .                           .                             .                                 .. .          ",
"                    ...                           ...                         ...                                  ...          ",
"                    +++                           +.                           .++                                 +++          ",
"                   +++++                        @+++                           +++++                              +++++         ",
"                  +++++++                      ++++++                         @+++++#+     .                     +++++++        ",
"                 +++++++++                    &+++++++                        ++++++++++   ..                   +++++++++       ",
"                +++++++++++                  +++++++++&                       +++++++++++++...                 +++++++++++      ",
"               +++++++++++++               +++++++++++++                     +++++++++++++++                  +++++++++++++     ",
"           .  +++++++++++++++           . &+++++++++++++                     +++++++$$$+++++              .  +++++++++++++++    ",
"           ..++++$$$+++$$$++++..        .@+++$$$+++++++++                   #+++++++%%$+++++              ..++++$$$+++$$$++++.. ",
"            .++++%%$+++%%$++++.        ..++++$%%++++++++++ .                @++$$$++%%$+++++               .++++%%$+++%%$++++.  ",
"           ..++++%%$+++%%$++++..       . ++++$%%+++$$$++++..               ++++%%$+++++++++&              ..++++%%$+++%%$++++.. ",
"           . +++++++++++++++++ .         ++++++++++$%%+++++..              ++++%%$+++++++++               . +++++++++++++++++ . ",
"              +++++++++++++++             +++++++++$%%++++                +#+++++++++++++++                  +++++++++++++++    ",
"              +++++++++++++++             ++++++++++++++++              ...+++++++++++++.++                  +++++++++++++++    ",
"               ++.+++++++.++               ++++++++++++++                .. +++++++++++.+++                   ++.+++++++.++     ",
"               +++.+++++.+++               ++.+++++++++@                  .  +++++++++..+++                   +++.+++++.+++     ",
"                +++.....+++                ++..+++++.++                       +++......++++                    +++.....+++      ",
"                ++++...++++                 ++......+++                        ++++...+++++                    ++++...++++      ",
"                 +++++++++                  +++....+++                           ++++++++++                     +++++++++       ",
"                 +++++++++                  +++++++++                             &+++++++                      +++++++++       ",
"                  +++++++                    ++++++#+        -      ;;             +++++++        %  =           +++++++        ",
"                  +++++++                    ++++++&        --%%%%%%%;   =          ++++++   -  %% %%==   ;      +++++++        ",
"                   +++++                      ++++++        %%--   ;;%%%==           ++++@  --%%   ==%%%%%;;      +++++         ",
"                   +++++                      +++++      ; %  -    ;    ==%%%  .      +&++   %--    =   ;;%%%     +++++         ",
"                    +++                       @+++      ;;;            ==    %%..  *   ++@ %% -          ;  %%---  +++          ",
"                    +++                       ++++       %;;                 ..%%% **   ++.%                  %--  .++          ",
"                   .....                       ++        %;                   .   %*%  ...%.                   -%%%...          ",
"                   ..% -                      ...       %                         ** %%%%.                    -    %.%.  =      ",
"                      %--                    ..%.    = %%                          *   %                             %%%%==     ",
"                     --%%                       %   ==%= %                              %%                             ==%      ",
"                      -  %                       %%%%%==  %                               %                             = %     ",
"        .                 %             .. .              %             .                 %                            .  %     ",
"      ...                 %              ...               %          ...                 %                           .... %-   ",
"       .++               =%=             +++             ; %;          .++                %                            +.  %--  ",
"       +++++            =====           +++++             ;;;          +++++              %==                        +&+& --%   ",
"      @+++++#+     .     =%=           +++++++           ; %;         @+++++#+     .     ===                        ++++++ -%   ",
"      ++++++++++   ..     %           +++++++++            %          ++++++++++   ..   ==%                       &+++++++  %   ",
"      +++++++++++++...    %          +++++++++++          %           +++++++++++++...    %                  .  +@+++++++++ %*  ",
"     +++++++++++++++      %         +++++++++++++         %          +++++++++++++++      %                 ..+++++++++++++**** ",
"     +++++++%%$+++++   ;;%      .  +++++++++++++++        %          +++++++$$$+++++      %                ...+++$$$++++++++%   ",
"    #+++++++%%$+++++    ;;;     ..++++$%%+++$%%++++..    -%         #+++++++%%$+++++     -%                  #+++%%$++++++++%   ",
"    @++$%%++$$$+++++     %;;     .++++$%%+++$%%++++.    --%         @++$%%++%%$+++++    --%                  ++++%%$+++$$$+++   ",
"   ++++$%%+++++++++&     %      ..++++$$$+++$$$++++..    %--       ++++$%%+++++++++&     %--                 ++++++++++%%$+++   ",
"   ++++$$$+++++++++      %      . +++++++++++++++++ .    %-        ++++$$$+++++++++      %-                  #+++++++++%%$++++..",
"  +#+++++++++++++++      %         +++++++++++++++       %        +#+++++++++++++++      %                    ++++++++++++++++. ",
"...+++++++++++++.++     -%         +++++++++++++++       %      ...+++++++++++++.++     %                     +++++++++++++++.. ",
" .. +++++++++++.+++    --%          ++.+++++++.++        %       .. +++++++++++.+++    .%                     ++..+++++++++@+ . ",
"  .  +++++++++..+++     %--         +++.+++++.+++      . %.       .  +++++++++..+++   ...                     +++..++++.++++    ",
"      +++......++++  * % -           +++.....+++        ...           +++......++++    %..                    +++......++++%    ",
"       ++++...+++++ **%              ++++...++++        .% .           ++++...+++++    %%.                    ++++....+++& %    ",
"         ++++++++++  %**              +++++++++          %               ++++++++++  %% %                     @++++++++++  %    ",
"          &+++++++   %*               +++++++++          %    *           &+++++++  *%   %    =                #++++++++ =%     ",
"           +++++++  %                  +++++++           %  ***   .        +++++++ **%   %%%%==    *           ++++++++ ==%     ",
"            ++++++ %                   +++++++           %%%%*%%%%..        ++++++  %**  %  %=%%%%%**          ++++++&   %==    ",
"             ++++@ %                    +++++         = %    *  ..%          ++++@ %%*    %  ==  **%           ++++++    %=     ",
"              +&++ %                    +++++        ==%    **   . %%   =     +&++%       %   =   * %% -        ++++     %      ",
"               ++@%                      +++          %==            %%%==  -  ++@%       %           %--       +++    ;;%      ",
"                ++%.                     .++       - % =              ==%   --  +.%        %         --%        &++ *   ;;;     ",
"                ....                    .....      --%                 = %%%-%%%%...       %          - %  =  ...+ **%%%%%;     ",
"                 .%%   =                  %.       %%-                     --   ..         %-            %%==  ...%%*%   %;;    ",
"                    %%%==   ;             %    ;  %%--%%                   -             -----           ===%%%%%%  **   %      ",
"                     ==%%%%%;;             %  ;;%%   -  %%                                -%              ==             %      ",
"                      =   ;;;%              %%%;;;       %                                 %                              %     ",
"                       .     %                           %%                       .       .%.                  .          %     ",
"                      ....   %                             %                      ...     ....                ....        % .   ",
"                       +.     %                            %-                     +.     . %                   +.       ....    ",
"                     +&+&    -%-                           %--                  @+++       %                 +&+&        .%.    ",
"                    ++++++  ----        .                 --%                  ++++++      %                ++++++         %    ",
"                  &+++++++   -%-      ...                  -%                 &+++++++     %=             &+++++++         %    ",
"             .  +@+++++++++   %        .++                  %                +++++++++&    %==       .  +@+++++++++        %    ",
"            ..+++++++++++++   %        +++++              * %*             +++++++++++++  ===       ..+++++++++++++      =====  ",
"           ...+++$%%++++++++ =%       @+++++#+     .       ***          . &+++++++++++++   =%      ...+++%%$++++++++      =%=   ",
"             #+++$%%++++++++==%       ++++++++++   ..     * %*          .@+++$$$+++++++++   %        #+++%%$++++++++       %    ",
"             ++++$$$+++%%$+++%==      +++++++++++++...      %          ..++++%%$++++++++++ .%        ++++$$$+++%%$+++      %    ",
"             ++++++++++%%$+++%=      +++++++++++++++        %          . ++++%%$+++$$$++++..%-       ++++++++++%%$+++      %    ",
"             #+++++++++$$$++++..     +++++++$$$+++++        %            ++++++++++%%$+++++.%--      #+++++++++$$$++++..  %     ",
"              ++++++++++++++++.     #+++++++%%$+++++       .%             +++++++++%%$++++ --%        ++++++++++++++++.  ;%     ",
"              +++++++++++++++..     @++$$$++%%$+++++      ....            ++++++++++++++++  -%        +++++++++++++++.. ;;%     ",
"              ++..+++++++++@+ .    ++++$%%+++++++++&        %..            ++++++++++++++    %        ++..+++++++++@+ .  %;;    ",
"              +++..++++.++++%      ++++$%%+++++++++         %              ++.+++++++++@     %        +++..++++.++++     %;     ",
"              +++......++++ %     +#+++++++++++++++         %              ++..+++++.++       %*      +++......++++     %       ",
"              ++++....+++& *%   ...+++++++++++++.++         %               ++......+++     ****      ++++....+++&      %       ",
"              @++++++++++ **%    .. +++++++++++.+++        ;% ;             +++....+++       *%*      @++++++++++     *%        ",
"               #++++++++   %**    .  +++++++++..+++        ;;;      ;;;     +++++++++          %%      #++++++++     **%        ",
"               ++++++++    %*         +++......++++        ;% ;    %%;%%     ++++++#+           %      ++++++++       %**       ",
"               ++++++&     %           ++++...+++++         %   %%%  ;; % =  ++++++&            %      ++++++&       % *        ",
"               ++++++      %             ++++++++++         % %%      ;  %==  ++++++            %%% *  ++++++     - %           ",
"                ++++      ;%              &+++++++          %%          ==%%  +++++             %  %**  ++++     --%            ",
"                +++      ;;%               +++++++        = %            =  % @+++           =%%  **%   +++      %%--           ",
"                &++       %;;               ++++++       ==%                 %++++          ==%    * %  &++   = %  -            ",
"               .#+        %;                 ++++@        %==                %.++            %==      %..+   ==%                ",
"              ....        %                   +&++    -  % =                  ....        .  %=        %..   %%==               ",
"                %.     = %                     ++@.  --%%                      %%.  -     ..%           .%%%%  =                ",
"                 %    ==%                       +...  %--                        % ---   %%..                                   ",
"                  %%%%%===                     ...%%%%%-                          %%--%%%  ..                                   "};
