/* XPM */
static char * jsgrauloch[] = {
"128 128 5 1",
" 	c None",
".	c #000000",
"+	c #DFCEB0",
"@	c #B4A892",
"#	c #FFFBEE",
"                                                                                                                                ",
"                                                                                                                                ",
"                                                                                                                                ",
"                                                                                                                                ",
"       ..   .  ..   .                      ..  ..   .  ..  .   ..   .      ..  ..  .   ..  ..  ..  ..   .  ..  ..  .            ",
"            .  ..   .                  ..  ..  ..   .. ..  ...  .   .      ..  ..  .   ..  ..  ... ... ..++..++..  ..           ",
"            .  ..+++.  ..                  ..++..+++.....++...         .     . ..  .   ..++..++...++.....++..++.. ..            ",
"    .....+++.++..++... ..           .....  ...+...++.....++....+.....+...++......  .   ..++...+....+.....+...++..+.+  .         ",
"    .....+...@@..@@...+....         .....  ........+......+....+.....+...++.......+..  ...+...++...++...+....++..+... .....     ",
"      ...+....@...@...@..                 +.......++......+....+....++...+........+... ...+...++....++........+..+...+...       ",
"      ........@.......@..           ......+.......+.......@........+.....+........+... .......##.....#..................        ",
"    ..........@.......@.@...        . ....++.............................@........@...@.......#......##.....................    ",
"    ...........@............        . .....+......................................#....#......#.............................    ",
"      +@...................            .....+.....................................#..........#.............................     ",
"     +@@@..............@@@+            +++.......................................#.........................................     ",
"     ...@@................+         . ...........................................#..................................#.......    ",
"    ........................        .  +.........................................#...................................#......    ",
"     +@@@@..............@@+             +++......................................#...............................##########.    ",
"     +.................@@+             ..........................................#.....................................####@    ",
"    ..................@.....        .  ..................#.......................#..........................................    ",
"    ...........@............        .  .. ....+......+...........................#..................@..........#............    ",
"      ..........@.....+                   ++..+......+....#.................+....#...................@..........#.........      ",
"     .. .+......++......                  ....+..+...+....#..................#...#............@......@@.........#.....#....     ",
"    ... .+...+..+++.........        .  .. ...++..++..+....##......+..........+...#............@......@+...... ..  ....  ....    ",
"                                       ..  ..++..++   ....##.....++.....+....++..#....@..@...@@...@..++.+....   .  ...  ....    ",
"                    . ... .                         .  ..+##.##..++++...+....++..+...++..@...@@..@@..++..                       ",
"               ..  ..  ..                   .  ..  ..  ..   .++..+++....++...++..+...++..++..++..++..++.. ...  ..  ..   .       ",
"       ..  ..  ..  ..  .               ..  ..  ..  ..  ..   .  ..  .. ..  ...++..  ..  ..  ..  ..++..++.. ...   .  ..   ...     ",
"                                                                .  .   .   ..  ..  ..          ..  ..  .. ..                    ",
"                                                                                                                                ",
"                                                                                                                                ",
"                                                                                                                                ",
"                                                                                                                                ",
"                                                                                                                                ",
"                                                                                                                                ",
"                                                                                                                                ",
"         .  ..  ..  ... ..                  .  ..  ..  .   ..  ..  ..  ..   .  ..  ..      .   ..   .  ..  .   ..  ..           ",
"                      . ..                 ..  ..++..++.. ... ...  ..  ..   .  ..  ..      .   .  ...  .. ..   ..  ..  ..       ",
"                 .  ... ..                  .. ..++..++.....++...++..++..   .  .. .     .         ...++.....+++..++..           ",
"     .  ..  ... +.+.... .. .             .  +.+..++...+.....+....+...++..   .  ......++...+.....+....++.....++...+...  ..       ",
"     .  ..  ...+..+.... .. .         ..... ...+..++....+...++...++...+...  ..+.......++...+.....+....+......+........  ..  .    ",
"             ..+..+....                ...+...+..+........++....++...+... ...+........+...++....+....+......++.......+          ",
"         ..+...+.....+++                ..................#.....##....... ...+........+.....+........@.......+.......+...  .    ",
"     .  ...+........++......        .....................##......#.......@...@........@.............................++...  .    ",
"     .. ...........+........        .............................#......#....#......................................+..... .    ",
"        ++................+          .............................#................................................+.....       ",
"        +++++............++          .................................................................................+++       ",
"     .. ....................        .......#.............................................................................. .    ",
"     .. ....................        . ....#.............................................................................+  .    ",
"        +++...............+         . #########......................................................................+++        ",
"        ++............++.++         @ ###................................................................................       ",
"     ..  ..............++++         . ...................................................................................  .    ",
"     ... ...................       .. ................................................................................ ..  .    ",
"         ++++...............          ..............................................................................++          ",
"        ...................              #...............................................................................++     ",
"     .......................       .. .... .................................................................................    ",
"     .......................       .. ......................................................................................    ",
"       +.....#...........++            ...................................................................................+     ",
"       #####..........@++++             ..............................................................................++.++     ",
"       ###..................        .  ................................................................................++++     ",
"     .......................       ..  .....................................................................................    ",
"      +#....................             ...................................................................................    ",
"      +#..................          .. .. .................................................................................     ",
"     ..................+++          .. .....................................................................................    ",
"    ...................... .       .........................................................................................    ",
"      +++.................           ....................................................................................++     ",
"      ++++................            ................................................................................@++++     ",
"    ..++..............+...          ........................................................................................    ",
"     ..+...............+.. .        ........................................................................................    ",
"      .................+++               ...................................................................................    ",
"     .....................            ...  ...............................................................................      ",
"    .......................         ...................................................................................+++      ",
"      +++.................          ...................................................................................... .    ",
"      +..............@++++          ......................................................................................      ",
"     ...................++           .....................................................................................      ",
"    ...................... .         .................................................................................+...      ",
"    .......+.............. .         .. ...............................................................................+.. .    ",
"     +++++#................             +++............................................................................+++      ",
"     .....................              ++................................................................................      ",
"    ........................       ....  .................................................................................      ",
"      ............ ......           .... ................................................................................       ",
"      ................+++                ++++..........................................................................++       ",
"    ........................            ................................................................................+       ",
"    .....................           .....................................................................................  .    ",
"      ++................            .....................................................................................  .    ",
"      ...............@                 +.....#...........................................................................       ",
"     . .............#.......           #####.............................................................................       ",
"     .......................           ###............................................................................... .     ",
"     ....................++        ...................................................................................... ..    ",
"      +................++++          .+................................................................................         ",
"         ...................          ...............................................................................           ",
"     .......................        ................................................................................ .... ..    ",
"     ..............#......+         ..................................................................................... ..    ",
"      +  @@.........###.+++           +++...................................................................................    ",
"         .............#++...          ++++................................................................................      ",
"    ........................        .....................................................................................       ",
"     ++@....................         .......................................................................................    ",
"     ++@@.................+            ....................................................................................     ",
"      ..................+++.         .. ..................................................................................      ",
"    ...................++...        ....................................................................................        ",
"    .......@.........##+....          +++................................................................................       ",
"     +++++@..........#.....           +................................................................................         ",
"       .....................         .......................................................................................    ",
"    ....+...............+...        ........................................................................................    ",
"    ... .................+++        .......+..........................................................................          ",
"       ...................++            .............................................................................+......    ",
"    ........................         ...............................................................................++.... .    ",
"    . ......................        ................................................................................+..... .    ",
"          ..................         ..............................................................................+.....       ",
"         .................++          ................................................................................+++       ",
"      .  ...#...............        .. ................................................................................... .    ",
"      ... ##................        ....... ............................................................................+  .    ",
"          .............+++          .######................................. ........................................+++        ",
"         ..................         @###..................................... ...........................................       ",
"    . ...................+..          ....................................... ........................#..................  .    ",
"   .. ...........#.......  .        ............#..........@................. ............................+......+.... ..  .    ",
"      ..........#......+              .........#..........@...................#....+.................#....+......+..++          ",
"          #....#..........           .. .#.....#.........@@......@............#...#..................#....+...+..+....          ",
"          .....#.........            . .  ....  .. ......+@......@........... #...+..........+......##....+..++..++... ..  .    ",
"   .. .........#...... ..            . .  ...  .   ....+.++..@...@@...@..@... #..++....+.....++.....##....   ++..++..  ..       ",
"   ..  .. ....##...... ..                              ..++..@@..@@...@..++.. +..++....+...++++..##.##+..  .                    ",
"          . ..#....... ..              .   ..  ..  ... ..++..++..++..++..++.. +..++       ..+++..++.   ..  ..  ..  .            ",
"   .   ...  ..@...  .. .               .   ..  .   ... ..++..++..  ..  ..  .            .. ..  ..  .   ..  ..  ..  ..  ..       ",
"   .   ..   ..  .   .  .                            .. ..  ..  ..          ..  ..  ..   .   .  .                                ",
"                                                                                                                                ",
"                                                                                                                                ",
"                                                                                                                                ",
"                                                                                                                                "};
