/* XPM */
static char * gimp_temp_336839_xpm[] = {
"64 32 43 1",
" 	c None",
".	c #D38953",
"+	c #FF6D01",
"@	c #F89954",
"#	c #FB6A09",
"$	c #DA955E",
"%	c #E89964",
"&	c #FE730C",
"*	c #D1661F",
"=	c #EE7F2E",
"-	c #FF954F",
";	c #FAAA74",
">	c #FA6F08",
",	c #AD6637",
"'	c #FB8435",
")	c #F07418",
"!	c #FCA062",
"~	c #A96233",
"{	c #CA7E46",
"]	c #FB8A37",
"^	c #F69B5E",
"/	c #A96335",
"(	c #D7874D",
"_	c #FAA46A",
":	c #AA6D40",
"<	c #AA602E",
"[	c #D47A3E",
"}	c #D48246",
"|	c #CF6E27",
"1	c #D27028",
"2	c #DB7E39",
"3	c #B16F43",
"4	c #F5BB91",
"5	c #AB6435",
"6	c #D7854F",
"7	c #BF9271",
"8	c #CD7433",
"9	c #C37237",
"0	c #B86026",
"a	c #C18F67",
"b	c #A37859",
"c	c #C36221",
"d	c #C8895A",
".+@          #+$.+@          #+$                                ",
"+++%        &++*+++%        &++*                ++              ",
"=++-;      >++*,=++-;      >++*,               -++              ",
" '++-)    !++*~  '++-)    !++*~                -+{              ",
"  {+++]  ^++*/    {+++]  ^++*/                 -+{              ",
"   (+++>_++*:      (+++>_++*:                  -+{              ",
"    *++-++*,        *++-++*,           ++      -+{              ",
"     *-++*<          *-++*<            ++]+    -+{              ",
"     -++*<[          -++*<[            +++++   -+{              ",
"    -++*<**}        -++*<**}             {++]+ -+{              ",
"   +++*,|*++@      +++*,|*++@             {++++-+{       !!+<   ",
"  +++*~  1+++2    +++*~  1+++2             {{++-+{     !!+++<   ",
" +++*3    |++-4  +++*3    |++-4              {{-+{   !!++++<    ",
"+++*5      6+-+2+++*5      6+-+2              <-+{<!!+++<<<     ",
"++*7        8+90++*7        8+90               +{!!++++<<       ",
"a*b          1cda*b          1cd               !!++++<<         ",
".+@          #+$.+@          #+$              !++++<<{          ",
"+++%        &++*+++%        &++*           !!++++<<{{++         ",
"=++-;      >++*,=++-;      >++*,         !!++++<<<  {++]+       ",
" '++-)    !++*~  '++-)    !++*~        !!+++<<<{{{   {++]+      ",
"  {+++]  ^++*/    {+++]  ^++*/        !++<<<   ++{    {++++     ",
"   (+++>_++*:      (+++>_++*:        +++<      -+{     {+++<    ",
"    *++-++*,        *++-++*,         ++<       -+{      {++<    ",
"     *-++*<          *-++*<          <<        -+{       {<<    ",
"     -++*<[          -++*<[                    -+{              ",
"    -++*<**}        -++*<**}                   -+{              ",
"   +++*,|*++@      +++*,|*++@                  ++{              ",
"  +++*~  1+++2    +++*~  1+++2                  +<              ",
" +++*3    |++-4  +++*3    |++-4                 <<              ",
"+++*5      6+-+2+++*5      6+-+2                                ",
"++*7        8+90++*7        8+90                                ",
"a*b          1cda*b          1cd                                "};
