/* XPM */
static char * noname[] = {
"32 32 93 1",
"  c #0F1114",
"# c #1C1C1C",
"@ c #291A07",
"* c #34270E",
"+ c #2D191A",
"- c #2A2826",
"= c #44270B",
"~ c #54300E",
"/ c #3F201E",
". c #40371E",
", c #404134",
": c #552D28",
"; c #514226",
"_ c #513C38",
"& c #663810",
"% c #64372E",
"$ c #674624",
"! c #8B4B13",
"? c #7C4734",
"| c #5F4635",
"0 c #584D45",
"1 c #705F37",
"2 c #705F4D",
"3 c #865425",
"4 c #816543",
"5 c #905642",
"6 c #916D45",
"7 c #69415E",
"8 c #625F5B",
"9 c #72735A",
"A c #765B61",
"B c #885E56",
"C c #86705B",
"D c #804D68",
"E c #85547A",
"F c #9C5A1B",
"G c #974D2E",
"H c #A26129",
"I c #9C6C35",
"J c #A2664D",
"K c #937167",
"L c #A76B60",
"M c #B05E19",
"N c #BF671D",
"O c #B15C2F",
"P c #BD7133",
"Q c #B6734A",
"R c #8A7B4B",
"S c #9E7650",
"T c #7B7971",
"U c #88787C",
"V c #8A8A7D",
"W c #8C8768",
"X c #978374",
"Y c #9D966E",
"Z c #9B9981",
"a c #CF7620",
"b c #D58B19",
"c c #D1862B",
"d c #B88B4D",
"e c #D08D3E",
"f c #A7875C",
"g c #AD7871",
"h c #AD995F",
"i c #B29674",
"j c #BFA46B",
"k c #A9A17E",
"l c #C3B284",
"m c #906D87",
"n c #939192",
"o c #A8958E",
"p c #AEAA8E",
"q c #A3A5A3",
"r c #BE8E86",
"s c #BB9F92",
"t c #D0A495",
"u c #B4ADA4",
"v c #D2B2A5",
"w c #C6B893",
"x c #BCBEA2",
"y c #D7C395",
"z c #D8C6A5",
"' c #B9B3BC",
"` c #C3C6C5",
"^ c #CABAB3",
"( c #DBBEB5",
") c #ECDEA5",
"{ c #E2DFC3",
"} c #D8D1C6",
"[ c #E9E3D6",
"] c #DCDADC",
"< c #EAE9E7",
"> c None",
">>>u]>>>>>>x<>>>>>>u]>>>>>>>>>>>",
">>>Bgs>>>>>gt(>>>>>Krv>>>>>s([>>",
">>>2X,>>>>>|1|>>>>>.|_>>>>>/r;>>",
">>>X^_>>>>>CS2>>>>>2D0>>>>>.s->>",
">>0C^0>>>>>C42>>>>>2k0>>>>>,^,>>",
">U>Ws_>>>o>C62>>>>>0u_>>>>>,'->>",
">>>XsU>>>>>66Z>>>>>2uU>>>>C0^TC>",
">>>fv|>>>>>ff4>>>>>2W2>>>>>|^*>>",
">>4Zok>>>>4f9k>>>>>p9X>>>>>XuC>>",
">>CYpp>>>>4i9k>>>>|pCY>>>>22xW>>",
">>%ivK>>>>$jff>>>>:iZf>>>>;KsC>>",
">>%iu4>>>>3dS6>>>>%Ip4>>>>*6v3>>",
">>:5f%_>>>$HI31>>>:?6?_>>> Cw.@>",
">:OOOO?->:aabNF:>/OPPO?/>#!MIF=>",
"+GPPPQJ+-Hbbbed/>?PPPQL/>~NNNNF#",
"/GPPOPJ:/MbbccQ%+?PPPPJ:#&NNNNF@",
"/GPPPPJ::Nbbbcd3>GPPPPL%>~HHIP3/",
"_$fi64B|0$iwjf.;>;46212|>-T9Z}T_",
";1{]`xk_1R)zww2.>|ZD77W_>_JLrrs2",
",k]]``^1|jyyjlf_>CmppZE9>|XZ9{iW",
"|^<}W``C1jfYC6W1>AX988UA>|uoo[zK",
"9`](su}ZCww}WXCW>UZ9VnZV>2uu^}}x",
"nn``qnqnZqq`'qUV>ZkW29Tk>89TTVVq",
"VnTnTTUnC^`'qunn>pkWWVZp>9Znu^^u",
"0``]`'`T;hfoXWC1>U}uu'uA>|u`}<(C",
".sJrgLg2.h6YkYf_>XoxqxmC>;Xu'}rC",
"*W``u'q..4lCRWC->WmUZEmC>,?k}vg0",
"*.p``u2@..hlli,#>2kXUXYC>+25gtZ.",
"+/;WC_/+-%$4C|.+>:???||+-@-0Zp_+",
"+:???%_/-$HHHH?:-:?5G?%/- =~=@@ ",
"-/???%:+>/3G33?+>+%??%:+> =&&=@ ",
"># # ##>># # ##>>#   ##>>#     #"};
