/* XPM */
static char * noname[] = {
"128 96 93 1",
"  c #000000",
"# c #0A030E",
"@ c #090A00",
"* c #09110D",
"+ c #101C16",
"- c #150D01",
"= c #1B1C04",
"~ c #1A150F",
"/ c #1C181C",
". c #271807",
", c #322104",
": c #15271E",
"; c #292426",
"_ c #272C06",
"& c #1C3227",
"% c #2B2314",
"$ c #3E2906",
"! c #313B09",
"? c #392F15",
"| c #3F3C11",
"0 c #3A343B",
"1 c #443C3D",
"2 c #492C0F",
"3 c #4A3B06",
"4 c #4D3816",
"5 c #573D0E",
"6 c #653D13",
"7 c #52402A",
"8 c #424A0E",
"9 c #514B09",
"A c #545C0C",
"B c #4E461B",
"C c #254334",
"D c #5E540C",
"E c #594C1B",
"F c #585716",
"G c #6A470A",
"H c #684D1E",
"I c #6A5A10",
"J c #5E6412",
"K c #686D11",
"L c #5D4725",
"M c #615A26",
"N c #6B5231",
"O c #32443A",
"P c #2D5541",
"Q c #3D594B",
"R c #3A6A52",
"S c #414943",
"T c #57493D",
"U c #514A51",
"V c #4F5952",
"W c #5A5347",
"X c #62593E",
"Y c #6A594D",
"Z c #5F5761",
"a c #486A59",
"b c #4F7562",
"c c #557D69",
"d c #5B8771",
"e c #619179",
"f c #629C7F",
"g c #744614",
"h c #754E0B",
"i c #7B5513",
"j c #766714",
"k c #737915",
"l c #7F710F",
"m c #85580B",
"n c #8F600D",
"o c #8F7912",
"p c #9E6A0F",
"q c #AD7411",
"r c #715F21",
"s c #786A20",
"t c #785C35",
"u c #7D5B24",
"v c #876327",
"w c #7D7523",
"x c #8C6D30",
"y c #917125",
"z c #9B7533",
"' c #868514",
"` c #8E7E28",
"^ c #9D8515",
"( c #9E832E",
") c #AC7F32",
"{ c #99910F",
"} c #AA9714",
"[ c #BC863A",
"] c #CC9238",
"< c #D8A03E",
"> c None",
">>>>>>>>>>>>>>>>>>>>>>>>>>>>>>>>>>>>>>>>>>>>>>>>>>>>>>>>>>>>>>>>>>>>>>>>>>>>>>>>>>>>>>>>>>>>>>>>>>>>>>>>>>>>>>>>>>>>>>>>>>>>>>>>",
">>>>>>>>>>>>>>>>>>>>>>>>>>>>>>>>>>>>>>>>>>>>>>>>>>>>>>>>>>>>>>>>>>>>>>>>>>>>>>>>>>>>>>>>>>>>>>>>>>>>>>>>>>>>>>>>>>>>>>>>>>>>>>>>",
">>>>>>>>>>>>>>>>>>>>>>>>>>>>>>>>>>>>>>>>>>>>>>>>>>>>>>>>>>>>>>>>>>>>>>>>>>>>>>>>>>>>>>>>>>>>>>>>>>>>>>>>>>>>>>>>>>>>>>>>>>>>>>>>",
">>>>>>>>>>>>>>>>>>>>>>>>>>>>>>>>>>>>>>>>>>>>>>>>>>>>>>>>>>>>>>>>>>>>>>>>>>>>>>>>>>>>>>>>>>>>>>>>>>>>>>>>>>>>>>>>>>>>>>>>>>>>>>>>",
">>>>>>>>>>>>>>>>>>>>>>>>>>>>>>>>>>>>>>>>>>>>>>>>>>>>>>>>>>>>>>>>>>>>>>>>>>>>>>>>>>>>>>>>>>>>>>>>>>>>>>>>>>>>>>>>>>>>>>>>>>>>>>>>",
">>>>>>>>>>>>>>>>>>>>>>>>>>>>>>>>>>>>>>>>>>>>>>>>>>>>>>>>>>>>>>>>>>>>>>>>>>>>>>>>>>>>>>>>>>>>>>>>>>>>>>>>>>>>>>>>>>>>>>>>>>>>>>>>",
">>>>>>>>>>>>>>>>>>>>>>>>>>>>>>>>>>>>>>>>>>>>>>>>>>>>>>>>>>>>>>>>>>>>>>>>>>>>>>>>>>>>>>>>>>>>>>>>>>>>>>>>>>>>>>>>>>>>>>>>>>>>>>>>",
">>>>>>>>>>>>>>>>>>>>>>>>>>>>>>>>>>>>>>>>>>>>>>>>>>>>>>>>>>>>>>>>>>>>>>>>>>>>>>>>>>>>>>>>>>>>>>>>>>>>>>>>>>>>>>>>>>>>>>>>>>>>>>>>",
">>>>>>>>>>>>>>>>>>>>>>>>>>>>>>>>>>>>>>>>>>>>>>>>>>>>>>>>>>>>>>>>>>>>>>>>>>>>>>>>>>>>>>>>>>>>>>>>>>>>>>>>>>>>>>>>>>>>>>>>>>>>>>>>",
">>>>>>>>>>>>>>>>>>>>>>>>>>>>>>>>>>>>>>>>>>>>>>>>>>>>>>>>>>>>>>>>>>>>>>>>>>>>>>>>>>>>>>>>>>>>>>>>>>>>>>>>>>>>>>>>>>>>>>>>>>>>>>>>",
">AMyywF_!!!!|!!!9A999998|9ErrE|>>>?uzvH@                       >> ,22223333333333333333322222$$->-$22223353535555333322, BvyxH@>",
">Ez]]]y=,$,$2$$2Ikkk'kkK34[]])|A> [<<<<4=22$$$$$$$$$$$$$$$$$222. 5nmnnnnnnnnnnnnnnnnnnnnnnnnnnn3 innnnnnnnnnnnnnnnnnnnnG-]<<<<2>",
">B)]]]y_25555555j''''''k|E]]][H8>~]]]]<E-55555555555555555555Gg2 hmmmmmmmmmmmmmmmmmmmmmmmmmmmmn5@nmmmmmmmmmmmmmmmmmmmmn$ ]]]]]4>",
">F[]]]z|26666666j'''k''l!J]]][F8>?]]]]<H-6GGGGGGGGGGGGGGGGGgiin5@immmmmmmmmmmmmmmmmmmmmmmmmmmmn5@nmmmmmmmmmmmmmmmmmmmmn- []]]]?>",
">j]]]]z?2ggiIhgjk'''k''k!F]]]]s9>H]]]]<u.5hhhiiiiiiiiiiiiiiimmn6@immmmmmmmmmmmmmmmmmmmmmmmmmmmn5@nmmmmmmmmmmmmmmmmmmmmi--[]]]]v>",
"Kw]]]]z|2gj'kkl''''''''J_F]]][wB>y]]]]<u~5hiiiiiiiiiiiiiiimmmmnG@immmmmmmmmmmmmmmmmmmmmmmmmmmmn5-nmmmmmmmmmmmmmmmmmmmnG-~[]]]]y?",
"K`]]]]zB2Ik'kkk'ljl'''kDBI]]][`F>y]]]]<u?5iiiiiiiiimmmmmmmmmmmnG@immmmmmmmmmnnnnnnnnnnnnmmmmmmn5,nmmmmnnnnnnnnnnnnnnmn54%[]]]]z4",
"sy]]]]zH35IjI999|$|89JD$Bj]]]](I|)]]]]<ur5iiiiiG6652222226GimnnG@immnnmiihG5522223322225GGiinnn5=nnniG5$,=-------=,3Gi2B%[]]]])r",
"ry[]]]zB!,|399DIjID9|!_.|J[]]](H|)]]]]<ur$52$,,$3hhhhiihhG2$,3G5@iiG52$,$$3Ghhimmmnmmhhh52,.$3G3@6$..$5GmnnppppnnmG$-@@%-[]]]]zr",
"ry[]]]x_!35j''^{^oollj9,_A]]][`F|)]]]]<E @,5mnpppqpppppppppppm5. ,55hmppppppppppppppppppppppnG$  3hnppppppppnpnnmnnnmh-  []]]]zE",
"M(]]]]x9loo^^^^{ollljjjI3F]]][`F|[]]]]<E3nnnnnnnnpnnnnnnnnpnppph-npppppnpnnpnnnnnnnmnmnnnnnpnnp3.ppnnnmnnnnnmnnnhmmhimmG []]]]x?",
"r(]]]]zK}}}}}}}}}}}}}}}}jF]]][`F8[]]]]<Hmqqqqqqqqqqqqqqqqqqqqqqm-pqqqqqqqqqqqqqqqqqqqqqqqqqqqqqh$qqqqqqqqqqqqqqqqqqqqqqq []]]]z?",
"jz]]]]zK}}}}}}}}}}}}}}}}lF[]][(E|)]]]]<Hmqqqqqqqqqqqqqqqqqqqqqqm-pqqqqqqqqqqqqqqqqqqqqqqqqqqqqqh$qqqqqqqqqqqqqqqqqqqqqqp []]]])?",
"jy]]]]xJ}}}}}}}}}}}}}}}}lF[]]]`E|)]]]]<Hmqqqqqqqqqqqqqqqqqqqqqqm-pqqqqqqqqqqqqqqqqqqqqqqqqqqqqqh$qqqqqqqqqqqqqqqqqqqqqqp []]]]z.",
"Js]]]]xJ}}}}}}}}}}{}}}}}jF[]]]s8>z]]]]<Hmqqqqqqqqqqqqqqqqqqqqqqm@pqqqqqqqqqqqqqqqqqqqqqqqqqqqqqh,qqqqqqqqpppppqqqqqqqqqp []]]]u>",
">F[]]]zK}}}}}}}}{{{{}}}{I9]]]]E8>H]]]]<Hmqqqqqqqqqqqqqqqqqqqqqqm@pqqqqqqpppppppppppppppppqqqqqqG.qqqqppnnmmmnnnppppqqppn@[]]]]2>",
">F)]]]zK}}}}}}{'''''{{''D4]]][48>.]]]]<Hmqqqqqqqpppppppppppqqqqi@pqqpppnnnnnmmmmmnmmnnnnnnpppqqG-qpnmihhhhhhhhimnnnppnnm@[<<<<%>",
">8HyzzH9jjjjjIKJ93399993,?yyys$>> z]]]<Ehppppppnmmmihhhhhiimmnn5 hmmhhGGGGGGGGG555G5GGGGGGGGGhh$ 2$$$,,,,,,,,,$$$233332$ uzxxu@>",
">>!@=-@@@-@@@@@@----===--==_!!8>>>   @                                                                                        >>",
">>>9999A9--A989A8||88==|||!88>>>>>>>>>>>>    >>>>>>>>>>>>>>>>>>>>>>>>>>>>>>>>>>>>>>>>>>>>>>>>>>>>>>>>>>>>>>>>>>>>>>>  >>>>>>>>>>",
">>>>>>>>k-=>>>>>>>>>k_@K>>>>>>>>>>>>>>>>>>##>>>>>>>>>>>>>>>>>>>>>>>>>>>>>>>>>>>>>>>>>>>>>>>>>>>>>>>>>>>>>>>>>>>>>>>>  >>>>>>>>>>",
">>>>>>>>>__>>>>>>>>>>_=>>>>>>>>>>>>>>>>>>>  >>>>>>>>>>>>>>>>>>>>>>>>>>>>>>>>>>>>>>>>>>>>>>>>>>>>>>>>>>>>>>>>>>>>>>>>  >>>>>>>>>>",
">>>>>>>>>Z >>>>>>>>>> Z>>>>>>>>>>>>>>>>>>>Z >>>>>>>>>>>>>>>>>>>>>>>>>>>>>>>>>>>>>>>>>>>>>>>>>>>>>>>>>>>>>>>>>>>>>>>>Z >>>>>>>>>>",
">>>>>>>>> Z>>>>>>>>>>Z >>>>>>>>>>>>>>>>>>>*Z>>>>>>>>>>>>>>>>>>>>>>>>>>>>>>>>>>>>>>>>>>>>>>>>>>>>>>>>>>>>>>>>>>>>>>>> Z>>>>>>>>>>",
">>>>>>>>>Z >>>>>>>>>> Z>>>>>>>>>>>>>>>>>>>0/>>>>>>>>>>>>>>>>>>>>>>>>>>>>>>>>>>>>>>>>>>>>>>>>>>>>>>>>>>>>>>>>>>>>>>>>Z >>>>>>>>>>",
">>>>>>>>> Z>>>>>>>>>>Z >>>>>>>>>>>>>>>>>>>;0>>>>>>>>>>>>>>>>>>>>>>>>>>>>>>>>>>>>>>>>>>>>>>>>>>>>>>>>>>>>>>>>>>>>>>>> Z>>>>>>>>>>",
">>>>>>>>>Z >>>>>>>>>> Z>>>>>>>>>>>>>>>>>>>0;>>>>>>>>>>>>>>>>>>>>>>>>>>>>>>>>>>>>>>>>>>>>>>>>>>>>>>>>>>>>>>>>>>>>>>>>Z >>>>>>>>>>",
">>>>>>>>> Z>>>>>>>>>>Z >>>>>>>>>>>>>>>>>>>;0>>>>>>>>>>>>>>>>>>>>>>>>>>>>>>>>>>>>>>>>>>>>>>>>>>>>>>>>>>>>>>>>>>>>>>>> Z>>>>>>>>>>",
">>>>>>>>>Z >>>>>>>>>> Z>>>>>>>>>>>>>>>>>>>0;>>>>>>>>>>>>>>>>>>>>>>>>>>>>>>>>>>>>>>>>>>>>>>>>>>>>>>>>>>>>>>>>>>>>>>>>Z >>>>>>>>>>",
">>>>>>>>> Z>>>>>>>>>>Z >>>>>>>>>>>>>>>>>>>;0>>>>>>>>>>>>>>>>>>>>>>>>>>>>>>>>>>>>>>>>>>>>>>>>>>>>>>>>>>>>>>>>>>>>>>>> Z>>>>>>>>>>",
">>>>>>>>>Z >>>>>>>>>> Z>>>>>>>>>>>>>>>>>>>0;>>>>>>>>>>>>>>>>>>>>>>>>>>>>>>>>>>>>>>>>>>>>>>>>>>>>>>>>>>>>>>>>>>>>>>>>Z >>>>>>>>>>",
">>>>>>>>>@Z>>>>>>>>>>Z->>>>>>>>>>>>>>>>>>>;0>>>>>>>>>>>>>>>>>>>>>>>>>>>>>>>>>>>>>>>>>>>>>>>>>>>>>>>>>>>>>>>>>>>>>>>> W>>>>>>>>>>",
">AMyywF_!Z-!|!!!9A999=Z8|9ErrE|>>>:QaQP@  0          @@@*****++++::::&&&&&&&&&&&&&&&&&&&&&&&&&&&&&&&&&&&&&&&&&&&&&&&V &+ CQaaO@>",
">Ez]]]y=,-Z$2$$2Ikkk'Z_K34[]])|A> deeefC*& S:::::&&&&&&&&&&CCCCCCOOPPPPPPPPQQQQQQQQQQQQQQQQQQQQQQQQQQQQQQQQQQQQQQQQQ QQC*effff&>",
">B)]]]y_2Z=55555j''''!Zk|E]]][H8>*eeeefC*CS &&&&&CCCCCCCCCCCCOOPPPPPPPPPPPPPPPPPPPPPPPPPPPPPPPPPPPPPPPPPPPPPPPPPPPPPV Q: eeeee&>",
">F[]]]z|2.Z66666j'''kZ!l!J]]][F8>:eeeefO*C SCCCCCCCOOOOOOPPPPPPPPPPPPPPPPPPPPPPPPPPPPPPPPPPPPPPPPPPPPPPPPPPPPPPPPPPP VQ* deeee&>",
">j]]]]z?2Z.iIhgjk'''k!Zk!F]]]]s9>PeeeeeQ+CV PPPPPPPPPPPPPPPPPPPPPPPPPPPPPPPPPPPPPPPPPPPPPPPPPPPPPPPPPPPPPPPPPPPPPPPPV P**deeeeQ>",
"Kw]]]]z|2,Z'kkl''''''Z!J_F]]][wB>aeeeeeQ*C VPPPPPPPPPPPPPPPPPPPPPPPPPPPPPPPPPPPPPPPPPPPPPPPPPPPPPPPPPPPPPPPPPPPPPPPP VC**deeeea:",
"K`]]]]zB2Z='kkk'ljl''_ZDBI]]][`F>aeeeeeQ:CV PPPPPPPPPPPPPQQQQQQQQQQQQQQQQQQQQQQQQQQQQQQQQQQQQQQQQQQQQQQQQQQQQQQQQQPVV V&+deeeea&",
"sy]]]]zH?.ZWMD993||BWZ=?Bj]]]](I|beeeeeQSV VVPPCC&&&&&&&&&&&&&&&&&&&&&&&&&&&&&&&&&&&&&&&&&&&&&&&&&&&:::::++++++***&S SSC+deeeebP",
"ry[]]]zBUZ%WXFIIIIIXW%ZT|J[]]](H|beeeeeQOSS SC+:&PPPPPPPPPPPPPPPPPPPPPPPPPPPPPPPPPPPPPPPPPPPPPPPPPPPPPPPPPPPPPPQQP&&+ *:*deeeebP",
"ry[]]]x_U~3rwl'^^olsj9%U_A]]][`F|ceeeefO*+ &PPRRRRRRRRRRRRRRRRRRRRRRRRRRRRRRRRRRRRRRRRRRRRRRRRRRRRRRRRRRRRRRRRRQPPQPPC*  deeeeaO",
"M(]]]]x9loo^^^^{ollljjjI3F]]][`F|ceeeefO:PQQQRRPQRRQQQQQQQQQQQQQQQQQQQPPPPPPPQQQQPPPPPPPPPPPPPPPPQQQQQQQQQQQQQQPPPPPPPPC deeeea:",
"r(]]]]zK}}}}}}}}}}}}}}}}jF]]][`F8ceeeeeOPRRRRRRRRRRRRRRRRRRRRRRRRRRRRRRRRRRRRRRRRRRRRRRRRRRRRRRRRRRRRRRRRRRRRRRRRRRRRRRR deeeea&",
"jz]]]]zK}}}}}}}}}}}}}}}}lF[]][(E|ceeeefOPRRRRRRRRRRRRRRRRRRRRRRRRRRRRRRRRRRRRRRRRRRRRRRRRRRRRRRRRRRRRRRRRRRRRRRRRRRRRRRR deeeeb:",
"jy]]]]xJ}}}}}}}}}}}}}}}}lF[]]]`E|ceeeefOPRRRRRRRRRRRRRRRRRRRRRRRRRRRRRRRRRRRRRRRRRRRRRRRRRRRRRRRRRRRRRRRRRRRRRRRRRRRRRRR deeeeb+",
"Js]]]]xJ}}}}}}}}}}{}}}}}jF[]]]s8>beeeefOPRRRRRRRRRRRRRRRRRRRRRRRRRRRRRRRRRRRRRRRRRRRRRRRRRRRRRRRRRRRRRRRRRRRRRRRRRRRRRRR deeeeQ>",
">F[]]]zK}}}}}}}}{{{{}}}{I9]]]]E8>PeeeefOPRRRRRRRRRRRRRRRRRRRRRRRRRRRRRRRRRRRRRRRRRRRRRRRRRRRRRRRRRRRRRRRQQQQQQQRRRRRRRRP@deeee&>",
">F)]]]zK}}}}}}{'''''{{''D4]]][48>+eeeeeOPRRRRRRRRRRRRRRRQQQQQQQQPPPPPPPPPPPPPPPPPPPPPPPPPPPPPPPPPPPPPPPPPPPPPPPPPQQRRQQP dffff:>",
">8HyzzH9jjjjjIKJ93399993,?yyys$>> bdeeeCCRRRRRRQPPPPPCCCCCCCCCCCCCCCCCCCCCCCCCCCCCCCCCCCCCCCCCCC&&&&&&&&&::::::::&&&&&&: QbaaQ >",
">>!@=-@@@-@@@@@@----===--==_!!8>>>   @                                                                                        >>",
">>>9999A9--A989A8||88==|||!88>>>>>>>>>>>>    >>>>>>>>>>>>>>>>>>>>>>>>>>>>>>>>>>>>>>>>>>>>>>>>>>>>>>>>>>>>>>>>>>>>>>>  >>>>>>>>>>",
">>>>>>>>k-=>>>>>>>>>k_@K>>>>>>>>>>>>>>>>>>##>>>>>>>>>>>>>>>>>>>>>>>>>>>>>>>>>>>>>>>>>>>>>>>>>>>>>>>>>>>>>>>>>>>>>>>>  >>>>>>>>>>",
">>>>>>>>>__>>>>>>>>>>_=>>>>>>>>>>>>>>>>>>>  >>>>>>>>>>>>>>>>>>>>>>>>>>>>>>>>>>>>>>>>>>>>>>>>>>>>>>>>>>>>>>>>>>>>>>>>  >>>>>>>>>>",
">>>>>>>>>> >>>>>>>>>> >>>>>>>>>>>>>>>>>>>>> >>>>>>>>>>>>>>>>>>>>>>>>>>>>>>>>>>>>>>>>>>>>>>>>>>>>>>>>>>>>>>>>>>>>>>>>Z>>>>>>>>>>>",
">>>>>>>>> >>>>>>>>>>>> >>>>>>>>>>>>>>>>>>>*>>>>>>>>>>>>>>>>>>>>>>>>>>>>>>>>>>>>>>>>>>>>>>>>>>>>>>>>>>>>>>>>>>>>>>>>>>Z>>>>>>>>>>",
">>>>>>>>>> >>>>>>>>>> >>>>>>>>>>>>>>>>>>>>0/>>>>>>>>>>>>>>>>>>>>>>>>>>>>>>>>>>>>>>>>>>>>>>>>>>>>>>>>>>>>>>>>>>>>>>>>Z>>>>>>>>>>>",
">>>>>>>>> >>>>>>>>>>>> >>>>>>>>>>>>>>>>>>>;0>>>>>>>>>>>>>>>>>>>>>>>>>>>>>>>>>>>>>>>>>>>>>>>>>>>>>>>>>>>>>>>>>>>>>>>>>Z>>>>>>>>>>",
">>>>>>>>>> >>>>>>>>>> >>>>>>>>>>>>>>>>>>>>0;>>>>>>>>>>>>>>>>>>>>>>>>>>>>>>>>>>>>>>>>>>>>>>>>>>>>>>>>>>>>>>>>>>>>>>>>Z>>>>>>>>>>>",
">>>>>>>>> >>>>>>>>>>>> >>>>>>>>>>>>>>>>>>>;0>>>>>>>>>>>>>>>>>>>>>>>>>>>>>>>>>>>>>>>>>>>>>>>>>>>>>>>>>>>>>>>>>>>>>>>>>Z>>>>>>>>>>",
">>>>>>>>>> >>>>>>>>>> >>>>>>>>>>>>>>>>>>>>0;>>>>>>>>>>>>>>>>>>>>>>>>>>>>>>>>>>>>>>>>>>>>>>>>>>>>>>>>>>>>>>>>>>>>>>>>Z>>>>>>>>>>>",
">>>>>>>>> >>>>>>>>>>>> >>>>>>>>>>>>>>>>>>>;0>>>>>>>>>>>>>>>>>>>>>>>>>>>>>>>>>>>>>>>>>>>>>>>>>>>>>>>>>>>>>>>>>>>>>>>>>Z>>>>>>>>>>",
">>>>>>>>>> >>>>>>>>>> >>>>>>>>>>>>>>>>>>>>0;>>>>>>>>>>>>>>>>>>>>>>>>>>>>>>>>>>>>>>>>>>>>>>>>>>>>>>>>>>>>>>>>>>>>>>>>Z>>>>>>>>>>>",
">>>>>>>>>@>>>>>>>>>>>>->>>>>>>>>>>>>>>>>>>;0>>>>>>>>>>>>>>>>>>>>>>>>>>>>>>>>>>>>>>>>>>>>>>>>>>>>>>>>>>>>>>>>>>>>>>>>>W>>>>>>>>>>",
">AMyywF_!=-!|!!!9A999=_8|9ErrE|>>>?uzvH@  1;                   >> ,22223333333333333333322222$$->-$22223353535555333W72, BvyxH@>",
">Ez]]]y=,-.$2$$2Ikkk'9_K34[]])|A> [<<<<4=27T$$$$$$$$$$$$$$$$222. 5nmnnnnnnnnnnnnnnnnnnnnnnnnnnn3 innnnnnnnnnnnnnnnnntXnG-]<<<<2>",
">B)]]]y_2,=55555j''''!9k|E]]][H8>~]]]]<E-5TL55555555555555555Gg2 hmmmmmmmmmmmmmmmmmmmmmmmmmmmmn5@nmmmmmmmmmmmmmmmmmmYtn$ ]]]]]4>",
">F[]]]z|2.$66666j'''k9!l!J]]][F8>?]]]]<H-6NXGGGGGGGGGGGGGGGgiin5@immmmmmmmmmmmmmmmmmmmmmmmmmmmn5@nmmmmmmmmmmmmmmmmmmtYn- []]]]?>",
">j]]]]z?22.iIhgjk'''k!9k!F]]]]s9>H]]]]<u.5XNhiiiiiiiiiiiiiiimmn6@immmmmmmmmmmmmmmmmmmmmmmmmmmmn5@nmmmmmmmmmmmmmmmmmmYti--[]]]]v>",
"Kw]]]]z|2,3'kkl''''''9!J_F]]][wB>y]]]]<u~5NXiiiiiiiiiiiiiimmmmnG@immmmmmmmmmmmmmmmmmmmmmmmmmmmn5-nmmmmmmmmmmmmmmmmmmuYG-~[]]]]y?",
"K`]]]]zB25='kkk'ljl''_ADBI]]][`F>y]]]]<u?5YuiiiiiiimmmmmmmmmmmnG@immmmmmmmmmnnnnnnnnnnnnmmmmmmn5,nmmmmnnnnnnnnnnnnuYYtY4%[]]]]z4",
"sy]]]]zH?.BWMD993||BWB=?Bj]]]](I|)]]]]<uNYNWYHiG6652222226GimnnG@immnnmiihG5522223322225GGiinnn5=nnniG5$,=-------=4TLTUB%[]]]])r",
"ry[]]]zBU%%WXFIIIIIXW%%T|J[]]](H|)]]]]<uLTT7T4,$3hhhhiihhG2$,3G5@iiG52$,$$3Ghhimmmnmmhhh52,.$3G3@6$..$5Gmnnppppnnm52.~~%-[]]]]zr",
"ry[]]]x_U~3rwl'^^olsj9%U_A]]][`F|)]]]]<E-~?5impppqpppppppppppm5. ,55hmppppppppppppppppppppppnG$  3hnppppppppnpnnmnnnmh-  []]]]zE",
"M(]]]]x9loo^^^^{ollljjjI3F]]][`F|[]]]]<E3nnnnnnnnpnnnnnnnnpnppph-npppppnpnnpnnnnnnnmnmnnnnnpnnp3.ppnnnmnnnnnmnnnhmmhimmG []]]]x?",
"r(]]]]zK}}}}}}}}}}}}}}}}jF]]][`F8[]]]]<Hmqqqqqqqqqqqqqqqqqqqqqqm-pqqqqqqqqqqqqqqqqqqqqqqqqqqqqqh$qqqqqqqqqqqqqqqqqqqqqqq []]]]z?",
"jz]]]]zK}}}}}}}}}}}}}}}}lF[]][(E|)]]]]<Hmqqqqqqqqqqqqqqqqqqqqqqm-pqqqqqqqqqqqqqqqqqqqqqqqqqqqqqh$qqqqqqqqqqqqqqqqqqqqqqp []]]])?",
"jy]]]]xJ}}}}}}}}}}}}}}}}lF[]]]`E|)]]]]<Hmqqqqqqqqqqqqqqqqqqqqqqm-pqqqqqqqqqqqqqqqqqqqqqqqqqqqqqh$qqqqqqqqqqqqqqqqqqqqqqp []]]]z.",
"Js]]]]xJ}}}}}}}}}}{}}}}}jF[]]]s8>z]]]]<Hmqqqqqqqqqqqqqqqqqqqqqqm@pqqqqqqqqqqqqqqqqqqqqqqqqqqqqqh,qqqqqqqqpppppqqqqqqqqqp []]]]u>",
">F[]]]zK}}}}}}}}{{{{}}}{I9]]]]E8>H]]]]<Hmqqqqqqqqqqqqqqqqqqqqqqm@pqqqqqqpppppppppppppppppqqqqqqG.qqqqppnnmmmnnnppppqqppn@[]]]]2>",
">F)]]]zK}}}}}}{'''''{{''D4]]][48>.]]]]<Hmqqqqqqqpppppppppppqqqqi@pqqpppnnnnnmmmmmnmmnnnnnnpppqqG-qpnmihhhhhhhhimnnnppnnm@[<<<<%>",
">8HyzzH9jjjjjIKJ93399993,?yyys$>> z]]]<Ehppppppnmmmihhhhhiimmnn5 hmmhhGGGGGGGGG555G5GGGGGGGGGhh$ 2$$$,,,,,,,,,$$$233332$ uzxxu@>",
">>!@=-@@@-@@@@@@----===--==_!!8>>>   @                                                                                        >>",
">>>9999A9--A989A8||88==|||!88>>>>>>>>>>>>    >>>>>>>>>>>>>>>>>>>>>>>>>>>>>>>>>>>>>>>>>>>>>>>>>>>>>>>>>>>>>>>>>>>>>>>  >>>>>>>>>>",
">>>>>>>>k-=>>>>>>>>>k_@K>>>>>>>>>>>>>>>>>>##>>>>>>>>>>>>>>>>>>>>>>>>>>>>>>>>>>>>>>>>>>>>>>>>>>>>>>>>>>>>>>>>>>>>>>>>  >>>>>>>>>>",
">>>>>>>>>__>>>>>>>>>>_=>>>>>>>>>>>>>>>>>>>  >>>>>>>>>>>>>>>>>>>>>>>>>>>>>>>>>>>>>>>>>>>>>>>>>>>>>>>>>>>>>>>>>>>>>>>>  >>>>>>>>>>"};
