/* XPM */
static char *mbrSchlaeger_xpm[] = {
"128 96 5 1",
"  c None",
". c #303030",
"x c #707070",
"k c #C0C0C0",
"X c #F7F7F7",
"                                               xx                                                     xXXXXXXXXXXXXXXXXXXx      ",
"                                              xXXx                                                    xXXXXXXXXXXXXXXXXXXx      ",
"                                              xXXx                                                     xXXXXXXXXXXXXXXXXx       ",
"                                              xXXx                                                     xXXXXXXXXXXXXXXXXx       ",
"                                             xXXXXx                                                    xXXXXXXXXXXXXXXXXx       ",
"                                             xXXXXx                                                    xXXXXXXXXXXXXXXXXx       ",
"                              .x             xXXXXx             x.                                      xXXXXXXXXXXXXXXx        ",
"                          .xxxkX             xXXXXx             XXxxx.                                  xXXXXXXXXXXXXXXx        ",
"                      .xxxkXXXXX            xXXXXXXx            XXXXXXxxx.                              xXXXXXXXXXXXXXXx        ",
"                   .xxkXXXXXXXXX            xXXXXXXx            XXXXXXXXXXxx.                           xXXXXXXXXXXXXXXx        ",
"               .xxxkXXXXXXXXXXXX            xXXXXXXx            XXXXXXXXXXXXXxxx.                        xXXXXXXXXXXXXx         ",
"           .xxxkXXXXXXXXXXXXXXXX           xXXXXXXXXx           XXXXXXXXXXXXXXXXXxxx.                    xXXXXXXXXXXXXx         ",
"        .xxkXXXXXXXXXXXXXXXXXXXX           xXXXXXXXXx           XXXXXXXXXXXXXXXXXXXXXxx.                 xXXXXXXXXXXXXx         ",
"    .xxxkXXXXXXXXXXXXXXXXXXXXXXX           xXXXXXXXXx           XXXXXXXXXXXXXXXXXXXXXXXXxxx.              xXXXXXXXXXXx          ",
" .xxkXXXXXXXXXXXXXXXXXXXXXXXXXXX           xXXXXXXXXx           XXXXXXXXXXXXXXXXXXXXXXXXXXXXxx.           xXXXXXXXXXXx          ",
"xkXXXXXXXXXXXXXXXXXXXXXXXXXXXXXX          xXXXXXXXXXXx          XXXXXXXXXXXXXXXXXXXXXXXXXXXXXXXx          xXXXXXXXXXXx          ",
"xkXXXXXXXXXXXXXXXXXXXXXXXXXXXXXX          xXXXXXXXXXXx          XXXXXXXXXXXXXXXXXXXXXXXXXXXXXXXx          xXXXXXXXXXXx          ",
" .xxXXXXXXXXXXXXXXXXXXXXXXXXXXXX          xXXXXXXXXXXx          XXXXXXXXXXXXXXXXXXXXXXXXXXXXxx.            xXXXXXXXXx           ",
"    .xxxXXXXXXXXXXXXXXXXXXXXXXXX          xXXXXXXXXXXx          XXXXXXXXXXXXXXXXXXXXXXXXxxx.               xXXXXXXXXx           ",
"        .xxXXXXXXXXXXXXXXXXXXXXX         xXXXXXXXXXXXXx         XXXXXXXXXXXXXXXXXXXXXxx.                   xXXXXXXXXx           ",
"           .xxxXXXXXXXXXXXXXXXXX         xXXXXXXXXXXXXx         XXXXXXXXXXXXXXXXXxxx.                      xXXXXXXXXx           ",
"               .xxxXXXXXXXXXXXXX         xXXXXXXXXXXXXx         XXXXXXXXXXXXXxxx.                           xXXXXXXx            ",
"                   .xxXXXXXXXXXX        xXXXXXXXXXXXXXXx        XXXXXXXXXXxx.                               xXXXXXXx            ",
"                      .xxxXXXXXX        xXXXXXXXXXXXXXXx        XXXXXXxxx.                                  xXXXXXXx            ",
"                          .xxxXX        xXXXXXXXXXXXXXXx        XXxxx.                                       xXXXXx             ",
"                              .x        xXXXXXXXXXXXXXXx        x.                                           xXXXXx             ",
"                                       xXXXXXXXXXXXXXXXXx                                                    xXXXXx             ",
"                                       xXXXXXXXXXXXXXXXXx                                                    xXXXXx             ",
"                                       xXXXXXXXXXXXXXXXXx                                                     xXXx              ",
"                                       xXXXXXXXXXXXXXXXXx                                                     xXXx              ",
"                                      xXXXXXXXXXXXXXXXXXXx                                                    xXXx              ",
"                                     xXXXXXXXXXXXXXXXXXXXx                                                     xx               ",
"              xXXXXXXXXXXXXXXXXX                                                                XXXXXXXXx                       ",
"              xXXXXXXXXXXXXXXXXX                                                                XXXXXXXXXx                      ",
"              xXXXXXXXXXXXXXXXXX                                                     xxxx       XXXXXXXXXXx                     ",
"              xXXXXXXXXXXXXXXXXX                                                    xXXXx       XXXXXXXXXXXx                    ",
"             .XXXXXXXXXXXXXXXXXX                                                   xXXXXx       XXXXXXXXXXXXx                   ",
"             xXXXXXXXXXXXXXXXXXX                                                  xXXXXX.       XXXXXXXXXXXXXx                  ",
"             xXXXXXXXXXXXXXXXXXX                                                 xXXXXXx        XXXXXXXXXXXXXXx                 ",
"             xXXXXXXXXXXXXXXXXXX  xxx.                                          xXXXXXXx        XXXXXXXXXXXXXXXx                ",
"            .XXXXXXXXXXXXXXXXXXx  xXXXxxx.                                     xXXXXXXXx        XXXXXXXXXXXXXXXXx               ",
"            xXXXXXXXXXXXXXXXXXx   xXXXXXXXxx.                                 xXXXXXXXX.        XXXXXXXXXXXXXXXXXx              ",
"            xXXXXXXXXXXXXXXXXx    xXXXXXXXXXXxxx.                            xXXXXXXXXx         XXXXXXXXXXXXXXXXXXx             ",
"           .XXXXXXXXXXXXXXXXx      xXXXXXXXXXXXXXxxx.                       xXXXXXXXXXx         XXXXXXXXXXXXXXXXXXXx            ",
"           xXXXXXXXXXXXXXXXx        xXXXXXXXXXXXXXXXXxx.                   xXXXXXXXXXX.         XXXXXXXXXXXXXXXXXXXXx           ",
"           xXXXXXXXXXXXXXXx          xXXXXXXXXXXXXXXXXXXxxx.              xXXXXXXXXXXx          XXXXXXXXXXXXXXXXXXXXXx          ",
"           xXXXXXXXXXXXXXx            xXXXXXXXXXXXXXXXXXXXXXxxx.         xXXXXXXXXXXXx          XXXXXXXXXXXXXXXXXXXXXXx         ",
"          .XXXXXXXXXXXXXx              xXXXXXXXXXXXXXXXXXXXXXXXX        xXXXXXXXXXXXXx          XXXXXXXXXXXXXXXXXXXXXXXx        ",
"          xXXXXXXXXXXXXx                xXXXXXXXXXXXXXXXXXXXXXXX       xXXXXXXXXXXXXX.          XXXXXXXXXXXXXXXXXXXXXXXXx       ",
"          xXXXXXXXXXXXx                  xXXXXXXXXXXXXXXXXXXXXXX      xXXXXXXXXXXXXXx           .xxxXXXXXXXXXXXXXXXXXXXXXx      ",
"          xXXXXXXXXXXx                    xXXXXXXXXXXXXXXXXXXXXX     xXXXXXXXXXXXXXXx               .xxxXXXXXXXXXXXXXXXXXXx     ",
"         .XXXXXXXXXXx                      xXXXXXXXXXXXXXXXXXXXX    xXXXXXXXXXXXXXXXx                   .xxXXXXXXXXXXXXXXXXx    ",
"         xXXXXXXXXXx                        xXXXXXXXXXXXXXXXXXXX   xXXXXXXXXXXXXXXXX.                      .xxxXXXXXXXXXXXXXx   ",
"         xXXXXXXXXx                          xXXXXXXXXXXXXXXXXXX  xXXXXXXXXXXXXXXXXx                           .xxxXXXXXXXXXXx  ",
"        .XXXXXXXXx                            xXXXXXXXXXXXXXXXXX xXXXXXXXXXXXXXXXXXx                               .xxXXXXXXXx  ",
"        xXXXXXXXx                              xXXXXXXXXXXXXXXXXxXXXXXXXXXXXXXXXXXX.                                  .xxxXXXx  ",
"        xXXXXXXx                                xXXXXXXXXXXXXXXXXXXXXXXXXXXXXXXXXXx                                       .xxx  ",
"        xXXXXXx                                  xXXXXXXXXXXXXXXXXXXXXXXXXXXXXXXXXx                                             ",
"       .XXXXXx                                    xXXXXXXXXXXXXXXXXXXXXXXXXXXXXXXXx                                             ",
"       xXXXXx                                      xXXXXXXXXXXXXXXXXXXXXXXXXXXXXXX.                                             ",
"       xXXXx                                        xXXXXXXXXXXXXXXXXXXXXXXXXXXXXx                                              ",
"       xxxx                                          xXXXXXXXXXXXXXXXXXXXXXXXXXXXx                                              ",
"                                                      xXXXXXXXXXXXXXXXXXXXXXXXXXXx                                              ",
"                                                       xXXXXXXXXXXXXXXXXXXXXXXXXX.                                              ",
"                       xXXXXXXXX                                                                XXXXXXXXXXXXXXXXX.              ",
"                      xXXXXXXXXX                                                                XXXXXXXXXXXXXXXXXx              ",
"                     xXXXXXXXXXX       xxxx                                                     XXXXXXXXXXXXXXXXXx              ",
"                    xXXXXXXXXXXX       xXXXx                                                    XXXXXXXXXXXXXXXXXx              ",
"                   xXXXXXXXXXXXX       xXXXXx                                                   XXXXXXXXXXXXXXXXXX.             ",
"                  xXXXXXXXXXXXXX       .XXXXXx                                                  XXXXXXXXXXXXXXXXXXx             ",
"                 xXXXXXXXXXXXXXX        xXXXXXx                                                 XXXXXXXXXXXXXXXXXXx             ",
"                xXXXXXXXXXXXXXXX        xXXXXXXx                                          .xxx  XXXXXXXXXXXXXXXXXXx             ",
"               xXXXXXXXXXXXXXXXX        xXXXXXXXx                                     .xxxXXXx  xXXXXXXXXXXXXXXXXXX.            ",
"              xXXXXXXXXXXXXXXXXX        .XXXXXXXXx                                 .xxXXXXXXXx   xXXXXXXXXXXXXXXXXXx            ",
"             xXXXXXXXXXXXXXXXXXX         xXXXXXXXXx                            .xxxXXXXXXXXXXx    xXXXXXXXXXXXXXXXXx            ",
"            xXXXXXXXXXXXXXXXXXXX         xXXXXXXXXXx                       .xxxXXXXXXXXXXXXXx      xXXXXXXXXXXXXXXXX.           ",
"           xXXXXXXXXXXXXXXXXXXXX         .XXXXXXXXXXx                   .xxXXXXXXXXXXXXXXXXx        xXXXXXXXXXXXXXXXx           ",
"          xXXXXXXXXXXXXXXXXXXXXX          xXXXXXXXXXXx              .xxxXXXXXXXXXXXXXXXXXXx          xXXXXXXXXXXXXXXx           ",
"         xXXXXXXXXXXXXXXXXXXXXXX          xXXXXXXXXXXXx         .xxxXXXXXXXXXXXXXXXXXXXXXx            xXXXXXXXXXXXXXx           ",
"        xXXXXXXXXXXXXXXXXXXXXXXX          xXXXXXXXXXXXXx        XXXXXXXXXXXXXXXXXXXXXXXXx              xXXXXXXXXXXXXX.          ",
"       xXXXXXXXXXXXXXXXXXXXXXXXX          .XXXXXXXXXXXXXx       XXXXXXXXXXXXXXXXXXXXXXXx                xXXXXXXXXXXXXx          ",
"      xXXXXXXXXXXXXXXXXXXXXXxxx.           xXXXXXXXXXXXXXx      XXXXXXXXXXXXXXXXXXXXXXx                  xXXXXXXXXXXXx          ",
"     xXXXXXXXXXXXXXXXXXXxxx.               xXXXXXXXXXXXXXXx     XXXXXXXXXXXXXXXXXXXXXx                    xXXXXXXXXXXx          ",
"    xXXXXXXXXXXXXXXXXxx.                   xXXXXXXXXXXXXXXXx    XXXXXXXXXXXXXXXXXXXXx                      xXXXXXXXXXX.         ",
"   xXXXXXXXXXXXXXxxx.                      .XXXXXXXXXXXXXXXXx   XXXXXXXXXXXXXXXXXXXx                        xXXXXXXXXXx         ",
"  xXXXXXXXXXXxxx.                           xXXXXXXXXXXXXXXXXx  XXXXXXXXXXXXXXXXXXx                          xXXXXXXXXx         ",
"  xXXXXXXXxx.                               xXXXXXXXXXXXXXXXXXx XXXXXXXXXXXXXXXXXx                            xXXXXXXXX.        ",
"  xXXXxxx.                                  .XXXXXXXXXXXXXXXXXXxXXXXXXXXXXXXXXXXx                              xXXXXXXXx        ",
"  xxx.                                       xXXXXXXXXXXXXXXXXXXXXXXXXXXXXXXXXXx                                xXXXXXXx        ",
"                                             xXXXXXXXXXXXXXXXXXXXXXXXXXXXXXXXXx                                  xXXXXXx        ",
"                                             xXXXXXXXXXXXXXXXXXXXXXXXXXXXXXXXx                                    xXXXXX.       ",
"                                             .XXXXXXXXXXXXXXXXXXXXXXXXXXXXXXx                                      xXXXXx       ",
"                                              xXXXXXXXXXXXXXXXXXXXXXXXXXXXXx                                        xXXXx       ",
"                                              xXXXXXXXXXXXXXXXXXXXXXXXXXXXx                                          xxxx       ",
"                                              xXXXXXXXXXXXXXXXXXXXXXXXXXXx                                                      ",
"                                              .XXXXXXXXXXXXXXXXXXXXXXXXXx                                                       "};
